# x u
-10.0 -0.0007959320101601497
-9.98046875 -0.0012362154437515205
-9.9609375 -0.00063609920421559
-9.94140625 -0.0015610792103945004
-9.921875 -0.00030986454754189374
-9.90234375 -0.0010290758770674646
-9.8828125 -0.0010734259134661528
-9.86328125 -0.001238510915800961
-9.84375 -0.001257565612588274
-9.82421875 -0.0015697533460765634
-9.8046875 -0.0013280299445128652
-9.78515625 -0.0009200937488604843
-9.765625 -0.00107731221355023
-9.74609375 -0.0007283828367625755
-9.7265625 -0.0010240379991653947
-9.70703125 -0.0009564455632525837
-9.6875 -0.00015059678138173993
-9.66796875 -0.0008920681196874503
-9.6484375 -0.00012903349633686112
-9.62890625 0.00024131828554674328
-9.609375 -2.9116762917946737e-5
-9.58984375 -0.00024577518590906955
-9.5703125 -0.00047166774254925325
-9.55078125 2.1171544864806435e-5
-9.53125 -0.000811348491440822
-9.51171875 -0.0012310869967973037
-9.4921875 6.216724217011915e-5
-9.47265625 -0.0018181432598597391
-9.453125 -0.0010447347846685995
-9.43359375 -0.0010178322720386657
-9.4140625 -0.0015343255190004568
-9.39453125 -0.0013023813338743917
-9.375 -0.001454748394314559
-9.35546875 -0.001653422685171213
-9.3359375 -0.0005488725090812691
-9.31640625 -0.0008680178312375775
-9.296875 -0.0009788226805586275
-9.27734375 -0.0011279885623603353
-9.2578125 -0.0016803517769898718
-9.23828125 -0.0014438555737228964
-9.21875 -0.0015688830977044696
-9.19921875 -0.0018555228796074685
-9.1796875 -0.0018748829187415295
-9.16015625 -0.001383658250625485
-9.140625 -0.0022457111216577057
-9.12109375 -0.0018092584369458209
-9.1015625 -0.0028753770486052432
-9.08203125 -0.0020513418931488586
-9.0625 -0.002419805205572015
-9.04296875 -0.0008955869553402274
-9.0234375 -0.002105503554663102
-9.00390625 -0.0018745366678449282
-8.984375 -0.0025421338899832002
-8.96484375 -0.00116805183563376
-8.9453125 -0.0013560402241072633
-8.92578125 -0.00082263072846947
-8.90625 -0.0015423802029266298
-8.88671875 -0.0003358224492513717
-8.8671875 -6.72125678003177e-5
-8.84765625 -0.001273477699518133
-8.828125 0.0006185814039312287
-8.80859375 -0.0003219775631263522
-8.7890625 0.0006094395734558278
-8.76953125 -0.00019839400032450882
-8.75 -0.0006817114341424041
-8.73046875 -0.001163603108258665
-8.7109375 -0.0012013097560490404
-8.69140625 -0.0016212572359157462
-8.671875 -0.0012524734079684824
-8.65234375 -0.001772595099185155
-8.6328125 -0.001524660873012132
-8.61328125 -0.001685584025493625
-8.59375 -0.0016152557204165661
-8.57421875 -0.0010857808443384496
-8.5546875 -0.0014251018482116576
-8.53515625 -0.0007473245038135089
-8.515625 -0.0013635354932869936
-8.49609375 -0.0018316719852910328
-8.4765625 -0.0020425772768064426
-8.45703125 -0.001721360544112642
-8.4375 -0.0017149951926196602
-8.41796875 -0.002099987790427374
-8.3984375 -0.0018526478689343678
-8.37890625 -0.0021674502901698756
-8.359375 -0.0013901851989719938
-8.33984375 -0.0019056831744473784
-8.3203125 -0.0013288608399597418
-8.30078125 -0.001994333969733572
-8.28125 -0.001144152607089166
-8.26171875 -0.0019995941827568586
-8.2421875 -0.0013108623296292088
-8.22265625 -0.0014100948652438217
-8.203125 -0.002559288927423492
-8.18359375 -0.000657036048085341
-8.1640625 -0.0014246366187340709
-8.14453125 -0.0019559460220834324
-8.125 -0.001208729633705434
-8.10546875 -0.0022016187290050393
-8.0859375 -0.0032924188498552696
-8.06640625 -0.002392689029051695
-8.046875 -0.0034905537755367966
-8.02734375 -0.003170492840223636
-8.0078125 -0.0028305046816437807
-7.98828125 -0.003137468153978886
-7.96875 -0.0030100576587052882
-7.94921875 -0.003813369479931338
-7.9296875 -0.0030295777084803077
-7.91015625 -0.0033852510862255117
-7.890625 -0.003063185481860034
-7.87109375 -0.0017397064865482328
-7.8515625 -0.0026123206725173695
-7.83203125 -0.002687078838262212
-7.8125 -0.0021657017956175084
-7.79296875 -0.0017897339876076501
-7.7734375 -0.001715747899390531
-7.75390625 -0.0014416979451718354
-7.734375 -0.0020834679127057706
-7.71484375 -0.0017965519786933143
-7.6953125 -0.0014314342738231678
-7.67578125 -0.002199824105989359
-7.65625 -0.003149423040870257
-7.63671875 -0.002332893144112766
-7.6171875 -0.0037277539272911886
-7.59765625 -0.002503196037053068
-7.578125 -0.001903656817145577
-7.55859375 -0.0015529308537587938
-7.5390625 -0.0017529204001840992
-7.51953125 -0.002020016256546464
-7.5 -0.0010490536948101396
-7.48046875 -0.0017160853911822723
-7.4609375 -0.000940885099674957
-7.44140625 -0.0017065013236709163
-7.421875 -0.0016668949790963146
-7.40234375 -0.0010962921761061234
-7.3828125 -0.002011780304864135
-7.36328125 -0.0015583851664414624
-7.34375 -0.0015577850981945882
-7.32421875 -0.0014342067235080906
-7.3046875 -0.0014507487609578089
-7.28515625 -0.0017284628980405138
-7.265625 -0.0018351994170991036
-7.24609375 -0.0020133542424499787
-7.2265625 -0.0005843880463224234
-7.20703125 -0.0014882922554635503
-7.1875 -0.0019326915078293973
-7.16796875 -0.0014233577142364379
-7.1484375 -0.0021037443459853665
-7.12890625 -0.0014476678469943392
-7.109375 -0.001959104456129598
-7.08984375 -0.0015949507701391082
-7.0703125 -0.0020700618488827954
-7.05078125 -0.0012360439672868752
-7.03125 -0.0030770441366880057
-7.01171875 -0.0033238749056110446
-6.9921875 -0.0024985175186982398
-6.97265625 -0.0027467740083429648
-6.953125 -0.0027370921386445763
-6.93359375 -0.0028527994199419094
-6.9140625 -0.003699090889675882
-6.89453125 -0.0027751272808227085
-6.875 -0.0026879239332224802
-6.85546875 -0.0029923364012962583
-6.8359375 -0.003212071913183845
-6.81640625 -0.003340034710951123
-6.796875 -0.0019957560571290944
-6.77734375 -0.0028084974641215954
-6.7578125 -0.0016966290313684684
-6.73828125 -0.0025529522771368107
-6.71875 -0.0022588642892868993
-6.69921875 -0.0023367199591648458
-6.6796875 -0.0018712419304323102
-6.66015625 -0.002360944026573719
-6.640625 -0.0013772024058016363
-6.62109375 -0.0017943235327293472
-6.6015625 -0.0013265982020087552
-6.58203125 -0.001915104026078307
-6.5625 -0.0016768131674025355
-6.54296875 -0.0019289069440466822
-6.5234375 -0.0017581482757798028
-6.50390625 -0.0023195189888933765
-6.484375 -0.002152349060705383
-6.46484375 -0.002798733889600613
-6.4453125 -0.002367985939628392
-6.42578125 -0.003195702483490215
-6.40625 -0.0025212780881104235
-6.38671875 -0.002822078537294326
-6.3671875 -0.002039693844479884
-6.34765625 -0.0018471367776126124
-6.328125 -0.002349618957504074
-6.30859375 -0.0024253634944002567
-6.2890625 -0.003230680992846735
-6.26953125 -0.001302830682987255
-6.25 -0.002350167392701774
-6.23046875 -0.0018864160117755269
-6.2109375 -0.0030010854601780768
-6.19140625 -0.002677187041935758
-6.171875 -0.0030553478675842127
-6.15234375 -0.0005670620704891771
-6.1328125 -0.0029361762511694867
-6.11328125 -0.0015799830611142873
-6.09375 -0.0017946309077117029
-6.07421875 -0.001780861313735116
-6.0546875 -0.0019221440972607695
-6.03515625 -0.0015563081156979575
-6.015625 -0.0019566481756945198
-5.99609375 -0.0014862072701591345
-5.9765625 -0.0018912408223528132
-5.95703125 -0.0018623080509974077
-5.9375 -0.002020554350603554
-5.91796875 -0.0015359755711812362
-5.8984375 -0.0010864320348582535
-5.87890625 -0.001484961515961114
-5.859375 -0.0019843922672546643
-5.83984375 -0.0014887694526544148
-5.8203125 -0.0004345255458642061
-5.80078125 -0.0008591012370107176
-5.78125 -9.084755310984072e-5
-5.76171875 -5.593213981014422e-5
-5.7421875 -0.00016505012283607456
-5.72265625 -0.0002812314925570991
-5.703125 0.0006698746579720805
-5.68359375 0.000566952728632053
-5.6640625 0.000634131843879171
-5.64453125 0.0007721549572379249
-5.625 0.001962558608382653
-5.60546875 0.0011755413070340948
-5.5859375 0.001584481128523385
-5.56640625 0.0008795538008717629
-5.546875 0.0019236953623729125
-5.52734375 0.001792721122230806
-5.5078125 0.001722254128915468
-5.48828125 0.0018415919883229825
-5.46875 0.002385051225232887
-5.44921875 0.0032515008927023747
-5.4296875 0.002517553709877385
-5.41015625 0.0042178200477507866
-5.390625 0.004308581230835967
-5.37109375 0.0053862349733130865
-5.3515625 0.004886490126199294
-5.33203125 0.0054419943535266024
-5.3125 0.0061234887691603845
-5.29296875 0.0054370313265186265
-5.2734375 0.006878895523327766
-5.25390625 0.0063134799966602095
-5.234375 0.007556849379469377
-5.21484375 0.008161612455412193
-5.1953125 0.009600780065055325
-5.17578125 0.009633359030793598
-5.15625 0.011217313821472952
-5.13671875 0.011827514652616555
-5.1171875 0.013859349666642595
-5.09765625 0.013948323503961912
-5.078125 0.015412946855711818
-5.05859375 0.01632677213776268
-5.0390625 0.017724375343964982
-5.01953125 0.019311449808192327
-5.0 0.021352309398257413
-4.98046875 0.023885238739207254
-4.9609375 0.026308824743304177
-4.94140625 0.028819754820112023
-4.921875 0.0310005644424578
-4.90234375 0.03409631481466936
-4.8828125 0.03617393638953789
-4.86328125 0.04030589393470045
-4.84375 0.04346602634596508
-4.82421875 0.047486834508661147
-4.8046875 0.05143771402704189
-4.78515625 0.05558911259971276
-4.765625 0.0600552094574167
-4.74609375 0.06491787209285384
-4.7265625 0.07103623137960659
-4.70703125 0.0754729512325936
-4.6875 0.08150036425163049
-4.66796875 0.08871944892425693
-4.6484375 0.09660396088633336
-4.62890625 0.10356977294910663
-4.609375 0.1114028269051508
-4.58984375 0.12129913555287741
-4.5703125 0.1304226649487417
-4.55078125 0.1414236126665648
-4.53125 0.1535153993640126
-4.51171875 0.16561818890312696
-4.4921875 0.17885798906958866
-4.47265625 0.19260346522724514
-4.453125 0.20825852651470417
-4.43359375 0.22486308597619709
-4.4140625 0.24168265443701456
-4.39453125 0.2620486424451799
-4.375 0.28255100234417924
-4.35546875 0.3057740641319665
-4.3359375 0.32936760972343077
-4.31640625 0.3557688265270274
-4.296875 0.38269664372701023
-4.27734375 0.4136353956943466
-4.2578125 0.4454651535989898
-4.23828125 0.48085510481609206
-4.21875 0.519381753011753
-4.19921875 0.5593258639930634
-4.1796875 0.6026162905816174
-4.16015625 0.6492983904464433
-4.140625 0.7002887831263055
-4.12109375 0.7535236688233113
-4.1015625 0.8123162129329543
-4.08203125 0.8732018678833731
-4.0625 0.9405421385747494
-4.04296875 1.0112880130023838
-4.0234375 1.0872420074532596
-4.00390625 1.1687611631307944
-3.984375 1.2557660915237192
-3.96484375 1.348458054613107
-3.9453125 1.4468557366457238
-3.92578125 1.5518714474046718
-3.90625 1.6638489898513684
-3.88671875 1.7825997038480206
-3.8671875 1.9086521976018722
-3.84765625 2.041659629557199
-3.828125 2.1821831010378303
-3.80859375 2.3317547682766744
-3.7890625 2.487278860275609
-3.76953125 2.653072386764798
-3.75 2.8254432102905955
-3.73046875 3.0066354869302625
-3.7109375 3.1967685101631007
-3.69140625 3.391722931564603
-3.671875 3.5977461351161137
-3.65234375 3.8089666974216256
-3.6328125 4.02680187200548
-3.61328125 4.251169882082939
-3.59375 4.480801704721199
-3.57421875 4.714453726935163
-3.5546875 4.95116050007234
-3.53515625 5.190299769041964
-3.515625 5.43052006471375
-3.49609375 5.669061158266606
-3.4765625 5.9066773279858245
-3.45703125 6.139851968099945
-3.4375 6.367999229927711
-3.41796875 6.587254399008581
-3.3984375 6.7981001497811855
-3.37890625 6.997622940192777
-3.359375 7.1831979816324
-3.33984375 7.353158375591082
-3.3203125 7.508431130109551
-3.30078125 7.641841270350284
-3.28125 7.758123105252404
-3.26171875 7.849925793444425
-3.2421875 7.923150731486214
-3.22265625 7.969982938211054
-3.203125 7.994131372540218
-3.18359375 7.993576861815914
-3.1640625 7.968943299609043
-3.14453125 7.920460164617361
-3.125 7.848323623557773
-3.10546875 7.753635113607913
-3.0859375 7.63832431859273
-3.06640625 7.502594576821005
-3.046875 7.348454641254897
-3.02734375 7.177080428158643
-3.0078125 6.9921369475251485
-2.98828125 6.792298303777309
-2.96875 6.582757289191836
-2.94921875 6.362447834420952
-2.9296875 6.1359190255725515
-2.91015625 5.9030615241500595
-2.890625 5.667152240183002
-2.87109375 5.429452074467344
-2.8515625 5.190556521889
-2.83203125 4.952015435475079
-2.8125 4.716557825876835
-2.79296875 4.483646512477177
-2.7734375 4.255990212431218
-2.75390625 4.0331293177132235
-2.734375 3.8172536138365882
-2.71484375 3.6060812236438604
-2.6953125 3.403675603984994
-2.67578125 3.209556235214066
-2.65625 3.0209694834131477
-2.63671875 2.84249845232588
-2.6171875 2.670461788480831
-2.59765625 2.5079518885595893
-2.578125 2.3527952536667893
-2.55859375 2.2052670305835216
-2.5390625 2.065806096376569
-2.51953125 1.9339369942296691
-2.5 1.8089477546832744
-2.48046875 1.6922577742020433
-2.4609375 1.5828090568280246
-2.44140625 1.479977989190469
-2.421875 1.3825582886339975
-2.40234375 1.2928943112328763
-2.3828125 1.2079218065796073
-2.36328125 1.1298450304865852
-2.34375 1.0543655393134537
-2.32421875 0.9866353499598969
-2.3046875 0.9219380204676043
-2.28515625 0.8627427315241649
-2.265625 0.8068835682866071
-2.24609375 0.755819425509121
-2.2265625 0.7079495847470731
-2.20703125 0.6638077907306819
-2.1875 0.6236491353985084
-2.16796875 0.5854468311718879
-2.1484375 0.5507163861529694
-2.12890625 0.519163262397462
-2.109375 0.49001468331235204
-2.08984375 0.46329269656663924
-2.0703125 0.43948077969730215
-2.05078125 0.4166772540823871
-2.03125 0.3957010475282391
-2.01171875 0.37714115570260803
-1.9921875 0.3598091903305627
-1.97265625 0.34420325907808214
-1.953125 0.3301003943838383
-1.93359375 0.31752604883582347
-1.9140625 0.30669561188946726
-1.89453125 0.2964164045238372
-1.875 0.2889826567903352
-1.85546875 0.2810547323779711
-1.8359375 0.2745476691553546
-1.81640625 0.2696509083038506
-1.796875 0.2655115894819265
-1.77734375 0.2624725382899601
-1.7578125 0.2596889926217206
-1.73828125 0.257898207711171
-1.71875 0.25609431514064185
-1.69921875 0.25650873906788185
-1.6796875 0.2562877204291114
-1.66015625 0.25782880486016163
-1.640625 0.2601587944836676
-1.62109375 0.26272970822971575
-1.6015625 0.2651146259573163
-1.58203125 0.2686741042659053
-1.5625 0.27221923633306977
-1.54296875 0.2777269886650743
-1.5234375 0.2819473146539079
-1.50390625 0.28746487006044374
-1.484375 0.2938375087281474
-1.46484375 0.29999056521611706
-1.4453125 0.3080297950268315
-1.42578125 0.31585005180308434
-1.40625 0.3238236103262473
-1.38671875 0.3336152593880247
-1.3671875 0.3425427547406938
-1.34765625 0.35244584285062197
-1.328125 0.362509993447132
-1.30859375 0.3737297477419676
-1.2890625 0.38506047100277335
-1.26953125 0.3975618394553289
-1.25 0.4099377283740872
-1.23046875 0.42403022625011
-1.2109375 0.4362721534862939
-1.19140625 0.45088021033400144
-1.171875 0.465010504484877
-1.15234375 0.480643803822633
-1.1328125 0.49708777033636864
-1.11328125 0.5128194644653578
-1.09375 0.5293451602722516
-1.07421875 0.5457344770047242
-1.0546875 0.5634480218517358
-1.03515625 0.580993273316332
-1.015625 0.6004556449442853
-0.99609375 0.6178841652069673
-0.9765625 0.6395565888893606
-0.95703125 0.6595018302661647
-0.9375 0.6793938929113492
-0.91796875 0.7015120496905491
-0.8984375 0.7229238293168829
-0.87890625 0.746049212232381
-0.859375 0.768929337029987
-0.83984375 0.7927789420216942
-0.8203125 0.8168665463372027
-0.80078125 0.8413178943327643
-0.78125 0.8658467722449492
-0.76171875 0.8918145974426706
-0.7421875 0.9187154562306391
-0.72265625 0.9443146610515034
-0.703125 0.9725348164933421
-0.68359375 0.9984405024161676
-0.6640625 1.026994396125168
-0.64453125 1.0539957257657275
-0.625 1.0830107152206612
-0.60546875 1.1104569202115333
-0.5859375 1.140308155499839
-0.56640625 1.1687315803886582
-0.546875 1.1983744431277454
-0.52734375 1.2285118870867955
-0.5078125 1.258328984966003
-0.48828125 1.2879821461377607
-0.46875 1.3184709525813043
-0.44921875 1.3482244956646139
-0.4296875 1.378195534232628
-0.41015625 1.4081556947887983
-0.390625 1.437562969749168
-0.37109375 1.4674311672178155
-0.3515625 1.4959833219340362
-0.33203125 1.5259581448336679
-0.3125 1.553597434178789
-0.29296875 1.5834899755553948
-0.2734375 1.6108120182592602
-0.25390625 1.6394833456831208
-0.234375 1.6655686190244636
-0.21484375 1.6925135186905713
-0.1953125 1.7173420053668695
-0.17578125 1.7421165744111842
-0.15625 1.7664244455934397
-0.13671875 1.7899610315735963
-0.1171875 1.8132426902456118
-0.09765625 1.8337701222471008
-0.078125 1.8543334419003759
-0.05859375 1.8734709728708707
-0.0390625 1.8911606078088206
-0.01953125 1.9079880153464055
0.0 1.9237467365086243
0.01953125 1.9368689772679277
0.0390625 1.950841926323724
0.05859375 1.9618343954101864
0.078125 1.972915369440873
0.09765625 1.9797745001103852
0.1171875 1.987797470272847
0.13671875 1.9927194730989246
0.15625 1.996886885160639
0.17578125 1.99937521551387
0.1953125 2.000384345162625
0.21484375 2.001008494721959
0.234375 1.9973653607402957
0.25390625 1.9948832251343809
0.2734375 1.9899661438867855
0.29296875 1.9832318381224634
0.3125 1.97527926287754
0.33203125 1.9663449932321893
0.3515625 1.9550642717766895
0.37109375 1.9432962071770783
0.390625 1.929258173902788
0.41015625 1.914157140317556
0.4296875 1.8982818351679223
0.44921875 1.880768244241759
0.46875 1.8623133685804572
0.48828125 1.8425485752201076
0.5078125 1.8220794936408553
0.52734375 1.8015285996207484
0.546875 1.7772023724878618
0.56640625 1.7542256828220404
0.5859375 1.7291668224252774
0.60546875 1.70362453353886
0.625 1.6781914523803265
0.64453125 1.6513181316908785
0.6640625 1.6240662199324378
0.68359375 1.595518345839272
0.703125 1.5676473868466605
0.72265625 1.5389695778486667
0.7421875 1.5107809994699912
0.76171875 1.4805711432389554
0.78125 1.450928629158046
0.80078125 1.4198049475829482
0.8203125 1.3918085506899114
0.83984375 1.3609788172789217
0.859375 1.3314042388097131
0.87890625 1.3012502224937221
0.8984375 1.2705808676676118
0.91796875 1.241193690114394
0.9375 1.2102236682051675
0.95703125 1.181373084054946
0.9765625 1.1517051048740827
0.99609375 1.1219946655311503
1.015625 1.0940787538712615
1.03515625 1.0647821870019882
1.0546875 1.0371911620787637
1.07421875 1.0092105538219442
1.09375 0.9821034407479706
1.11328125 0.9540736086019705
1.1328125 0.9285710132587572
1.15234375 0.9020703682694889
1.171875 0.8763186234770618
1.19140625 0.8516910906940861
1.2109375 0.8260510170692148
1.23046875 0.802728363249789
1.25 0.7778559541834775
1.26953125 0.7547870866928464
1.2890625 0.7314009949287084
1.30859375 0.7094082589280519
1.328125 0.6872934606443272
1.34765625 0.6654358305470711
1.3671875 0.6442203595613013
1.38671875 0.6253193861321346
1.40625 0.604271595658392
1.42578125 0.586157882463067
1.4453125 0.5664750730366052
1.46484375 0.5489720138272981
1.484375 0.5309622357386963
1.50390625 0.5135400596544641
1.5234375 0.4963300421440691
1.54296875 0.47965380239881183
1.5625 0.4637242182491877
1.58203125 0.44788121560132077
1.6015625 0.4321478260899206
1.62109375 0.41674254666439636
1.640625 0.4023715383004891
1.66015625 0.3880593062357029
1.6796875 0.3744561801646947
1.69921875 0.361723775471933
1.71875 0.34873318635743117
1.73828125 0.33674835009377585
1.7578125 0.32493869773268724
1.77734375 0.3133090615382048
1.796875 0.30327883479888595
1.81640625 0.2920888088606901
1.8359375 0.28244743732104227
1.85546875 0.27175238454872186
1.875 0.2621763053014071
1.89453125 0.25318048569599316
1.9140625 0.24404084315747668
1.93359375 0.23422596098043796
1.953125 0.2272347747305284
1.97265625 0.21755457457050364
1.9921875 0.2108358666639701
2.01171875 0.2030406275758381
2.03125 0.19501742451866086
2.05078125 0.1888443931482952
2.0703125 0.1808559260972342
2.08984375 0.1745742110296859
2.109375 0.16806819330843015
2.12890625 0.16150158595904288
2.1484375 0.15632378790059953
2.16796875 0.15007744361909744
2.1875 0.14533722196168788
2.20703125 0.13946833661939587
2.2265625 0.13573871599171458
2.24609375 0.1300713086009156
2.265625 0.12400456974733401
2.28515625 0.12057337934699995
2.3046875 0.11511459780355979
2.32421875 0.11134711315779229
2.34375 0.10712208607975213
2.36328125 0.10286156565599625
2.3828125 0.09913567901959297
2.40234375 0.09561044041780042
2.421875 0.09194512451930878
2.44140625 0.08801897542094911
2.4609375 0.08461012601534112
2.48046875 0.08032560832384061
2.5 0.07798053047353892
2.51953125 0.07413590001523307
2.5390625 0.07252685280367543
2.55859375 0.0697583060745407
2.578125 0.06735636076004092
2.59765625 0.06451804389519133
2.6171875 0.06210720326505392
2.63671875 0.060029356911304066
2.65625 0.05606637740050574
2.67578125 0.05591446244499887
2.6953125 0.0525393952070643
2.71484375 0.05176851797253795
2.734375 0.0478304355204941
2.75390625 0.04705113892387469
2.7734375 0.04454039290125039
2.79296875 0.043147980862899005
2.8125 0.041301202236983636
2.83203125 0.04040814722354741
2.8515625 0.03923195119382994
2.87109375 0.0358908038509233
2.890625 0.035650812750805894
2.91015625 0.03409598642198769
2.9296875 0.032559980443282066
2.94921875 0.031184599106167832
2.96875 0.03022829201703639
2.98828125 0.029107455555894113
3.0078125 0.02736084184262988
3.02734375 0.027085208046218556
3.046875 0.025739375220836358
3.06640625 0.025183085995580223
3.0859375 0.023327841535684485
3.10546875 0.02248012993333756
3.125 0.021092007575203464
3.14453125 0.020458755606504564
3.1640625 0.021154324971829563
3.18359375 0.0192520834725447
3.203125 0.020011135950787295
3.22265625 0.018769436660772687
3.2421875 0.01831126972707997
3.26171875 0.018168101744035603
3.28125 0.017550116767290458
3.30078125 0.017701462641335652
3.3203125 0.01645283516035745
3.33984375 0.01605387175997164
3.359375 0.015437574905827312
3.37890625 0.014231888471174958
3.3984375 0.01341438274685336
3.41796875 0.012613732782694509
3.4375 0.01330881158714936
3.45703125 0.01177159673819439
3.4765625 0.011963622653832662
3.49609375 0.011092051248404733
3.515625 0.012384169385878163
3.53515625 0.01144656095184704
3.5546875 0.010855289632357046
3.57421875 0.01044033651230869
3.59375 0.009580792906437985
3.61328125 0.009620288572907532
3.6328125 0.009091180952534028
3.65234375 0.00928204127993526
3.671875 0.008226679572293838
3.69140625 0.00843184372242134
3.7109375 0.007885435947766473
3.73046875 0.008587039083383319
3.75 0.008959948896559489
3.76953125 0.007895635496718345
3.7890625 0.007655229724801815
3.80859375 0.006374314608314613
3.828125 0.00697856675487718
3.84765625 0.0064118760980820255
3.8671875 0.005837207609026507
3.88671875 0.006124765068310722
3.90625 0.005640669156764311
3.92578125 0.0053798599052901075
3.9453125 0.00584214672939698
3.96484375 0.004834918548417999
3.984375 0.00420615576492489
4.00390625 0.004966232032673545
4.0234375 0.004598446966087799
4.04296875 0.004837477277539026
4.0625 0.00437749641147267
4.08203125 0.005446589994061668
4.1015625 0.003976988460993702
4.12109375 0.004099952896210013
4.140625 0.00382455206417065
4.16015625 0.0024369311554277573
4.1796875 0.002932150872403838
4.19921875 0.002904781260480771
4.21875 0.003321065858126193
4.23828125 0.003328156508293212
4.2578125 0.002391500538608149
4.27734375 0.0028911559199609194
4.296875 0.0017573010823666024
4.31640625 0.0024068879502916474
4.3359375 0.0014402412191532044
4.35546875 0.0021002810002519468
4.375 0.001579595888196561
4.39453125 0.0009072403123235595
4.4140625 0.0010388195270071288
4.43359375 0.0005692639829048551
4.453125 0.001778549191225165
4.47265625 0.0011121742024402248
4.4921875 0.001263132941469347
4.51171875 0.0013663789631366552
4.53125 0.0015378216924047394
4.55078125 0.0006596965263881427
4.5703125 0.0009700379885911881
4.58984375 0.0012556303942531932
4.609375 0.0010290289090307825
4.62890625 0.001504732243902629
4.6484375 0.0006239579799568462
4.66796875 0.0006771293094836595
4.6875 0.0001559280326958734
4.70703125 0.0007345679316128617
4.7265625 0.000155945795532908
4.74609375 0.0005885827782150521
4.765625 7.582414841478258e-5
4.78515625 0.0005671286328803316
4.8046875 -0.0010560382986936068
4.82421875 0.0001357504434400525
4.84375 -0.00039078405545267536
4.86328125 0.0007347738165475182
4.8828125 6.701606100756319e-5
4.90234375 -8.966082667960507e-5
4.921875 1.6501712569283455e-5
4.94140625 -0.0002675140046657365
4.9609375 -0.0005754778270696814
4.98046875 -0.0007103047464795953
5.0 -0.0006634276616396539
5.01953125 -0.0006617382755832735
5.0390625 0.0007525068113615474
5.05859375 -0.00048645773931989267
5.078125 0.00046738011870117724
5.09765625 0.00018651203784346426
5.1171875 0.0004367797686145869
5.13671875 -0.0007809879011142912
5.15625 0.00021988133990824554
5.17578125 -0.00016780511759256767
5.1953125 -0.00016440265590533798
5.21484375 -0.00021411760138810576
5.234375 -0.0008272285935930629
5.25390625 -0.0012450375603516722
5.2734375 -0.0010806545982308263
5.29296875 -0.0012692827942764329
5.3125 -0.0015741697938000399
5.33203125 -0.0015779682586010702
5.3515625 -0.0018125957840840756
5.37109375 -0.001747624193188968
5.390625 -0.0014881229768803905
5.41015625 -0.0011120296030213694
5.4296875 -0.0010403786915292035
5.44921875 -0.002277740429042524
5.46875 -0.0016514789744050962
5.48828125 -0.0021430161860036545
5.5078125 -0.0017110026731371186
5.52734375 -0.0019975516985223374
5.546875 -0.0016861891578477395
5.56640625 -0.0014215481799076946
5.5859375 -0.0008500421328046237
5.60546875 -0.0008450462014725213
5.625 -0.00041935665025163993
5.64453125 -0.00045223492941040555
5.6640625 7.326802479840078e-5
5.68359375 0.0005817764468777353
5.703125 0.0005165550696847598
5.72265625 0.0014330869018309433
5.7421875 0.0014113929144370374
5.76171875 0.0017114655131895973
5.78125 0.0017029562473528104
5.80078125 0.001645400555127019
5.8203125 0.0014324263882947719
5.83984375 0.0012454637284677328
5.859375 0.0006872782838221736
5.87890625 0.0008216684514680828
5.8984375 0.0014646078529725326
5.91796875 0.001391897765606498
5.9375 0.0004704713311997344
5.95703125 0.002938900476749051
5.9765625 0.001042418094249653
5.99609375 0.001335730190730633
6.015625 -7.172029632268595e-5
6.03515625 0.00043011617236904387
6.0546875 3.5232170682575337e-6
6.07421875 0.0009544753342724532
6.09375 0.00035851977005751934
6.11328125 0.0020740098683806885
6.1328125 0.0006047805717781518
6.15234375 0.0019268191304924187
6.171875 0.0010565181078028285
6.19140625 0.0011824266390199067
6.2109375 0.0005404818736952643
6.23046875 0.0011313187802268754
6.25 0.0007400470468270637
6.26953125 0.001432198156464004
6.2890625 0.0010430435410351269
6.30859375 0.0010742625808801698
6.328125 0.0030676046620760067
6.34765625 0.0005340277420031736
6.3671875 0.0012793857461719238
6.38671875 0.0009211601008507486
6.40625 0.0006817703317931745
6.42578125 0.00048747839938023674
6.4453125 0.0006892397261748506
6.46484375 0.0007931291425740117
6.484375 0.000775677772479666
6.50390625 0.0004293576111566999
6.5234375 0.0005407751444290732
6.54296875 0.0004904281912765374
6.5625 0.0005799653225104784
6.58203125 0.00045680451788188137
6.6015625 0.001955730477297246
6.62109375 0.0017554595026370023
6.640625 0.0015481948038529314
6.66015625 0.0020450029746006404
6.6796875 0.0010439652991987014
6.69921875 0.0011615525539754312
6.71875 0.0011439820427756597
6.73828125 0.0014011395991124775
6.7578125 0.0014573529665300455
6.77734375 0.0004354956899381701
6.796875 0.0008815302749707321
6.81640625 0.000742801705784224
6.8359375 0.0010909381746819768
6.85546875 0.0004770758672718589
6.875 0.00041597048399943937
6.89453125 0.0010603881614115185
6.9140625 8.930769010984108e-6
6.93359375 0.0004352408246601769
6.953125 0.00024169603325030486
6.97265625 0.00031245143360458805
6.9921875 0.0009580638823589727
7.01171875 0.0009952845382534825
7.03125 0.0002419940341600313
7.05078125 0.001028236447432107
7.0703125 0.0008042469623792403
7.08984375 5.006971519527781e-5
7.109375 0.0004908775589762548
7.12890625 -1.741386415998747e-5
7.1484375 0.0005140754201315989
7.16796875 0.0006538330911110002
7.1875 0.001284927995029328
7.20703125 0.0006357667592722382
7.2265625 0.0012631721203844037
7.24609375 0.00039482394823209255
7.265625 0.0008542237409325804
7.28515625 -0.00011983094408896111
7.3046875 0.00027619383048360646
7.32421875 -0.0003436768750016972
7.34375 0.0007509287806078957
7.36328125 -3.065133010449195e-5
7.3828125 0.0007638664537367168
7.40234375 -0.0005385058262558085
7.421875 0.00034142956878824293
7.44140625 -0.0009461830168204788
7.4609375 0.0002679456178934503
7.48046875 -0.00023798191639906596
7.5 -0.00011527699206052242
7.51953125 0.00011583757415706828
7.5390625 -0.0003197308923989047
7.55859375 -0.0006918478824754599
7.578125 -0.00017434223488945757
7.59765625 -0.00041229615293590123
7.6171875 -0.0006458357840167981
7.63671875 -0.0015408279448249412
7.65625 -0.0011463389806995522
7.67578125 -0.0009351979107434841
7.6953125 -0.0013561818280911062
7.71484375 -0.0008495723235721756
7.734375 -0.0018312832122837409
7.75390625 -0.0011306389985406996
7.7734375 -0.0016432818436009056
7.79296875 -0.0013679867362013374
7.8125 -0.0009737091541822231
7.83203125 -0.0014132796135878155
7.8515625 -0.0013330777604278095
7.87109375 -0.0012724035483236645
7.890625 7.819657822021953e-6
7.91015625 -0.0009423123030774325
7.9296875 -0.0006268814354681259
7.94921875 -0.0014732064737214977
7.96875 -0.0008127886978498173
7.98828125 -0.001208373295443057
8.0078125 -0.0009606407393809691
8.02734375 -0.0012029021337729377
8.046875 -0.002145464124778116
8.06640625 -0.0025083439717125127
8.0859375 -0.0012404826473091674
8.10546875 -0.001377638732155761
8.125 -0.0016590833601682967
8.14453125 -0.0017043318669758278
8.1640625 -0.0020319973611998467
8.18359375 -0.0015654632585560685
8.203125 -0.0017129618319269967
8.22265625 -0.0013678093854209445
8.2421875 -0.0020325229157115154
8.26171875 -0.0015972974342802516
8.28125 -0.0019079699751622728
8.30078125 -0.001735160796109237
8.3203125 -0.001342636378373313
8.33984375 -0.001421807526216061
8.359375 -0.0009008221517454035
8.37890625 -0.0004663697755385096
8.3984375 -0.0004334557639749173
8.41796875 -0.0008616013216831211
8.4375 -0.0012705704189510947
8.45703125 3.671185295264778e-5
8.4765625 -0.001242147881142651
8.49609375 -0.0009153233277510303
8.515625 -0.0008499813196779296
8.53515625 -0.0008465352727864001
8.5546875 -0.0008135839171484471
8.57421875 0.0006601283323091206
8.59375 -0.00109656401111239
8.61328125 0.00041904981168595923
8.6328125 -0.00025000140051606445
8.65234375 0.0005736348111025358
8.671875 -0.0005959390010108201
8.69140625 -0.00016446087233373818
8.7109375 -0.00022449106453670264
8.73046875 -0.0013710508972453739
8.75 -0.0005182249108934972
8.76953125 -0.0007054170437034435
8.7890625 -0.0004773969678210088
8.80859375 -0.00038980603949936854
8.828125 -6.47994260575685e-5
8.84765625 -0.00047413977004006486
8.8671875 -0.0003709917534235191
8.88671875 -0.0010439963748068437
8.90625 -0.00031672692652027004
8.92578125 -0.0015303853939949343
8.9453125 -0.0014755080428278053
8.96484375 -0.0008266809951941491
8.984375 -0.0011023187251751332
9.00390625 -0.0012164238207371288
9.0234375 -0.0016916649905262121
9.04296875 -0.001481931343327976
9.0625 -0.0017268580359077537
9.08203125 -0.0017736425653471083
9.1015625 -0.0011255045152895743
9.12109375 -0.0010218581057432619
9.140625 -0.001156414632637659
9.16015625 -0.0006214715122477982
9.1796875 -0.0021729675383652808
9.19921875 -0.0014682347992579642
9.21875 -0.00046992616029389866
9.23828125 -0.0013831864904382263
9.2578125 -0.0008941336502799879
9.27734375 -0.0016019628645572437
9.296875 -0.0004383789830059437
9.31640625 -0.0015239861101223606
9.3359375 -0.0018131129933801338
9.35546875 -0.001328160826705005
9.375 -0.0010292755458045921
9.39453125 -0.0003858226455955016
9.4140625 -0.0010643103616473776
9.43359375 -0.0003111484251404617
9.453125 -0.0004762691984610823
9.47265625 -0.0003736317566382513
9.4921875 -8.74588696155032e-6
9.51171875 -0.0007964931979833056
9.53125 -6.90885370931496e-5
9.55078125 0.0004796922885316468
9.5703125 -0.00011386395835340842
9.58984375 0.0002583418982855627
9.609375 -9.313953513018919e-6
9.62890625 0.00025805157008143564
9.6484375 -0.0009984909069468695
9.66796875 7.882993110112924e-5
9.6875 -0.0006336329517528244
9.70703125 -0.0002656134319209691
9.7265625 -0.00032818469045059473
9.74609375 -0.00047730487007041633
9.765625 2.55799404347834e-5
9.78515625 0.0005582788281305595
9.8046875 -2.210358978230187e-5
9.82421875 0.0015015280613674131
9.84375 0.0011196836168769764
9.86328125 0.000581141428302151
9.8828125 0.0002479578908139157
9.90234375 0.00041943615526973677
9.921875 -5.053189313208861e-6
9.94140625 -0.00021092534421163212
9.9609375 -0.0007036232011382593
9.98046875 -0.0016236279975885282
