# x u
-10.0 -0.0010085090283245002
-9.98046875 -0.001730178891738987
-9.9609375 -0.0017097926996793023
-9.94140625 -0.0011523007634341997
-9.921875 -0.0016896458378216073
-9.90234375 -0.0008337958245877575
-9.8828125 -0.0007794421189891709
-9.86328125 -0.0006707034403399259
-9.84375 -0.0006704405077866404
-9.82421875 -0.00031009137257365094
-9.8046875 -0.0012025020515249452
-9.78515625 -0.0015754250026368544
-9.765625 -0.0012968253858887113
-9.74609375 -0.0015790561542483594
-9.7265625 -0.0005128585745658443
-9.70703125 -0.0015623078507391863
-9.6875 -0.0006123592962049562
-9.66796875 -0.0014687933107406792
-9.6484375 -0.001004612145523942
-9.62890625 -0.001191837328271328
-9.609375 -0.000988490779700757
-9.58984375 -5.549399706283875e-5
-9.5703125 -0.0008954584975539026
-9.55078125 -0.0006258171198872953
-9.53125 -0.00037373401033991005
-9.51171875 -0.0005356108300649254
-9.4921875 0.0003652368337258016
-9.47265625 0.0005783485214603257
-9.453125 -2.9138116132476632e-5
-9.43359375 -9.000398068015336e-5
-9.4140625 -0.00032826555410625513
-9.39453125 -0.0002051265616908049
-9.375 -0.0002129607045370692
-9.35546875 -0.00048138868647894933
-9.3359375 -0.0014806139277817843
-9.31640625 -0.0009125482312227189
-9.296875 -0.0018950525544762509
-9.27734375 -0.0004591042845625351
-9.2578125 -0.0015278091433902075
-9.23828125 -0.001322111559879921
-9.21875 -0.0009100944926314358
-9.19921875 -0.0016307152362844968
-9.1796875 -0.0008565415476586846
-9.16015625 -0.0009089171595420553
-9.140625 -0.0014023431570654998
-9.12109375 -0.0007245301482647348
-9.1015625 -0.0009384348691394706
-9.08203125 -0.0005994105776100933
-9.0625 0.00028740732933260627
-9.04296875 -0.000729661253207281
-9.0234375 0.0004777681578139181
-9.00390625 3.3986342133363046e-5
-8.984375 -0.0005586421059880775
-8.96484375 -0.00038175868913470357
-8.9453125 -0.0013665926578032561
-8.92578125 -0.0010246879674753462
-8.90625 -0.0021843029651354984
-8.88671875 -0.0014576324376046612
-8.8671875 -0.0014873164983548737
-8.84765625 -0.001633557249657247
-8.828125 -0.002506483596001585
-8.80859375 -0.001773287798210843
-8.7890625 -0.002230514386004967
-8.76953125 -0.0021366402072282575
-8.75 -0.0025978000124929276
-8.73046875 -0.0023683625180420543
-8.7109375 -0.002025199536786253
-8.69140625 -0.002693156456920514
-8.671875 -0.0019477659389380668
-8.65234375 -0.0025096696493523245
-8.6328125 -0.002325045315885947
-8.61328125 -0.002510203359420489
-8.59375 -0.0014904806106860666
-8.57421875 -0.0020440143830290497
-8.5546875 -0.0016769719933961286
-8.53515625 -0.00228689807540243
-8.515625 -0.0007325662546201622
-8.49609375 -0.0019002355359891282
-8.4765625 -0.0012872545256919915
-8.45703125 -0.0011414676273181906
-8.4375 -0.0007825398035823383
-8.41796875 -0.0015700839119286991
-8.3984375 -0.00036794289948458014
-8.37890625 -0.0019167196806473275
-8.359375 -0.0013813138944693826
-8.33984375 -0.002514808116343553
-8.3203125 -0.0027181928053873206
-8.30078125 -0.0014446226344678736
-8.28125 -0.0026879676710455658
-8.26171875 -0.002269025614262038
-8.2421875 -0.0019525923736368467
-8.22265625 -0.0022406926909849245
-8.203125 -0.001891455002515946
-8.18359375 -0.0019083012391311605
-8.1640625 -0.001917889929734018
-8.14453125 -0.0020940932311064864
-8.125 -0.0022591874236534528
-8.10546875 -0.0022723473092357794
-8.0859375 -0.0029664920166380315
-8.06640625 -0.002493308937696514
-8.046875 -0.002377337845329043
-8.02734375 -0.00128600501577277
-8.0078125 -0.0022432721504512115
-7.98828125 -0.0014543819796535642
-7.96875 -0.0018684134969665991
-7.94921875 -0.00245458470253318
-7.9296875 -0.0014804440676757097
-7.91015625 -0.0020068210624439725
-7.890625 -0.0010687976754210002
-7.87109375 -0.002129564595432419
-7.8515625 -0.0016804312308168132
-7.83203125 -0.0019996165624078938
-7.8125 -0.0020792917616064555
-7.79296875 -0.0015708780090510494
-7.7734375 -0.0015607329480500365
-7.75390625 -0.0015187520132054072
-7.734375 -0.0008799748584883971
-7.71484375 0.00012148704161533963
-7.6953125 -0.0008931453508564113
-7.67578125 -0.0005390345486122189
-7.65625 -0.00165548624538292
-7.63671875 -0.00078299184392773
-7.6171875 -0.0017161824672956294
-7.59765625 -0.001111273245974695
-7.578125 -0.0013097200854996355
-7.55859375 -0.002246779459259801
-7.5390625 -0.0015886794875544924
-7.51953125 -0.0026393019973428855
-7.5 -0.0019743045280407605
-7.48046875 -0.002099666543960221
-7.4609375 -0.0023862952019945887
-7.44140625 -0.0027718303937912655
-7.421875 -0.0034784814025039627
-7.40234375 -0.0025672468874724506
-7.3828125 -0.002578937681145031
-7.36328125 -0.002525333860505801
-7.34375 -0.0032893219539651703
-7.32421875 -0.00243853424158531
-7.3046875 -0.004007567851189131
-7.28515625 -0.0033383943678314335
-7.265625 -0.003891598338644747
-7.24609375 -0.003219752327853447
-7.2265625 -0.0035818861627540995
-7.20703125 -0.002800066517491742
-7.1875 -0.0026890180960810876
-7.16796875 -0.0028012625640936144
-7.1484375 -0.002116214152630768
-7.12890625 -0.0021206381262814863
-7.109375 -0.0024918989239102064
-7.08984375 -0.0025896620532578274
-7.0703125 -0.002030134896384641
-7.05078125 -0.0023357110077665303
-7.03125 -0.002374142828983434
-7.01171875 -0.0024509463529050505
-6.9921875 -0.001877754659273056
-6.97265625 -0.002035036309494797
-6.953125 -0.001810148602164253
-6.93359375 -0.0032032240150491275
-6.9140625 -0.0028780823665487338
-6.89453125 -0.002330125086853276
-6.875 -0.0016365939334149204
-6.85546875 -0.0019454147820742174
-6.8359375 -0.0021257632647661007
-6.81640625 -0.002255077117292892
-6.796875 -0.0012139736256461808
-6.77734375 -0.001770730418773847
-6.7578125 -0.0005060161893317705
-6.73828125 -0.0015362991239802337
-6.71875 -0.0011395424701201862
-6.69921875 -0.0008523543147036239
-6.6796875 -0.0009593175549061639
-6.66015625 -0.00044884173012971207
-6.640625 -0.0014355923066378118
-6.62109375 -0.0011740721761345774
-6.6015625 -0.0012487561263800073
-6.58203125 -0.0010881830424524508
-6.5625 -0.001513124364326962
-6.54296875 -0.0009392784327105219
-6.5234375 -0.00120998428262388
-6.50390625 -0.001944083558071255
-6.484375 -0.0014901776986859516
-6.46484375 -0.0009796461075547436
-6.4453125 -0.0007186151674608982
-6.42578125 -0.0003750158133148801
-6.40625 -0.0005824151703348879
-6.38671875 -0.0008706217365093416
-6.3671875 -0.0007854455720678194
-6.34765625 -0.0005962414198213417
-6.328125 -0.0012697504522759528
-6.30859375 -0.0002445245132810525
-6.2890625 -0.0010312950148087183
-6.26953125 -0.00030344062496569235
-6.25 0.0001412607544610811
-6.23046875 -0.00016850104584209546
-6.2109375 7.994036209213462e-5
-6.19140625 0.0006561873495900539
-6.171875 0.001172926737340596
-6.15234375 -0.00029070229847372175
-6.1328125 0.001122784265349619
-6.11328125 0.0001667559698463883
-6.09375 0.0015571355895191985
-6.07421875 0.0019222897349955304
-6.0546875 0.0026387179617419765
-6.03515625 0.002521535960432031
-6.015625 0.00423029288363308
-5.99609375 0.0044708414156495735
-5.9765625 0.004381263574442684
-5.95703125 0.005594656013403476
-5.9375 0.00530265095235638
-5.91796875 0.005591563683894796
-5.8984375 0.006170563695509834
-5.87890625 0.006539582980983671
-5.859375 0.007785802427035637
-5.83984375 0.008017839154032536
-5.8203125 0.008673332415859991
-5.80078125 0.009466425292971037
-5.78125 0.010584501302120408
-5.76171875 0.011405810291536311
-5.7421875 0.01373243308766725
-5.72265625 0.015063745904710157
-5.703125 0.01639736520727264
-5.68359375 0.017825215730490784
-5.6640625 0.01942154856881484
-5.64453125 0.020719307558635436
-5.625 0.02297612854834774
-5.60546875 0.02469370327093079
-5.5859375 0.027396185038840337
-5.56640625 0.029829807594716984
-5.546875 0.03221062441253253
-5.52734375 0.03538787370841645
-5.5078125 0.03747812759375102
-5.48828125 0.04060362402854567
-5.46875 0.044273772004643996
-5.44921875 0.048841734144832394
-5.4296875 0.05258109731596727
-5.41015625 0.057328394024692475
-5.390625 0.06134820751062264
-5.37109375 0.06754192637363121
-5.3515625 0.07309394492558718
-5.33203125 0.0788454982993172
-5.3125 0.0857446017136636
-5.29296875 0.09272730706251653
-5.2734375 0.09972450035942604
-5.25390625 0.1081381425382204
-5.234375 0.11631741762543069
-5.21484375 0.1266118259739697
-5.1953125 0.1364601202296949
-5.17578125 0.14788653050338585
-5.15625 0.15943216250526682
-5.13671875 0.1730126703698116
-5.1171875 0.186786779473731
-5.09765625 0.20293426122061886
-5.078125 0.21903334317195688
-5.05859375 0.2368454227113972
-5.0390625 0.25563216282592793
-5.01953125 0.27620514912482785
-5.0 0.2972201988696649
-4.98046875 0.32145867835221614
-4.9609375 0.3460125731046344
-4.94140625 0.37372901653732904
-4.921875 0.403657744159181
-4.90234375 0.4358212668995834
-4.8828125 0.4709480226858219
-4.86328125 0.5082078841237503
-4.84375 0.5479944003441944
-4.82421875 0.5910067323560709
-4.8046875 0.6377380602349023
-4.78515625 0.686363529215996
-4.765625 0.7394410737971084
-4.74609375 0.7960631264170683
-4.7265625 0.857646269302888
-4.70703125 0.9230962017556054
-4.6875 0.9935477799776571
-4.66796875 1.067989925490147
-4.6484375 1.1481233519940384
-4.62890625 1.2340305097324915
-4.609375 1.3259479113908395
-4.58984375 1.4230545560460537
-4.5703125 1.5276243879685238
-4.55078125 1.6385791206831453
-4.53125 1.7562896247414868
-4.51171875 1.8816991217353505
-4.4921875 2.013536123426018
-4.47265625 2.1540486233521783
-4.453125 2.3021745095057424
-4.43359375 2.457871522154842
-4.4140625 2.6220562556538165
-4.39453125 2.7937009946948543
-4.375 2.974236619555306
-4.35546875 3.1616145875786943
-4.3359375 3.35833285128761
-4.31640625 3.5618499028568933
-4.296875 3.772200397413195
-4.27734375 3.989989994355816
-4.2578125 4.214303509879585
-4.23828125 4.444222242003766
-4.21875 4.677689763705541
-4.19921875 4.913928685140086
-4.1796875 5.154782060208914
-4.16015625 5.395119336323793
-4.140625 5.636572918175371
-4.12109375 5.876006551801014
-4.1015625 6.110949282537206
-4.08203125 6.3405755909116195
-4.0625 6.5627328675198005
-4.04296875 6.776322879833201
-4.0234375 6.977984773427506
-4.00390625 7.166402330649685
-3.984375 7.341742892161392
-3.96484375 7.498356893406308
-3.9453125 7.637383109229028
-3.92578125 7.755695504221598
-3.90625 7.852950904260804
-3.88671875 7.928697354307314
-3.8671875 7.979105845565659
-3.84765625 8.00722618416754
-3.828125 8.00963450361424
-3.80859375 7.98797830409322
-3.7890625 7.942284838436095
-3.76953125 7.872582546915125
-3.75 7.781107383394092
-3.73046875 7.666659006825432
-3.7109375 7.53332401410582
-3.69140625 7.379759510267086
-3.671875 7.210048141939325
-3.65234375 7.024507897212731
-3.6328125 6.825568334818485
-3.61328125 6.616131377617563
-3.59375 6.396375279740154
-3.57421875 6.168403714197006
-3.5546875 5.935442770948232
-3.53515625 5.697793668831904
-3.515625 5.4580355925803055
-3.49609375 5.217379419054826
-3.4765625 4.978484126464711
-3.45703125 4.740680782391775
-3.4375 4.507189674186258
-3.41796875 4.277094806676692
-3.3984375 4.052279156193032
-3.37890625 3.8337076038553715
-3.359375 3.621663036527087
-3.33984375 3.416869747650731
-3.3203125 3.218153756405374
-3.30078125 3.029762118804092
-3.28125 2.8484230821701635
-3.26171875 2.6745930648029628
-3.2421875 2.5096474521784145
-3.22265625 2.352100165356358
-3.203125 2.2022654286656436
-3.18359375 2.0602657053114855
-3.1640625 1.9270206896909805
-3.14453125 1.8002056859793165
-3.125 1.6813679709206644
-3.10546875 1.5702949314118113
-3.0859375 1.4648064246795243
-3.06640625 1.3667044892764435
-3.046875 1.2736666356954922
-3.02734375 1.1880483135372728
-3.0078125 1.1061476046042995
-2.98828125 1.0308725765795341
-2.96875 0.9602742791519128
-2.94921875 0.8945671172389793
-2.9296875 0.833357326281398
-2.91015625 0.7752157481862438
-2.890625 0.7229294389888915
-2.87109375 0.6735107329314107
-2.8515625 0.6281850943071927
-2.83203125 0.5848401658601201
-2.8125 0.5464088953297526
-2.79296875 0.5094548821041534
-2.7734375 0.47589997110188
-2.75390625 0.4438306353687631
-2.734375 0.41458300108349366
-2.71484375 0.38724314917456504
-2.6953125 0.3635504212828541
-2.67578125 0.33978483276652943
-2.65625 0.31906172973160213
-2.63671875 0.29992074087162196
-2.6171875 0.2815416702644027
-2.59765625 0.2657417743037336
-2.578125 0.24966179667574856
-2.55859375 0.23680925027478317
-2.5390625 0.22338635866063483
-2.51953125 0.2131611644329594
-2.5 0.20145717830327176
-2.48046875 0.19360465455857395
-2.4609375 0.18396895142299646
-2.44140625 0.17772170434716056
-2.421875 0.1695644059870421
-2.40234375 0.16426828599465756
-2.3828125 0.15846024946617368
-2.36328125 0.15406692530754468
-2.34375 0.15011984258725017
-2.32421875 0.14691556049407506
-2.3046875 0.14351232736062822
-2.28515625 0.14127187099596927
-2.265625 0.13908774728227477
-2.24609375 0.13697243090251224
-2.2265625 0.13637012800656687
-2.20703125 0.1356917928634278
-2.1875 0.13532448653020207
-2.16796875 0.13501835449427818
-2.1484375 0.13519464169955986
-2.12890625 0.13588569330498268
-2.109375 0.13754653140874976
-2.08984375 0.1395847905505385
-2.0703125 0.14114450216024305
-2.05078125 0.14413488354342852
-2.03125 0.14616347145666095
-2.01171875 0.14948132342283588
-1.9921875 0.1534154266666812
-1.97265625 0.1564303296638631
-1.953125 0.16115511625323453
-1.93359375 0.1644587841364617
-1.9140625 0.1696753549792287
-1.89453125 0.17396553872167814
-1.875 0.1786408245816058
-1.85546875 0.1839514583755624
-1.8359375 0.18974360524988684
-1.81640625 0.19556943473787874
-1.796875 0.20250432869654714
-1.77734375 0.20808630628169414
-1.7578125 0.21514459384330958
-1.73828125 0.22214595109769378
-1.71875 0.2296896177928035
-1.69921875 0.23663296053885763
-1.6796875 0.2465757586602191
-1.66015625 0.2551049265344302
-1.640625 0.2639810825950533
-1.62109375 0.2728875996769816
-1.6015625 0.2827349927131293
-1.58203125 0.2925087581516744
-1.5625 0.3033334394724085
-1.54296875 0.3143796518962262
-1.5234375 0.32575823502660345
-1.50390625 0.33747120657890545
-1.484375 0.34950197306963005
-1.46484375 0.36211339480817284
-1.4453125 0.3744612287125641
-1.42578125 0.38663781687519727
-1.40625 0.4005585890195904
-1.38671875 0.41425795461328585
-1.3671875 0.4286505488200494
-1.34765625 0.44436546696731244
-1.328125 0.4590621702925126
-1.30859375 0.475381420790723
-1.2890625 0.4916685268604843
-1.26953125 0.5078181249488507
-1.25 0.5247760360342586
-1.23046875 0.5431414071737096
-1.2109375 0.5613323686837538
-1.19140625 0.579402789496916
-1.171875 0.5999208207920627
-1.15234375 0.6193803836899205
-1.1328125 0.6395651790063825
-1.11328125 0.6609126196186199
-1.09375 0.6821529684621861
-1.07421875 0.7027781453305114
-1.0546875 0.7259240978086303
-1.03515625 0.7482548256822346
-1.015625 0.7726344257664879
-0.99609375 0.7958959307930391
-0.9765625 0.8194840702565229
-0.95703125 0.8445245847770797
-0.9375 0.8695147780266076
-0.91796875 0.8955390170440038
-0.8984375 0.9217981421778122
-0.87890625 0.9493445473453036
-0.859375 0.9759484822066467
-0.83984375 1.0025014777988819
-0.8203125 1.0297777262054675
-0.80078125 1.0584876077899996
-0.78125 1.0866525259625515
-0.76171875 1.1152657815862796
-0.7421875 1.1445991578400154
-0.72265625 1.1736410771311943
-0.703125 1.2029834620501454
-0.68359375 1.2330355079454427
-0.6640625 1.2627407834470623
-0.64453125 1.291365734808734
-0.625 1.3227506805045517
-0.60546875 1.3527154592279949
-0.5859375 1.3829444259480335
-0.56640625 1.4134474011538483
-0.546875 1.443497201103759
-0.52734375 1.4726304064285363
-0.5078125 1.5019184926804143
-0.48828125 1.5307492533983336
-0.46875 1.5598077923793918
-0.44921875 1.587800661851832
-0.4296875 1.6169994067317375
-0.41015625 1.644370162359293
-0.390625 1.671459150277433
-0.37109375 1.6969396809894164
-0.3515625 1.722078142772813
-0.33203125 1.7464878332918563
-0.3125 1.7709331201350054
-0.29296875 1.7940043583255811
-0.2734375 1.815690803959433
-0.25390625 1.8365465644034042
-0.234375 1.856215889616648
-0.21484375 1.875859921660973
-0.1953125 1.8929523140224578
-0.17578125 1.9093391952535779
-0.15625 1.9246179076723358
-0.13671875 1.9388249433324347
-0.1171875 1.9512644129291024
-0.09765625 1.9628822731633213
-0.078125 1.9724293365258985
-0.05859375 1.981008541331747
-0.0390625 1.988188919283379
-0.01953125 1.9926688214834338
0.0 1.9962598887702816
0.01953125 1.9988139496205966
0.0390625 1.9995079210308453
0.05859375 1.9992410478912517
0.078125 1.99615284012837
0.09765625 1.9929218490098353
0.1171875 1.9876566539096983
0.13671875 1.9804795327125138
0.15625 1.972832571047951
0.17578125 1.964015006663626
0.1953125 1.953276958130107
0.21484375 1.9401714460264063
0.234375 1.9268629882780692
0.25390625 1.9118582447476027
0.2734375 1.8947720644530657
0.29296875 1.878111394201418
0.3125 1.8582407577257514
0.33203125 1.8392130186889384
0.3515625 1.8180050230514508
0.37109375 1.7968836109630795
0.390625 1.7741478063444331
0.41015625 1.749917248898098
0.4296875 1.7261611162680985
0.44921875 1.7005257012241657
0.46875 1.6748123853198615
0.48828125 1.6482742989911376
0.5078125 1.620072294045677
0.52734375 1.592278398129461
0.546875 1.5638129407715171
0.56640625 1.5349169268664264
0.5859375 1.5057665205929394
0.60546875 1.4765663542461995
0.625 1.4465637626858314
0.64453125 1.418051680216727
0.6640625 1.386877826034841
0.68359375 1.3581521901548312
0.703125 1.326707475016166
0.72265625 1.2969248914665568
0.7421875 1.2656065396893699
0.76171875 1.2357121169170462
0.78125 1.2058989247804754
0.80078125 1.1759236192558693
0.8203125 1.147314130444101
0.83984375 1.117248097441633
0.859375 1.0890738498325658
0.87890625 1.0601326318025022
0.8984375 1.0312931063957365
0.91796875 1.0038276265029935
0.9375 0.9762123537316238
0.95703125 0.9490538360325707
0.9765625 0.9221874762538269
0.99609375 0.8961955635681097
1.015625 0.8695195321224639
1.03515625 0.844217668790264
1.0546875 0.8203793848025354
1.07421875 0.7961335102662267
1.09375 0.7719196413951386
1.11328125 0.7489509781294242
1.1328125 0.7262580544544603
1.15234375 0.70336399624856
1.171875 0.6815064147250636
1.19140625 0.6606652270421286
1.2109375 0.6401724654999807
1.23046875 0.6200649372178196
1.25 0.5994296153221459
1.26953125 0.5798735406947876
1.2890625 0.5627297608729652
1.30859375 0.5431778093698509
1.328125 0.5261663064357666
1.34765625 0.5077320794787641
1.3671875 0.4908966016732259
1.38671875 0.4738642239953222
1.40625 0.45820945923162903
1.42578125 0.44241420266745435
1.4453125 0.4273831044624443
1.46484375 0.41309107199862566
1.484375 0.3990939871741599
1.50390625 0.38535685256819613
1.5234375 0.3725769729148536
1.54296875 0.3588789185624141
1.5625 0.3468233927630565
1.58203125 0.3350073090596855
1.6015625 0.3230531945854963
1.62109375 0.3121250286851228
1.640625 0.3013365969036097
1.66015625 0.2901502501794634
1.6796875 0.280476398649241
1.69921875 0.27025877549069277
1.71875 0.2603512217451964
1.73828125 0.2510126803451338
1.7578125 0.24268906072169094
1.77734375 0.23370255099748138
1.796875 0.2250565334010607
1.81640625 0.21734587605104105
1.8359375 0.20939398852946367
1.85546875 0.20294137464649453
1.875 0.19515393148642596
1.89453125 0.18846886882090477
1.9140625 0.18054215736135984
1.93359375 0.17430035369542696
1.953125 0.16755641765502668
1.97265625 0.1619272304686519
1.9921875 0.15497186683217334
2.01171875 0.15040350080596573
2.03125 0.14449655743063072
2.05078125 0.1391644475753282
2.0703125 0.13411615568994203
2.08984375 0.12856622309028598
2.109375 0.12329346648538941
2.12890625 0.11839143518150455
2.1484375 0.1140845513185724
2.16796875 0.1098741278389041
2.1875 0.10620250880923815
2.20703125 0.1013698836606021
2.2265625 0.09866197420111626
2.24609375 0.09460852664112472
2.265625 0.09194034802435419
2.28515625 0.08856721344387397
2.3046875 0.08522479809458083
2.32421875 0.08159204950351964
2.34375 0.07957617819927465
2.36328125 0.07546158391192326
2.3828125 0.07388334047659117
2.40234375 0.07037390675170613
2.421875 0.0689397587550532
2.44140625 0.06474777691077208
2.4609375 0.0625305063284613
2.48046875 0.05990399483443454
2.5 0.058484816198330625
2.51953125 0.05526795040382017
2.5390625 0.052632268056758885
2.55859375 0.051358468151940576
2.578125 0.04887754589313754
2.59765625 0.04791721333994469
2.6171875 0.04518482465746131
2.63671875 0.04363541641320334
2.65625 0.04218728354836479
2.67578125 0.040351598445958654
2.6953125 0.03957868171768683
2.71484375 0.03787022335757027
2.734375 0.036453428274948935
2.75390625 0.03408141329960596
2.7734375 0.03435751795785383
2.79296875 0.03198664358507867
2.8125 0.0300863236750102
2.83203125 0.028861193545832532
2.8515625 0.027593404573447028
2.87109375 0.027091848715620585
2.890625 0.025620554690333024
2.91015625 0.024746707366598335
2.9296875 0.023801792532951664
2.94921875 0.02309206824788885
2.96875 0.022212070087738095
2.98828125 0.02154221106006489
3.0078125 0.020436499047634588
3.02734375 0.019286760918987608
3.046875 0.01852849433171941
3.06640625 0.01716853235109471
3.0859375 0.017304664515910603
3.10546875 0.015545037471966908
3.125 0.01582722344231713
3.14453125 0.01413758924728381
3.1640625 0.01412985077803075
3.18359375 0.013530504287882827
3.203125 0.013019490266072964
3.22265625 0.012298800357230744
3.2421875 0.011537274613886317
3.26171875 0.011442731945570772
3.28125 0.011193410045326369
3.30078125 0.010766849369977072
3.3203125 0.009682001045487387
3.33984375 0.009771700932210248
3.359375 0.008524487426002425
3.37890625 0.009535521653220469
3.3984375 0.008360049891950883
3.41796875 0.008397265171358859
3.4375 0.008550535288261052
3.45703125 0.007798733023359761
3.4765625 0.008117207645984142
3.49609375 0.007721396293610933
3.515625 0.008123704901470491
3.53515625 0.008011301329313825
3.5546875 0.007327887146081347
3.57421875 0.0077226396854444546
3.59375 0.006940460556090933
3.61328125 0.007824720454715273
3.6328125 0.00631886273508972
3.65234375 0.006252476373546534
3.671875 0.00651938906576216
3.69140625 0.005588590156133333
3.7109375 0.006541164064037042
3.73046875 0.005907172621568521
3.75 0.0061065673170870305
3.76953125 0.0059812402490990735
3.7890625 0.005320471496296442
3.80859375 0.005420268007061857
3.828125 0.005757871734829223
3.84765625 0.00556670840595519
3.8671875 0.00429403099326775
3.88671875 0.004131669925394377
3.90625 0.004521422337274927
3.92578125 0.004716449791754229
3.9453125 0.0042489415772819505
3.96484375 0.00435035482556323
3.984375 0.004218549900959712
4.00390625 0.004324889929991471
4.0234375 0.0037914037986852556
4.04296875 0.0039013718408336118
4.0625 0.003238917010301101
4.08203125 0.003331347628585224
4.1015625 0.0026998413768399843
4.12109375 0.002791638655547324
4.140625 0.0019504921945916465
4.16015625 0.0019833283926564693
4.1796875 0.0019647399729860737
4.19921875 0.0006359482750526446
4.21875 0.001760997256834429
4.23828125 0.001476085610484068
4.2578125 0.0017663104341392177
4.27734375 0.0019062424455622562
4.296875 0.002511731348222579
4.31640625 0.002032542481793076
4.3359375 0.0023977907332437542
4.35546875 0.002592859131981373
4.375 0.0023737904079645933
4.39453125 0.0028447540111120606
4.4140625 0.0023299297190941815
4.43359375 0.0028265266330751437
4.453125 0.002544272168129691
4.47265625 0.0016537498893944846
4.4921875 0.0018321245302850286
4.51171875 0.0019969315847725433
4.53125 0.002243176896277621
4.55078125 0.001908705728907556
4.5703125 0.000816145954403158
4.58984375 0.0014583834475208057
4.609375 0.0013289137585217325
4.62890625 0.0016940734726786921
4.6484375 0.0011545357511528742
4.66796875 0.001759363643615952
4.6875 0.001183810783376149
4.70703125 0.0005298548856957908
4.7265625 0.0008651358583637858
4.74609375 -9.410305790558127e-5
4.765625 0.0006547727026964267
4.78515625 0.00016752316064838624
4.8046875 0.001111464663437367
4.82421875 0.00020480739469963538
4.84375 -0.00019171468760337262
4.86328125 -0.0003693241565954075
4.8828125 0.00025202195102336233
4.90234375 -0.00018583973386210317
4.921875 0.00032082108215636396
4.94140625 0.0006304717542056082
4.9609375 -4.23076939148892e-5
4.98046875 0.0006228681028881411
5.0 -0.0004857757651695882
5.01953125 0.0009946144587645311
5.0390625 -0.0005950180721254472
5.05859375 0.00013355019278180058
5.078125 -0.0011812593473402577
5.09765625 -0.0011272074423823164
5.1171875 -0.0018254680311710347
5.13671875 -0.0012235833166305832
5.15625 -0.002455808636157575
5.17578125 -0.0009562919608129272
5.1953125 -0.0015405220104536266
5.21484375 -0.002186766439113752
5.234375 -0.0016833918285842908
5.25390625 -0.0007497476042381823
5.2734375 -0.0014742749206909656
5.29296875 -0.00026562729013657194
5.3125 8.111345797423564e-6
5.33203125 -3.3355571148252494e-5
5.3515625 -0.00018647156920015284
5.37109375 -0.0005514048290323759
5.390625 -0.00039610788553379184
5.41015625 -0.0009296506687374029
5.4296875 -0.0013440694278904486
5.44921875 -0.0017056496730719628
5.46875 -0.0017822048170675897
5.48828125 -0.0010272045160560905
5.5078125 -0.0013666732379287172
5.52734375 -0.0006260881231396898
5.546875 -0.0011812009369958076
5.56640625 -0.0008929782546278631
5.5859375 -0.001001296418792208
5.60546875 -0.0020601753192401873
5.625 -0.0016904502541305044
5.64453125 -0.0014090103225735673
5.6640625 -0.0011105793598206182
5.68359375 -0.00173535706292971
5.703125 -0.0014583818070316168
5.72265625 -0.000621977799676654
5.7421875 -0.0005516800925222665
5.76171875 -0.001136451939343086
5.78125 0.00014645134513346925
5.80078125 -0.00042320458927758153
5.8203125 -0.0003595798233777536
5.83984375 -0.0004204943525132343
5.859375 0.00012859471108050968
5.87890625 0.0009459671875455822
5.8984375 0.0007369474697527245
5.91796875 0.0007387810854182497
5.9375 0.0006452921096655739
5.95703125 0.0009490003050494078
5.9765625 0.0014801081049600207
5.99609375 0.00018083238387789358
6.015625 0.0009520498921222753
6.03515625 0.000272284710133075
6.0546875 0.0008361423456852979
6.07421875 0.0010434258257610018
6.09375 0.0009425345156603981
6.11328125 0.0016239830051918425
6.1328125 0.0014085922999202971
6.15234375 0.0008460544772606049
6.171875 0.001485854274305476
6.19140625 0.0017580790270157465
6.2109375 0.0009343889835233821
6.23046875 0.001008567017641182
6.25 0.0009164280408022751
6.26953125 0.0005407204006733224
6.2890625 -0.00013845392617284347
6.30859375 0.0006247055964838655
6.328125 0.001102743037389775
6.34765625 0.0009345563820075675
6.3671875 -0.0005551378490191716
6.38671875 0.0008135548445622476
6.40625 -0.00021826595236307256
6.42578125 0.0004553217273466359
6.4453125 6.541950989080725e-5
6.46484375 0.00012633545607676488
6.484375 0.0007131006888356772
6.50390625 0.0010213334959572329
6.5234375 0.0008554463736176743
6.54296875 0.001203038070371143
6.5625 0.0017335658076187421
6.58203125 0.0011941328116413796
6.6015625 0.0010528600095400797
6.62109375 0.0010068992031454504
6.640625 0.0011030971488827923
6.66015625 0.001450224598655292
6.6796875 0.0008051645674455044
6.69921875 0.0007304646903685263
6.71875 0.0011086654520429118
6.73828125 0.0012334430014987463
6.7578125 0.0013170837226005316
6.77734375 0.0014146039510521957
6.796875 0.0014575926794866412
6.81640625 0.0013421356322214084
6.8359375 0.0008835693019383362
6.85546875 0.0010997233203302037
6.875 0.0018335601536114132
6.89453125 0.0017383820303885633
6.9140625 0.0013704219286849728
6.93359375 0.0007555676082964258
6.953125 0.0015015409757028197
6.97265625 0.0009404564974754281
6.9921875 0.001294842553070552
7.01171875 0.0014305187071544934
7.03125 0.0012789637324548686
7.05078125 0.0014908422873702587
7.0703125 0.001047860033824094
7.08984375 0.0011573545370827665
7.109375 0.0005699468169432231
7.12890625 0.001235309163987064
7.1484375 0.0007519877275063702
7.16796875 0.001462133707620883
7.1875 0.0018101480293049865
7.20703125 0.0014711150231976333
7.2265625 0.001464325184208956
7.24609375 0.002435001756438085
7.265625 0.0007922205048982722
7.28515625 0.001975693456770816
7.3046875 0.0007593710075585319
7.32421875 0.0005487371114711731
7.34375 0.0006343228176802218
7.36328125 0.00022245309289778414
7.3828125 0.00022474582894584094
7.40234375 -0.00031185026847010966
7.421875 -7.828398710715834e-5
7.44140625 -0.00012136907861670654
7.4609375 -0.0009239363748278703
7.48046875 -0.00058213773024475
7.5 -0.0005516309324299834
7.51953125 -0.0017510499232933768
7.5390625 -0.0012366686186145448
7.55859375 -0.0017321866654305769
7.578125 -0.0009290679102812924
7.59765625 -0.0017988158102249922
7.6171875 -0.0016091757659715633
7.63671875 -0.0013888159478737182
7.65625 -0.0013021609233735151
7.67578125 -0.0019997872542801788
7.6953125 -0.0007010580941607327
7.71484375 -0.0005174349590472097
7.734375 -0.0003893036982705934
7.75390625 -0.0004954556951782499
7.7734375 -0.0003482943094421957
7.79296875 -0.0014633172659763122
7.8125 -0.0013389012820447309
7.83203125 -0.0013689381630916887
7.8515625 -0.0010458262290550767
7.87109375 -0.0009868640735322801
7.890625 -0.000985314731792171
7.91015625 -0.0013517552118734448
7.9296875 -0.0005430565981319242
7.94921875 0.0001398296259935252
7.96875 -0.0005531333945756067
7.98828125 -0.0002488482140021015
8.0078125 -0.0009093952909958445
8.02734375 -0.0005770166717700095
8.046875 -0.0006184309531360139
8.06640625 -0.000982169688995296
8.0859375 -0.001302762113611012
8.10546875 -0.0014697901743138638
8.125 -0.0009143662674163553
8.14453125 -0.0009353262961207295
8.1640625 -0.0010496494022411507
8.18359375 -0.0019672984804421263
8.203125 -0.0008740688149659545
8.22265625 -0.0008414735670900595
8.2421875 -0.0014317975616492534
8.26171875 -0.000883255161309375
8.28125 -0.001449865704518237
8.30078125 -0.001652462406944416
8.3203125 -0.0013664426496524523
8.33984375 -0.0014023017184818382
8.359375 -0.0019903890092075674
8.37890625 -0.0013116171067777474
8.3984375 -0.0007526132675196931
8.41796875 -0.0013286729633982391
8.4375 -0.00018966832986669346
8.45703125 -0.001229443968457547
8.4765625 -0.0012326466663797053
8.49609375 -0.0005166259852158878
8.515625 -0.0011800192872670756
8.53515625 -0.001427472226892365
8.5546875 -0.0018660339839516038
8.57421875 -0.0009239122972708319
8.59375 -0.00116573550262844
8.61328125 -0.0012211468060845249
8.6328125 -0.0010915787830715895
8.65234375 -0.000860536796839742
8.671875 -0.0018222819731991552
8.69140625 -0.0006937943643272326
8.7109375 -0.0016952631357569498
8.73046875 -0.0012033615279838095
8.75 -0.0011333257933780552
8.76953125 -0.0007043828347882541
8.7890625 -0.0013089170500386672
8.80859375 -0.0005740340665499506
8.828125 -0.0016784259628218785
8.84765625 -0.0005326295023420809
8.8671875 -0.0010980425342076508
8.88671875 -0.0012470237297065798
8.90625 -0.0012761668358697922
8.92578125 -0.0012602279062148142
8.9453125 -0.001298688723778571
8.96484375 -0.0019908952131852536
8.984375 -0.00130094695870063
9.00390625 -0.0012466861744557106
9.0234375 -0.0006195062368013066
9.04296875 -0.0015643079228317563
9.0625 -0.0007271225521283675
9.08203125 -0.00201744105694579
9.1015625 -0.0013699327074845613
9.12109375 -0.001200588973287453
9.140625 -0.002321656943733208
9.16015625 -0.001025651855882631
9.1796875 -0.001735659652241761
9.19921875 -0.0015771866644801458
9.21875 -0.0015540311161000298
9.23828125 -0.0015687667971224506
9.2578125 -0.0005677154692330932
9.27734375 -0.0009328492089767382
9.296875 -0.0001266497030990854
9.31640625 -0.0006575670010004475
9.3359375 -9.806782303395378e-5
9.35546875 -0.0005736729945330921
9.375 -1.3470034288635968e-6
9.39453125 -0.0002925487409755137
9.4140625 0.0008563617835796423
9.43359375 0.0006709487645356043
9.453125 0.0006937124103456038
9.47265625 -0.0006077073084631499
9.4921875 -7.343588356781283e-5
9.51171875 0.00028258893376463534
9.53125 0.0003592324646244094
9.55078125 0.0005672810929907013
9.5703125 0.0004306062153767165
9.58984375 -0.00014587060465104384
9.609375 0.0007285128645632688
9.62890625 2.038529159137381e-5
9.6484375 -0.0005807308419847335
9.66796875 0.00013807363861845223
9.6875 -0.0005237872801146792
9.70703125 -0.0002747856434923701
9.7265625 -0.00044637939535002724
9.74609375 0.00021614354921795087
9.765625 0.0001175927634287921
9.78515625 -1.5722999675227278e-5
9.8046875 0.0004948215806406253
9.82421875 -0.0006126303636797559
9.84375 -0.00023273011801727694
9.86328125 -0.0007359929719711333
9.8828125 -0.0007771215130556453
9.90234375 -0.0008365143936409081
9.921875 -0.0014302853900163282
9.94140625 -0.0004844493664402094
9.9609375 -0.0014858620369625486
9.98046875 -0.0010279547838198955
