# x u
-10.0 -0.0005517669263719327
-9.98046875 -0.0005756334351199044
-9.9609375 -0.00041071104887624443
-9.94140625 -0.0007865727040761161
-9.921875 -0.0004105188076948263
-9.90234375 3.8420953353490717e-5
-9.8828125 0.00014688498017512153
-9.86328125 -0.001020380357208417
-9.84375 0.0002875671286088899
-9.82421875 -0.0016213455274047828
-9.8046875 -0.0004940437780789342
-9.78515625 -0.001111860899348116
-9.765625 -0.001412550769857912
-9.74609375 -0.0008178551600965811
-9.7265625 -0.0016011976799985561
-9.70703125 -0.0008098503063564966
-9.6875 -0.0025364015031710263
-9.66796875 -0.00038480951395447605
-9.6484375 -0.0015016746845644136
-9.62890625 -0.00013507948544710935
-9.609375 -0.0009415453484737935
-9.58984375 -0.0008605475720975253
-9.5703125 -0.001757398656026199
-9.55078125 -0.002343583854046427
-9.53125 -0.0007610509320041814
-9.51171875 -0.001543984117614361
-9.4921875 -0.0011601987158755822
-9.47265625 -0.0013718336505408324
-9.453125 -0.0007701470991050563
-9.43359375 -0.0011098940814877611
-9.4140625 0.00020757380900882083
-9.39453125 -0.0014934500897203495
-9.375 0.000679257500928343
-9.35546875 8.015781545073208e-5
-9.3359375 -5.558300279312478e-5
-9.31640625 0.0008456400098882655
-9.296875 -0.001751484218624283
-9.27734375 -0.001227123308033734
-9.2578125 -0.0009050226695357377
-9.23828125 -0.001422444933832534
-9.21875 -0.0010717651147401919
-9.19921875 -0.0002477327016251474
-9.1796875 -0.0022724425046684593
-9.16015625 0.00035743557135919923
-9.140625 -0.0023221787237724667
-9.12109375 -0.001571692880030895
-9.1015625 0.0001798018022784731
-9.08203125 -0.0025238213224500206
-9.0625 -5.399771790348673e-5
-9.04296875 -0.002004489358847117
-9.0234375 -0.0008689381485027514
-9.00390625 -0.002259910585778624
-8.984375 -0.00020299145691579645
-8.96484375 -0.0019829718660627493
-8.9453125 8.009844656384213e-5
-8.92578125 -0.0018516275641470847
-8.90625 0.0005125450330337733
-8.88671875 -0.0017450055388137375
-8.8671875 -0.00029011541908063876
-8.84765625 -0.002279410246740332
-8.828125 -0.001200195618625166
-8.80859375 -0.001661154591964975
-8.7890625 -0.0023507724419481457
-8.76953125 -0.0006067011488687379
-8.75 -0.0017144705164153784
-8.73046875 -0.00013875044429534356
-8.7109375 -0.0027780927405263167
-8.69140625 9.603546217440417e-5
-8.671875 -0.0025642731044795974
-8.65234375 -0.0012910240732664224
-8.6328125 -0.003798911171248087
-8.61328125 -0.0016516668684135594
-8.59375 -0.0034298508289563046
-8.57421875 -0.0010683215824398573
-8.5546875 -0.001867209583966245
-8.53515625 -0.0014742764111392859
-8.515625 -0.0005276569388548147
-8.49609375 -0.00415837974690092
-8.4765625 0.0009405385576259917
-8.45703125 -0.002718289061905299
-8.4375 -0.00115266884293308
-8.41796875 -0.0021498237332922
-8.3984375 -0.0016584993160917438
-8.37890625 -0.0031121706985350883
-8.359375 -0.0012567111760000138
-8.33984375 -0.003227770568210664
-8.3203125 -0.0005919141191550459
-8.30078125 -0.004211770468637743
-8.28125 0.0007244279909022211
-8.26171875 -0.004988347151897221
-8.2421875 0.0007681925981046778
-8.22265625 -0.003378089850587518
-8.203125 -0.0021994843497468164
-8.18359375 -0.0018136204106748988
-8.1640625 -0.0016693954707507341
-8.14453125 -0.0031541645889796577
-8.125 -0.0020644037094852408
-8.10546875 -0.0025493550384596553
-8.0859375 -0.0031961372772342234
-8.06640625 -0.0015834399810106259
-8.046875 -0.005674433697723691
-8.02734375 -0.000534871535825765
-8.0078125 -0.005087832220062705
-7.98828125 -0.002649471527032876
-7.96875 -0.00363719654773198
-7.94921875 -0.0018688900580214884
-7.9296875 -0.004332567592510994
-7.91015625 -0.0025127138472529342
-7.890625 -0.005011089931322932
-7.87109375 -0.00271970561136059
-7.8515625 -0.0039691977533131695
-7.83203125 -0.0030603316246591294
-7.8125 -0.002753946103478455
-7.79296875 -0.002171930448201076
-7.7734375 -0.003931342363264312
-7.75390625 2.39918675082329e-5
-7.734375 -0.0046276888599237065
-7.71484375 0.0006433460728285656
-7.6953125 -0.003806121661048434
-7.67578125 6.889076376359604e-5
-7.65625 -0.004111256811829778
-7.63671875 -0.0001420056646150858
-7.6171875 -0.003113778191637717
-7.59765625 -0.0013914677164591494
-7.578125 -0.0013840720336228962
-7.55859375 -0.0007460256082609806
-7.5390625 -0.0013088238930125673
-7.51953125 -0.0026366390081917768
-7.5 -0.0004248133695574886
-7.48046875 -0.0022068503555395334
-7.4609375 8.588041268731475e-5
-7.44140625 -0.0022506572347891956
-7.421875 0.0010400733260660872
-7.40234375 -0.001529638200547441
-7.3828125 -0.0009490975645279397
-7.36328125 -0.0012594989764569539
-7.34375 -0.00012264909489735133
-7.32421875 -0.0016499462719466252
-7.3046875 0.0009336416428442627
-7.28515625 -0.0018039997718818186
-7.265625 0.0011662341052140466
-7.24609375 -0.0009523502689041802
-7.2265625 -0.0005499188632809109
-7.20703125 -0.0010714392390762874
-7.1875 -0.0007254372786427228
-7.16796875 -0.0013125318217787497
-7.1484375 -0.0013940497374104774
-7.12890625 -0.0014870888374065021
-7.109375 -0.00040660809803309524
-7.08984375 -0.0035968761027058748
-7.0703125 2.3286604969555673e-5
-7.05078125 -0.004810657562443008
-7.03125 -0.0013028070454880144
-7.01171875 -0.001956131419085394
-6.9921875 -0.0033392868398454127
-6.97265625 -0.0018435154152583546
-6.953125 -0.0027818440583835392
-6.93359375 -0.0014576247375518339
-6.9140625 -0.003144611789260303
-6.89453125 -0.0016851279248835162
-6.875 -0.000958767398110294
-6.85546875 -0.003914813498498898
-6.8359375 6.149005147453035e-5
-6.81640625 -0.004998277938830564
-6.796875 -0.002190140179993069
-6.77734375 -0.003867471208347656
-6.7578125 -0.0028226430303793376
-6.73828125 -0.003926222356953349
-6.71875 -0.004334299511232653
-6.69921875 -0.0010813730324947327
-6.6796875 -0.004697059615460769
-6.66015625 -0.001458834834827956
-6.640625 -0.0026820704146356122
-6.62109375 -0.0023065196992423515
-6.6015625 -0.003607822202200864
-6.58203125 -0.001871844953498708
-6.5625 -0.00507811745604575
-6.54296875 -0.0004944526966942087
-6.5234375 -0.0047164574843251705
-6.50390625 -0.0013053088530579834
-6.484375 -0.0026701174959533197
-6.46484375 -0.0018744610729575402
-6.4453125 -0.002693232607253921
-6.42578125 -0.0003291687804482038
-6.40625 -0.0040371215606708095
-6.38671875 7.93767547218327e-5
-6.3671875 -0.0034312082176419442
-6.34765625 -0.0009345378017756277
-6.328125 -0.002347769626213251
-6.30859375 -0.002720443726630252
-6.2890625 -0.003492329340182499
-6.26953125 -0.0016477497416736032
-6.25 -0.003035917691061752
-6.23046875 -0.0018079813402482256
-6.2109375 -0.003901227630904478
-6.19140625 -0.0032462161349299783
-6.171875 -0.003746066070272537
-6.15234375 -0.0028612860498718716
-6.1328125 -0.0022428861738916644
-6.11328125 -0.003583280628696204
-6.09375 -0.0022266423173529053
-6.07421875 -0.004676902642551791
-6.0546875 -0.002249602758705038
-6.03515625 -0.0024576536275197104
-6.015625 -0.0024254023710986675
-5.99609375 -0.0041740128849394615
-5.9765625 -0.0013221978804977413
-5.95703125 -0.0045376983804927325
-5.9375 0.0005940695038870215
-5.91796875 -0.005755455202553653
-5.8984375 -0.0006134134427811782
-5.87890625 -0.004701158744851005
-5.859375 -0.00016863579571731093
-5.83984375 -0.003607270307104965
-5.8203125 -0.003783901406997939
-5.80078125 0.0010602360313175605
-5.78125 -0.005438523845758992
-5.76171875 -0.0006592414528180926
-5.7421875 -0.002313161942020983
-5.72265625 -0.0025325916689827636
-5.703125 -0.0026877554537160274
-5.68359375 -0.0010494036590924208
-5.6640625 -0.003755594987786599
-5.64453125 1.4522619724924909e-5
-5.625 -0.003762687676911099
-5.60546875 -0.0013759059393167097
-5.5859375 -0.0024205482850207533
-5.56640625 -0.00319270577343735
-5.546875 -0.002668089639870916
-5.52734375 -0.00287497161956287
-5.5078125 -0.0024087655363099476
-5.48828125 -0.0026542673652627815
-5.46875 -0.0014371485447997826
-5.44921875 -0.0014695866239277247
-5.4296875 -0.001841118096648566
-5.41015625 -0.0016136013350439762
-5.390625 -0.0010744576121021932
-5.37109375 -0.002642715699332904
-5.3515625 -1.1190995661293762e-5
-5.33203125 -0.003578120970224391
-5.3125 -0.00012822909589737825
-5.29296875 -0.0027384454306033615
-5.2734375 -0.0008823379772854062
-5.25390625 -0.0025674026994836063
-5.234375 -0.0013075411258166346
-5.21484375 -0.0007833257543538019
-5.1953125 -0.003325317550716766
-5.17578125 -0.0003348264677178051
-5.15625 -0.0011408753061353653
-5.13671875 -0.0017272893916557767
-5.1171875 -0.0005731567136054265
-5.09765625 -0.0022347702890356076
-5.078125 -0.000906806349083176
-5.05859375 -0.0017517749797953822
-5.0390625 -0.0007571402179964676
-5.01953125 -0.0025213200369384307
-5.0 -0.0009372779846075485
-4.98046875 -0.0020629940693557836
-4.9609375 -0.0005595551292051637
-4.94140625 -0.002529776593963834
-4.921875 -0.0010477931933665086
-4.90234375 -0.0020071839275614123
-4.8828125 -0.00019062758811091984
-4.86328125 -0.0019828701663469894
-4.84375 -4.826061668211645e-6
-4.82421875 -0.00278587864486822
-4.8046875 -3.6866694151649337e-6
-4.78515625 -0.0037660208082519048
-4.765625 -0.00048022605533967755
-4.74609375 -0.004349948850098026
-4.7265625 -0.0003251878067539876
-4.70703125 -0.0023515171923539496
-4.6875 -0.0018554447505892968
-4.66796875 -0.00010358394362444678
-4.6484375 -0.003000881602682512
-4.62890625 -0.0010353795583806225
-4.609375 -0.0027631420442395804
-4.58984375 0.0004933371874953352
-4.5703125 -0.003099671594234993
-4.55078125 -0.0010039506461387848
-4.53125 -0.0012600348754434887
-4.51171875 -0.00044500270890873717
-4.4921875 -0.0011071213965609672
-4.47265625 -0.0015384651535941263
-4.453125 -0.0017875084542788022
-4.43359375 -0.0031727125593915273
-4.4140625 -0.0018609482770835517
-4.39453125 -0.0030630637424613194
-4.375 -0.0008661153755346578
-4.35546875 -0.0033558700336372097
-4.3359375 -0.0016763754165202722
-4.31640625 -0.0025986083513855444
-4.296875 -0.0024497190290752304
-4.27734375 -0.0017948080022809013
-4.2578125 -0.0023017366759478207
-4.23828125 -0.0010312567796383638
-4.21875 -0.0032392586606624276
-4.19921875 1.5759772845442763e-6
-4.1796875 -0.0024680450806594473
-4.16015625 0.00046080549626135135
-4.140625 -0.002144531157413765
-4.12109375 0.0014532591674034298
-4.1015625 -0.0010164474123246182
-4.08203125 -0.000174778057923302
-4.0625 -0.0006079761663877114
-4.04296875 -0.0006058090364157486
-4.0234375 0.0002534342391547137
-4.00390625 -0.0022189949415999492
-3.984375 0.0009296883573474005
-3.96484375 -0.0009567757696378283
-3.9453125 -0.0024663746714776247
-3.92578125 0.0009361079633103103
-3.90625 -0.0038775226511690085
-3.88671875 0.0011873356866839136
-3.8671875 -0.0033472513421617706
-3.84765625 0.001186906166561189
-3.828125 -0.004690409564195829
-3.80859375 -0.0002768919632915772
-3.7890625 -0.0013260526426022265
-3.76953125 -0.0018234200457573776
-3.75 -0.0012194910838994114
-3.73046875 -0.0005138726232794336
-3.7109375 -0.00142614791931292
-3.69140625 -0.0005651790800067433
-3.671875 -0.0008221435658694459
-3.65234375 0.00014807675654364416
-3.6328125 -0.0002973316009608519
-3.61328125 0.00010902304140387314
-3.59375 0.0001912097587491758
-3.57421875 0.00116565222506812
-3.5546875 0.001388272116178084
-3.53515625 0.0010872635645890437
-3.515625 0.0020866951588095553
-3.49609375 0.001353336196414253
-3.4765625 0.004299122739742752
-3.45703125 0.0014828622613523405
-3.4375 0.0036865329120880676
-3.41796875 0.0031135563940135544
-3.3984375 0.003887848266207944
-3.37890625 0.004566373396770438
-3.359375 0.004062812170627629
-3.33984375 0.005254425456530914
-3.3203125 0.0035190572345936786
-3.30078125 0.006601299146320435
-3.28125 0.005921818905612837
-3.26171875 0.006128738553659049
-3.2421875 0.006838311367247416
-3.22265625 0.006597701972101909
-3.203125 0.007149783707118014
-3.18359375 0.007202143217755277
-3.1640625 0.007817036876208692
-3.14453125 0.00755144612745178
-3.125 0.007844032154326108
-3.10546875 0.008084549509488809
-3.0859375 0.008354441342610791
-3.06640625 0.00882599442709392
-3.046875 0.010131021765971027
-3.02734375 0.010227509349610947
-3.0078125 0.011902505353927284
-2.98828125 0.01078975452650352
-2.96875 0.013198546954471702
-2.94921875 0.011621624057354785
-2.9296875 0.015136431977260445
-2.91015625 0.013682081435262852
-2.890625 0.014450628175540381
-2.87109375 0.015102337360365467
-2.8515625 0.015439110628914815
-2.83203125 0.01647367715382375
-2.8125 0.016907497077262995
-2.79296875 0.01773214871271392
-2.7734375 0.0176660752791733
-2.75390625 0.018813634264868623
-2.734375 0.020817986740055187
-2.71484375 0.021522431071020517
-2.6953125 0.022553808780009968
-2.67578125 0.023643344504824686
-2.65625 0.023804760154034224
-2.63671875 0.025751711844956116
-2.6171875 0.026323967264882016
-2.59765625 0.02628190368525915
-2.578125 0.029885313932250412
-2.55859375 0.028818805363878076
-2.5390625 0.031729235231925224
-2.51953125 0.03209126347105662
-2.5 0.03284179303619106
-2.48046875 0.033923285308040674
-2.4609375 0.03633411066980963
-2.44140625 0.034570445700195074
-2.421875 0.04002992384225801
-2.40234375 0.03828171242710454
-2.3828125 0.042755399137878625
-2.36328125 0.04335452724432032
-2.34375 0.043919551774661114
-2.32421875 0.04593716242360646
-2.3046875 0.047520304301725935
-2.28515625 0.05021182744549746
-2.265625 0.05005849735197532
-2.24609375 0.054876263024288385
-2.2265625 0.05375651867765818
-2.20703125 0.060285456199119125
-2.1875 0.05736047229972613
-2.16796875 0.06493861204081453
-2.1484375 0.06586767464330312
-2.12890625 0.06816048574472311
-2.109375 0.07158724313610842
-2.08984375 0.07383747368460342
-2.0703125 0.07794936175003386
-2.05078125 0.07946411594996605
-2.03125 0.08499675988828215
-2.01171875 0.08684571336603653
-1.9921875 0.09137857308215866
-1.97265625 0.09489733079043919
-1.953125 0.09871023057730346
-1.93359375 0.10140395111315917
-1.9140625 0.10574090363964392
-1.89453125 0.11019914050281332
-1.875 0.11415144142993983
-1.85546875 0.1210748450965915
-1.8359375 0.12145656840931274
-1.81640625 0.13156622454511036
-1.796875 0.13121626164434907
-1.77734375 0.1390922514524746
-1.7578125 0.14491290950221858
-1.73828125 0.149735048635796
-1.71875 0.15600474299265477
-1.69921875 0.1610851649830054
-1.6796875 0.16921407645642983
-1.66015625 0.17254309860634853
-1.640625 0.18223821058703304
-1.62109375 0.18549404563356164
-1.6015625 0.19720018856017285
-1.58203125 0.20003997214786162
-1.5625 0.2124750895365688
-1.54296875 0.21780135546053359
-1.5234375 0.22859028763096134
-1.50390625 0.23539647873599234
-1.484375 0.24700005350467436
-1.46484375 0.25372227142678194
-1.4453125 0.2641520118672469
-1.42578125 0.27367571448879957
-1.40625 0.283653446262472
-1.38671875 0.29631734390413667
-1.3671875 0.30259963039954574
-1.34765625 0.31745154570014344
-1.328125 0.3275353645725083
-1.30859375 0.3396083396630831
-1.2890625 0.3518505406347907
-1.26953125 0.36487378225671807
-1.25 0.3781292296845258
-1.23046875 0.3913041685551568
-1.2109375 0.4052007146430028
-1.19140625 0.41890973583092483
-1.171875 0.433416514770141
-1.15234375 0.44959384862077845
-1.1328125 0.465217996904542
-1.11328125 0.4822526021967817
-1.09375 0.4995098770496371
-1.07421875 0.5170400471877792
-1.0546875 0.5351238234096432
-1.03515625 0.5530052312230653
-1.015625 0.5711317780137395
-0.99609375 0.5901734429260994
-0.9765625 0.6096108628209498
-0.95703125 0.6314739346520386
-0.9375 0.6509830141989266
-0.91796875 0.6740815897708816
-0.8984375 0.6945080495386153
-0.87890625 0.7157783317988713
-0.859375 0.7425021541924117
-0.83984375 0.7611889312691806
-0.8203125 0.7904700076891245
-0.80078125 0.8107846157656882
-0.78125 0.840158598690727
-0.76171875 0.8609434457434464
-0.7421875 0.8916632486910414
-0.72265625 0.9163831013648585
-0.703125 0.9442421929096989
-0.68359375 0.9718807815395145
-0.6640625 1.000071118779152
-0.64453125 1.0273542637984487
-0.625 1.0558348047464277
-0.60546875 1.0864408281498676
-0.5859375 1.1148414224402556
-0.56640625 1.14731980753786
-0.546875 1.1732723933106608
-0.52734375 1.208727217728471
-0.5078125 1.2343710597482525
-0.48828125 1.2705171034805558
-0.46875 1.2953187740091443
-0.44921875 1.333256705794361
-0.4296875 1.3587508658919794
-0.41015625 1.3933358797795727
-0.390625 1.4216382902402032
-0.37109375 1.4559218717262348
-0.3515625 1.486361291805826
-0.33203125 1.5157438304904827
-0.3125 1.5500138221336746
-0.29296875 1.5785001630675057
-0.2734375 1.6098493133949896
-0.25390625 1.6394183909721334
-0.234375 1.670789338426958
-0.21484375 1.6983717764176078
-0.1953125 1.7284384158899884
-0.17578125 1.7545794002712174
-0.15625 1.784352656709466
-0.13671875 1.8093034947802746
-0.1171875 1.8364210009694382
-0.09765625 1.8608246741297967
-0.078125 1.886887155906989
-0.05859375 1.9104162207098443
-0.0390625 1.9335497693153951
-0.01953125 1.9554174639262243
0.0 1.975932297331018
0.01953125 1.9959249922912579
0.0390625 2.014893973641427
0.05859375 2.03258669739785
0.078125 2.049832389150981
0.09765625 2.0647782756474062
0.1171875 2.0816859962593854
0.13671875 2.0928691232825134
0.15625 2.107721581902731
0.17578125 2.116464017869421
0.1953125 2.1282058336085132
0.21484375 2.1341676246959613
0.234375 2.143871995362838
0.25390625 2.1502222504057955
0.2734375 2.1557390945304555
0.29296875 2.1604237609457524
0.3125 2.162947791175551
0.33203125 2.1653457547205037
0.3515625 2.1659773475738184
0.37109375 2.167225669992736
0.390625 2.1671562102608073
0.41015625 2.1661142059194933
0.4296875 2.166809559286852
0.44921875 2.1642250281791604
0.46875 2.162423322965342
0.48828125 2.1594262921214997
0.5078125 2.157243824103708
0.52734375 2.1533842127255283
0.546875 2.1517145890344467
0.56640625 2.146036051749676
0.5859375 2.1463145127158603
0.60546875 2.142867903630928
0.625 2.1419042192566367
0.64453125 2.1428930853617674
0.6640625 2.1410109704677085
0.68359375 2.145079157165349
0.703125 2.145112861045365
0.72265625 2.152317379449473
0.7421875 2.1536831278068
0.76171875 2.1643264731512244
0.78125 2.172613395833104
0.80078125 2.1843179335395133
0.8203125 2.1979686872246567
0.83984375 2.213818952768955
0.859375 2.2337179358579267
0.87890625 2.2524016670935976
0.8984375 2.2788225131323214
0.91796875 2.306713890187461
0.9375 2.33758653818719
0.95703125 2.3757394669806766
0.9765625 2.412905084550512
0.99609375 2.4586479560995476
1.015625 2.5035845593006223
1.03515625 2.559861240208281
1.0546875 2.615187074625036
1.07421875 2.6799551121251857
1.09375 2.7479109653508638
1.11328125 2.8204528178095094
1.1328125 2.8987747433972215
1.15234375 2.9846558789172404
1.171875 3.074656600605154
1.19140625 3.171493746052344
1.2109375 3.2717051131267545
1.23046875 3.3818915369089435
1.25 3.494293564538145
1.26953125 3.6180098908976928
1.2890625 3.7409932164078836
1.30859375 3.876145185644073
1.328125 4.0103763675509505
1.34765625 4.157476219741624
1.3671875 4.302143651096884
1.38671875 4.456593360457928
1.40625 4.6115897457009565
1.42578125 4.772148534316226
1.4453125 4.934410539276001
1.46484375 5.097225158561634
1.484375 5.267057558118534
1.50390625 5.432371364912628
1.5234375 5.598213077713829
1.54296875 5.7642880744442255
1.5625 5.923852047024177
1.58203125 6.083444238486882
1.6015625 6.235445783869164
1.62109375 6.3825561907927835
1.640625 6.520561838493348
1.66015625 6.652471079174222
1.6796875 6.770572994871529
1.69921875 6.8815396208422195
1.71875 6.9759750292291
1.73828125 7.061168414255567
1.7578125 7.132053400951482
1.77734375 7.1855111125214846
1.796875 7.226529217434581
1.81640625 7.247470642607201
1.8359375 7.255684256730792
1.85546875 7.24358908450874
1.875 7.219930488082561
1.89453125 7.17406504480706
1.9140625 7.115793203091231
1.93359375 7.038359225665317
1.953125 6.951118313780912
1.97265625 6.844844413955785
1.9921875 6.729284584122567
2.01171875 6.5963506117795205
2.03125 6.457395767648039
2.05078125 6.30237899508805
2.0703125 6.144366449366115
2.08984375 5.972093568905144
2.109375 5.800773025328454
2.12890625 5.616353619534763
2.1484375 5.435019034994978
2.16796875 5.243933267640093
2.1875 5.057262798084987
2.20703125 4.866780152773119
2.2265625 4.6752764316774496
2.24609375 4.4865544382608
2.265625 4.299783290378105
2.28515625 4.111972637928207
2.3046875 3.9334579232698657
2.32421875 3.7530492200663588
2.34375 3.5800371789641607
2.36328125 3.410716052534694
2.3828125 3.2439094482910042
2.40234375 3.0862974778065158
2.421875 2.9317360178747838
2.44140625 2.784296539182629
2.4609375 2.639311133477367
2.48046875 2.5036972738684184
2.5 2.3711830006576378
2.51953125 2.2468523533900484
2.5390625 2.1251275713952182
2.55859375 2.011844407865958
2.578125 1.9011129322492888
2.59765625 1.7983899928198714
2.6171875 1.6982181928606344
2.63671875 1.6062156572584416
2.65625 1.5164242042435214
2.67578125 1.433338384122522
2.6953125 1.3520308731274073
2.71484375 1.2774378824951598
2.734375 1.2046170226667736
2.75390625 1.1379182317788366
2.7734375 1.0723488165935118
2.79296875 1.01348517812031
2.8125 0.9546312174401461
2.83203125 0.9026262709717657
2.8515625 0.8507842101168865
2.87109375 0.8030094107107101
2.890625 0.7604862001486606
2.91015625 0.7151186034376895
2.9296875 0.67846664755152
2.94921875 0.6382653694979119
2.96875 0.6062186997557261
2.98828125 0.5697803974095546
3.0078125 0.54238823760618
3.02734375 0.5098155228179093
3.046875 0.4838869390180818
3.06640625 0.4548622970135294
3.0859375 0.4332568548365303
3.10546875 0.40712522916887695
3.125 0.3873540334292026
3.14453125 0.3632064723338412
3.1640625 0.3473672450995907
3.18359375 0.32543166340727636
3.203125 0.3117841230074274
3.22265625 0.2921499844941945
3.2421875 0.2782867488528978
3.26171875 0.26545608741823945
3.28125 0.24917146388914968
3.30078125 0.23849392536400454
3.3203125 0.2259612908114135
3.33984375 0.21348427114533336
3.359375 0.2038690680916003
3.37890625 0.1936195589368418
3.3984375 0.18300099652792887
3.41796875 0.17521172075760097
3.4375 0.1647008006743696
3.45703125 0.15920733326743272
3.4765625 0.1495858979368966
3.49609375 0.14406602264797938
3.515625 0.13409407028335157
3.53515625 0.1304817636344685
3.5546875 0.12251431237906459
3.57421875 0.11859570337452163
3.59375 0.1114222905640012
3.61328125 0.10728354597881026
3.6328125 0.10279113460999664
3.65234375 0.09632295732345683
3.671875 0.0927792820934838
3.69140625 0.08896064847306459
3.7109375 0.08264600242779295
3.73046875 0.08075889883536115
3.75 0.07449910397682763
3.76953125 0.07250493144247566
3.7890625 0.06839001754407939
3.80859375 0.06577301670653982
3.828125 0.060604634492972244
3.84765625 0.06063413948378768
3.8671875 0.05438007476341712
3.88671875 0.055633135506441396
3.90625 0.04953552308723187
3.92578125 0.04986546665891842
3.9453125 0.04760900674456386
3.96484375 0.04659680062294792
3.984375 0.04265146331289949
4.00390625 0.042520151709279405
4.0234375 0.03997988578407606
4.04296875 0.039704685574137186
4.0625 0.03760628923747733
4.08203125 0.034872301890047835
4.1015625 0.03534888550061609
4.12109375 0.031292495679221766
4.140625 0.031469235791530166
4.16015625 0.028409417044999625
4.1796875 0.029301518221362025
4.19921875 0.025518043992246525
4.21875 0.026196046683981025
4.23828125 0.023617770197364968
4.2578125 0.02471961809525749
4.27734375 0.021382560667886248
4.296875 0.022258178757960153
4.31640625 0.01880998962350274
4.3359375 0.020679156920668143
4.35546875 0.018320358730118773
4.375 0.018992805525902906
4.39453125 0.018205051198233367
4.4140625 0.01760546413370495
4.43359375 0.016206559271911797
4.453125 0.015906412652770315
4.47265625 0.014192816683122186
4.4921875 0.013854213593288561
4.51171875 0.013900817799975486
4.53125 0.012240100148479672
4.55078125 0.013728725164646391
4.5703125 0.011358257812771264
4.58984375 0.011739352988425258
4.609375 0.01115724030147246
4.62890625 0.009578336822939782
4.6484375 0.009736566826811534
4.66796875 0.010187373088184987
4.6875 0.009964441844092033
4.70703125 0.009025032194611007
4.7265625 0.008830525510247492
4.74609375 0.007580315277301963
4.765625 0.010577343767242734
4.78515625 0.007160670497518284
4.8046875 0.009795302868679988
4.82421875 0.006164194140030513
4.84375 0.009709104545587833
4.86328125 0.005836655410831941
4.8828125 0.007673494211664255
4.90234375 0.0063004025366188805
4.921875 0.005465417500750456
4.94140625 0.007495885744962392
4.9609375 0.006874685714064879
4.98046875 0.006991449957940861
5.0 0.005199998265468714
5.01953125 0.007754412890262519
5.0390625 0.0055652039575370404
5.05859375 0.007981791803502142
5.078125 0.003680174238929801
5.09765625 0.006144107679078609
5.1171875 0.005546165144471454
5.13671875 0.004251477673715559
5.15625 0.006807269628804541
5.17578125 0.005342212736374682
5.1953125 0.004143840820026806
5.21484375 0.006097913876831743
5.234375 0.002708707921943082
5.25390625 0.005758175425247411
5.2734375 0.0023110985124087796
5.29296875 0.006198035015139727
5.3125 0.0019121834559875373
5.33203125 0.004704867620349967
5.3515625 0.004260907476418149
5.37109375 0.0022473848871769064
5.390625 0.004939411627789686
5.41015625 0.002521745512777507
5.4296875 0.005582474987784997
5.44921875 0.0007925411854952102
5.46875 0.004496813861877308
5.48828125 0.0017618241168707027
5.5078125 0.000547949433843592
5.52734375 0.00258920531206952
5.546875 0.0016239231535858656
5.56640625 0.0016451825440594037
5.5859375 0.0021420173652502705
5.60546875 0.0009159574810688464
5.625 0.0017429227170772093
5.64453125 0.001213788150754647
5.6640625 0.0022444483313899827
5.68359375 0.001539908260777444
5.703125 0.0019324779614994505
5.72265625 0.0022758339624697984
5.7421875 0.0006403358194687317
5.76171875 0.0021951365690726665
5.78125 0.0005832248823377986
5.80078125 0.002387841655678115
5.8203125 0.0008226108374048352
5.83984375 0.002323343060955269
5.859375 0.0013833021593568757
5.87890625 0.0008208263612151175
5.8984375 0.0023478292983297963
5.91796875 0.0019267416667527563
5.9375 0.00040091083677672775
5.95703125 0.0044525217830427895
5.9765625 -0.0006731337693597285
5.99609375 0.004375944259457958
6.015625 0.0009946638579669672
6.03515625 0.002629728850872602
6.0546875 0.0009051921672702324
6.07421875 0.002613108237644381
6.09375 0.00055891394755176
6.11328125 0.001747675896030617
6.1328125 0.0014148277194038538
6.15234375 0.0014276191509833914
6.171875 0.0017730520437350345
6.19140625 -0.0003183681413243917
6.2109375 0.002957936756076429
6.23046875 0.00019205614137675483
6.25 0.002074180971377102
6.26953125 -0.0012160377809896025
6.2890625 0.0014944778196351073
6.30859375 -0.0005090436906803244
6.328125 -0.0010229897777045416
6.34765625 -0.0003486043154135726
6.3671875 -0.0012070675928817706
6.38671875 -0.001951132885776967
6.40625 0.00032090898806536386
6.42578125 -0.0019365519837112235
6.4453125 0.0010091652306925217
6.46484375 -0.000591580549202702
6.484375 0.0006073704875739685
6.50390625 -0.0006528577864870402
6.5234375 0.00040965150707057696
6.54296875 -0.00039454831081992166
6.5625 -0.0007772068849935358
6.58203125 7.341952165766576e-5
6.6015625 -0.0012395421890137124
6.62109375 0.0013041810112587185
6.640625 -0.0022952615580977597
6.66015625 0.0021567270587454493
6.6796875 -0.0013096236243999937
6.69921875 0.0007618013665120823
6.71875 -0.0002623628864450592
6.73828125 0.0010621410032172008
6.7578125 -0.00025058579631012483
6.77734375 0.000670385363825418
6.796875 0.00031087352145589987
6.81640625 -0.00011084122874701783
6.8359375 -0.0003441525882038965
6.85546875 -0.00028212242166061495
6.875 0.0006053204699493775
6.89453125 -0.0002733693415433447
6.9140625 -0.0011736947267154824
6.93359375 -0.00033030838001107954
6.953125 -0.0007741977456149213
6.97265625 0.0003070834289551072
6.9921875 1.8983669189218122e-5
7.01171875 -0.0008200888255714828
7.03125 4.474578432500653e-6
7.05078125 -0.00031034479240132223
7.0703125 7.035515367781464e-5
7.08984375 -0.00036986805190455246
7.109375 -0.0001753555602893031
7.12890625 0.0005700076838978246
7.1484375 -0.0008551694236186569
7.16796875 0.0013949322980183476
7.1875 -0.0011478026339072078
7.20703125 0.0012805989339045032
7.2265625 0.0005369242535218088
7.24609375 0.0010727672743151354
7.265625 0.0002957251507320624
7.28515625 0.0011049743577048084
7.3046875 0.0016786752067560647
7.32421875 0.0006886027373012651
7.34375 0.00037204704836388616
7.36328125 0.0008111318151453051
7.3828125 4.326803580027849e-6
7.40234375 0.001862844382056441
7.421875 -2.0410877120510124e-5
7.44140625 -5.016116539281745e-6
7.4609375 -0.00032095360126243797
7.48046875 -2.6304614648029953e-5
7.5 -0.0005806962296927537
7.51953125 -0.0007617893381920077
7.5390625 -0.0016183352782041705
7.55859375 -0.0004289257429315608
7.578125 -0.0023763170387244873
7.59765625 0.00065856013667357
7.6171875 -0.0044117688939056985
7.63671875 0.00039347387551303027
7.65625 -0.003022337301898853
7.67578125 -0.0020621842384677806
7.6953125 -0.0015866238004909829
7.71484375 -0.0014863270799604818
7.734375 -0.0009877867901692513
7.75390625 -0.0020569638013284396
7.7734375 -0.0008170984709292572
7.79296875 -0.0023307389684366067
7.8125 -0.0014808862989049887
7.83203125 -0.001060578009047089
7.8515625 -0.0021678825405575704
7.87109375 -0.002308466065886205
7.890625 -0.0015596476609124645
7.91015625 -0.0015625013282101604
7.9296875 -0.0003241336794748519
7.94921875 -0.002226895290374694
7.96875 9.632835212977588e-5
7.98828125 -0.0029729515458956565
8.0078125 0.0015351683496009605
8.02734375 -0.003493257136050668
8.046875 0.0012270189127357501
8.06640625 -0.0035967139263606476
8.0859375 0.0021613285667589316
8.10546875 -0.0015523467857758869
8.125 -0.001291191383978152
8.14453125 0.0006797252253138986
8.1640625 -0.0009032434226410313
8.18359375 -9.801647415863535e-5
8.203125 -0.00033704810638091054
8.22265625 0.0006606598711491607
8.2421875 -0.0004242758074428643
8.26171875 -0.0002689157303694678
8.28125 -0.00028089433881040016
8.30078125 -0.0007041485440395512
8.3203125 -0.0002498762021776457
8.33984375 -0.0008820261237201255
8.359375 3.1651861446047036e-5
8.37890625 -0.0017205478201407498
8.3984375 0.0003831784359851209
8.41796875 -0.0023023074569421542
8.4375 0.0011352228047023516
8.45703125 -0.0029908888832450575
8.4765625 6.759633132236154e-5
8.49609375 -0.0007463526181727964
8.515625 -1.264583024895849e-5
8.53515625 -3.887130415880513e-5
8.5546875 0.0007666267894351764
8.57421875 -0.0012618066971514796
8.59375 0.000556144612137599
8.61328125 -0.0006960781936868887
8.6328125 0.00047514045093688395
8.65234375 0.00014665138534131206
8.671875 0.0003784504713006953
8.69140625 0.0005959584678705276
8.7109375 0.0010172868308566674
8.73046875 -0.0005719060029159007
8.75 -0.00031484543051041314
8.76953125 -3.844232473682041e-6
8.7890625 -0.0014110361415269335
8.80859375 0.0013379363812802136
8.828125 -0.0022169520512761443
8.84765625 0.001067476671806622
8.8671875 0.00040193552477252315
8.88671875 -0.0004920117882299957
8.90625 -2.3059276847536836e-5
8.92578125 0.0005792547727612174
8.9453125 0.00030649540471938685
8.96484375 0.0003445573456732909
8.984375 -0.0009617285637468775
9.00390625 0.00041820988773144663
9.0234375 -0.00017655526732118787
9.04296875 0.0013269687101247207
9.0625 -0.00022219818415325499
9.08203125 -0.0004213505136523299
9.1015625 0.0017380744690196348
9.12109375 -0.001056316930943435
9.140625 0.0009874707879267142
9.16015625 1.2820854402795234e-5
9.1796875 -0.0006372207979166156
9.19921875 8.698544946050824e-5
9.21875 -0.001684145069549725
9.23828125 -0.001035565342045297
9.2578125 -0.0014167721760893759
9.27734375 0.0006455413542547639
9.296875 -0.0017495789381618554
9.31640625 -0.00023155342046732308
9.3359375 -0.002955675664225277
9.35546875 0.0009231755087433235
9.375 -0.0032403660150127633
9.39453125 0.000780233502715888
9.4140625 -0.003668420586431409
9.43359375 0.0017758204691794843
9.453125 -0.0013600931121447724
9.47265625 -0.001201451581300944
9.4921875 0.0002318199631361484
9.51171875 -0.0008876267159176332
9.53125 -0.000320895833765128
9.55078125 -1.5279592936456865e-6
9.5703125 -0.0007755683388879775
9.58984375 -0.0007867237759509593
9.609375 -0.002223865613781101
9.62890625 0.0003505702025321522
9.6484375 -0.002276241305161325
9.66796875 -1.9186671832732705e-5
9.6875 -0.0017656621776096504
9.70703125 -0.0015236696915326142
9.7265625 -0.0012365958172739777
9.74609375 -0.001570095033101182
9.765625 -0.0012056559985868243
9.78515625 -0.0027951845857784596
9.8046875 0.00013569920436976024
9.82421875 -0.0016604905847335538
9.84375 -0.00029611215620872766
9.86328125 -0.0028903480351962774
9.8828125 -0.00023793175143804746
9.90234375 -0.00244616899208866
9.921875 0.0004423918503082547
9.94140625 -0.0024885743053166265
9.9609375 0.00018845454846527776
9.98046875 -0.001790469134124506
