# x u
-10.0 -0.001483009907775501
-9.98046875 -5.890108339934308e-5
-9.9609375 -0.0018812903480247
-9.94140625 -0.00044256751430471475
-9.921875 -0.002640883521575599
-9.90234375 0.0007690592148061892
-9.8828125 -0.0072241097099260965
-9.86328125 0.005182791121730035
-9.84375 -0.007750331825127577
-9.82421875 0.0019605264418475765
-9.8046875 -0.0042190478721244595
-9.78515625 0.0009299554507633534
-9.765625 -0.0022610279905820874
-9.74609375 0.0003070979296188048
-9.7265625 -0.002845191648140233
-9.70703125 0.0022214961785521625
-9.6875 -0.0021845207467108274
-9.66796875 -0.0006302842218682825
-9.6484375 0.0030139330342194848
-9.62890625 -0.003901902299632054
-9.609375 0.003580141951731175
-9.58984375 -0.0055900984966015255
-9.5703125 0.002680708044583091
-9.55078125 -0.0023029027219991782
-9.53125 -4.6021482558722404e-5
-9.51171875 -0.0023463657565603313
-9.4921875 0.0013292522885821612
-9.47265625 -0.004440824882675054
-9.453125 0.0029905569700237056
-9.43359375 -0.006872162987996866
-9.4140625 0.003594771089065585
-9.39453125 -0.003042487825972273
-9.375 -0.0024587328945255282
-9.35546875 0.0003746874475334394
-9.3359375 -0.0038307325699272754
-9.31640625 0.0023217055388260466
-9.296875 -0.004900217725993694
-9.27734375 0.002265776344653081
-9.2578125 -0.005052380052122163
-9.23828125 0.0009434197783387832
-9.21875 -0.0017571266520051143
-9.19921875 -0.000983871943030179
-9.1796875 -0.0009129865044055774
-9.16015625 0.00013633911126947895
-9.140625 -0.0009246585401633256
-9.12109375 0.0007834079454094867
-9.1015625 -0.002173808520774201
-9.08203125 0.0003503962003763572
-9.0625 -0.0019369418902595026
-9.04296875 -0.0008718115438405283
-9.0234375 -0.0013361237077486043
-9.00390625 -0.0005700827800981245
-8.984375 0.00020634403619362862
-8.96484375 -0.0031753959397057274
-8.9453125 0.005373904889182657
-8.92578125 -0.0080896187508126
-8.90625 0.0045042873691971685
-8.88671875 -0.005611557255470245
-8.8671875 0.003461898051790757
-8.84765625 -0.006308495786338297
-8.828125 0.004176084943946168
-8.80859375 -0.005788248450103228
-8.7890625 0.000202934276522293
-8.76953125 -0.0008744330085060925
-8.75 -0.0012408609035891582
-8.73046875 -0.0021835381055588243
-8.7109375 -0.0005628985584549273
-8.69140625 -0.0013454618551984043
-8.671875 -0.0031846230654198338
-8.65234375 0.0015475144225343684
-8.6328125 -0.004845259936365198
-8.61328125 0.003499435280176544
-8.59375 -0.006812224172592862
-8.57421875 0.003480289953624427
-8.5546875 -0.005964540613407676
-8.53515625 0.0028147217458460716
-8.515625 -0.002835547497355595
-8.49609375 -0.0011985579089109355
-8.4765625 -0.0020932035625494394
-8.45703125 -0.0015049254891880137
-8.4375 -0.0032077530032814106
-8.41796875 -0.002446475172775908
-8.3984375 -0.0025494889929482123
-8.37890625 -0.0029753041743632025
-8.359375 -0.003814440775515071
-8.33984375 -0.0004165861477739563
-8.3203125 -0.0056111039463849766
-8.30078125 -0.0008952646843687351
-8.28125 -0.004401316348077666
-8.26171875 -0.0006788127418785872
-8.2421875 -0.005246284207041818
-8.22265625 0.0001548630359653469
-8.203125 -0.004046613772136554
-8.18359375 -0.0051835307970879985
-8.1640625 0.00117298558271417
-8.14453125 -0.005356094435103653
-8.125 -0.0018060024275199926
-8.10546875 -0.002076020121336397
-8.0859375 -0.0019746613483803688
-8.06640625 -0.0025675561074858244
-8.046875 -0.0023109235074468826
-8.02734375 -0.003216042704500932
-8.0078125 -0.0026390141347934493
-7.98828125 -0.0038044733168878797
-7.96875 -0.0006564754244450799
-7.94921875 -0.005407250892320803
-7.9296875 0.0019937499895836264
-7.91015625 -0.006529834399897683
-7.890625 0.004043299344927392
-7.87109375 -0.006148771079902193
-7.8515625 0.0007356526872064062
-7.83203125 -0.0030837131325711087
-7.8125 -0.0019184431203398133
-7.79296875 -0.00024390051139128177
-7.7734375 -0.004635389124297257
-7.75390625 -0.0022465932314334747
-7.734375 -0.001992579711795728
-7.71484375 -0.0033850551424078335
-7.6953125 -0.0032205181378923697
-7.67578125 -0.0008582952861322934
-7.65625 -0.004917596480309622
-7.63671875 0.000325780278337906
-7.6171875 -0.0066079991250003745
-7.59765625 -0.0001721188206629809
-7.578125 -0.004157399944863083
-7.55859375 -0.002679353876596652
-7.5390625 -0.0030378970667704203
-7.51953125 -0.003953123317718993
-7.5 -0.001311165238474932
-7.48046875 -0.004781583935956986
-7.4609375 0.0013497110785183897
-7.44140625 -0.006507302309498357
-7.421875 0.0044178727726947925
-7.40234375 -0.009400285642086566
-7.3828125 0.006142171758098972
-7.36328125 -0.007558825236674781
-7.34375 0.003938008787954066
-7.32421875 -0.006958480950177936
-7.3046875 0.0023816762997256923
-7.28515625 -0.006007889149816331
-7.265625 0.001489525187833381
-7.24609375 -0.00526358071967757
-7.2265625 0.00012619117086842824
-7.20703125 -0.004827015852281641
-7.1875 -0.001495851132593412
-7.16796875 -0.0031264659880941145
-7.1484375 -0.0036148581571539694
-7.12890625 0.00029485398415398864
-7.109375 -0.004895936265107581
-7.08984375 -0.0003787523300364949
-7.0703125 -0.0036171187823391075
-7.05078125 0.0009856217595706242
-7.03125 -0.004977109724719908
-7.01171875 0.0026613138517170665
-6.9921875 -0.0038238036484501323
-6.97265625 -0.0024089718964477144
-6.953125 -0.00043926791269196586
-6.93359375 -0.0034791216230842534
-6.9140625 0.0009093024937262376
-6.89453125 -0.002946580281168239
-6.875 -2.256647614506946e-5
-6.85546875 -7.19590859289132e-5
-6.8359375 -0.0022280585506979367
-6.81640625 0.0015320952511179153
-6.796875 -0.005074224924488599
-6.77734375 0.003060315405230371
-6.7578125 -0.005324522911420437
-6.73828125 0.0035576393922485683
-6.71875 -0.004599564879529783
-6.69921875 3.943908753580028e-5
-6.6796875 -0.002934702237113354
-6.66015625 -0.0010412303845100251
-6.640625 -0.003051162434040987
-6.62109375 -0.0008003975981536252
-6.6015625 -0.004196556277063154
-6.58203125 0.0015954002551877913
-6.5625 -0.004945297843014847
-6.54296875 0.002702281858835101
-6.5234375 -0.004690756839282037
-6.50390625 0.004415656828569245
-6.484375 -0.005626454393670766
-6.46484375 0.005070820859768677
-6.4453125 -0.004854696802765103
-6.42578125 5.451097278251493e-7
-6.40625 -0.0010960783514524092
-6.38671875 -0.002102769873401158
-6.3671875 0.0011686047055801743
-6.34765625 -0.0042126838957660985
-6.328125 0.0007649614138022613
-6.30859375 -0.004331770277367579
-6.2890625 0.000995587205905469
-6.26953125 -0.005133240216223011
-6.25 0.0016867651508851722
-6.23046875 -0.005075446279179996
-6.2109375 -0.0015023972448222622
-6.19140625 -0.0019103115425840311
-6.171875 -0.006072171641959834
-6.15234375 0.0046112803341209485
-6.1328125 -0.011890973015178052
-6.11328125 0.004729646940762278
-6.09375 -0.007934078264447253
-6.07421875 0.0018364563386074062
-6.0546875 -0.004898473305156914
-6.03515625 -0.0031960355874751656
-6.015625 -0.0019640328418976116
-5.99609375 -0.0025441222848145983
-5.9765625 -0.0017818120033077367
-5.95703125 -0.0019647615198612467
-5.9375 -0.0036740290856322466
-5.91796875 -0.0021834053920392615
-5.8984375 -0.0035145756417574447
-5.87890625 -0.006249302858391259
-5.859375 -0.00012962236653363268
-5.83984375 -0.0068546389480708125
-5.8203125 8.996899662927493e-5
-5.80078125 -0.008199059442819734
-5.78125 0.0007780636056290424
-5.76171875 -0.01068893146660918
-5.7421875 0.0003186156056364797
-5.72265625 -0.006645012697879954
-5.703125 -0.00536562148362657
-5.68359375 -0.003684177442457831
-5.6640625 -0.005452337777095889
-5.64453125 -0.0033559331741195297
-5.625 -0.004671235032323029
-5.60546875 -0.005268943808280913
-5.5859375 -0.0020647956836001846
-5.56640625 -0.0058404983135798005
-5.546875 -0.0002091313952234941
-5.52734375 -0.006436522493580732
-5.5078125 0.00016429239562310016
-5.48828125 -0.005701462076697528
-5.46875 0.0012148103147353595
-5.44921875 -0.006548087649457468
-5.4296875 0.003680811408802498
-5.41015625 -0.006633355795495177
-5.390625 0.0025494578176581406
-5.37109375 -0.00397944632199021
-5.3515625 0.0003620880646280078
-5.33203125 0.00029291010012633123
-5.3125 -0.0038712022755822417
-5.29296875 0.0009826737250895334
-5.2734375 -0.0031551322249283587
-5.25390625 0.0007178731211356926
-5.234375 -0.003278022698491867
-5.21484375 -0.00023087284599032643
-5.1953125 -0.0035407522753172493
-5.17578125 -0.0025729850632796314
-5.15625 -0.001983035671095479
-5.13671875 -0.0037420232761853356
-5.1171875 -0.001969335396673877
-5.09765625 -0.0030977088851822376
-5.078125 -0.0015481220036441812
-5.05859375 -0.0026501044074866975
-5.0390625 -0.002323718788929341
-5.01953125 -0.000561923615858051
-5.0 -0.006772548513693577
-4.98046875 0.002979796519631983
-4.9609375 -0.007177768532143136
-4.94140625 0.002026250484585601
-4.921875 -0.006494322417450515
-4.90234375 -0.00039923196004010286
-4.8828125 -0.0035080143638572814
-4.86328125 -0.0006519982415882364
-4.84375 -0.00668259820691075
-4.82421875 0.0029109387637749062
-4.8046875 -0.00797031172065088
-4.78515625 0.0006003281853266262
-4.765625 -0.005678931389167419
-4.74609375 -0.0027118079144157203
-4.7265625 0.00045731503128187967
-4.70703125 -0.007134406171831031
-4.6875 0.0013186744571149767
-4.66796875 -0.005069761688222041
-4.6484375 0.0013718981217953896
-4.62890625 -0.004629965160949379
-4.609375 0.0007527172418848593
-4.58984375 -0.004394465792901592
-4.5703125 -0.0011222672018722513
-4.55078125 -0.0023311383389059692
-4.53125 -0.0011120390985919215
-4.51171875 -0.0023064450647654056
-4.4921875 -0.00010579337401406264
-4.47265625 -0.0013625852378145176
-4.453125 -0.001605316602777851
-4.43359375 -0.00035896447938865705
-4.4140625 -0.0018033267300059386
-4.39453125 -0.0015339559274747394
-4.375 -0.0019419888051179779
-4.35546875 -0.001333423241346221
-4.3359375 -0.0033545408796293863
-4.31640625 0.000698634498130124
-4.296875 -0.007030095094326949
-4.27734375 0.005465060492802376
-4.2578125 -0.008398070440310823
-4.23828125 0.0029809912196443467
-4.21875 -0.005903507723809431
-4.19921875 0.0011835397414272641
-4.1796875 -0.003002049511055649
-4.16015625 -0.0020351340742308377
-4.140625 -5.278963715382723e-5
-4.12109375 -0.005751219278275599
-4.1015625 0.0029296165682428654
-4.08203125 -0.0038811494127013457
-4.0625 -0.0001914424175395446
-4.04296875 -0.0026546307441124295
-4.0234375 -0.0007701240209336824
-4.00390625 -0.0027091307250934893
-3.984375 0.0002923273533581572
-3.96484375 -0.004157133848492478
-3.9453125 0.00249760787624953
-3.92578125 -0.004258590663967832
-3.90625 3.0277467690575932e-5
-3.88671875 -0.004041922511967222
-3.8671875 2.3961525686733154e-5
-3.84765625 -0.006207446230873104
-3.828125 0.001992017071364316
-3.80859375 -0.0068490672475626235
-3.7890625 0.003744327016410254
-3.76953125 -0.007373394926444177
-3.75 0.003285858067221259
-3.73046875 -0.005906164674959968
-3.7109375 0.0025660480818954223
-3.69140625 -0.0034798301862429826
-3.671875 -0.0007499810617844771
-3.65234375 -0.00021589801252175356
-3.6328125 -0.0071000396410707545
-3.61328125 0.004909430032790485
-3.59375 -0.008127627969797546
-3.57421875 0.003270507938046119
-3.5546875 -0.007845037380461883
-3.53515625 0.005259490835499314
-3.515625 -0.008843674495033926
-3.49609375 0.006853928553725797
-3.4765625 -0.006321934106174931
-3.45703125 0.0035874422866920275
-3.4375 -0.0059519374304015105
-3.41796875 0.004037631169202471
-3.3984375 -0.006407467249620963
-3.37890625 0.00378310925696676
-3.359375 -0.003492079172509016
-3.33984375 0.000903271165154762
-3.3203125 -0.001003265795850472
-3.30078125 -0.0029991791398478462
-3.28125 0.002132683491960441
-3.26171875 -0.0019115382720716195
-3.2421875 0.0003044980324865276
-3.22265625 -0.0009025065232527718
-3.203125 -0.0011374768888499226
-3.18359375 -0.0009076048337502557
-3.1640625 -0.0015428662659400239
-3.14453125 -0.0024639054976208635
-3.125 0.00048183627414730146
-3.10546875 -0.0017802063427771186
-3.0859375 -0.0005986312388320814
-3.06640625 0.00019616697512231385
-3.046875 -0.002532125118884357
-3.02734375 0.0019645862101504014
-3.0078125 -0.004077874109155437
-2.98828125 3.414765264461023e-5
-2.96875 0.000453432333384296
-2.94921875 -0.0013722646007671077
-2.9296875 0.00047642207829975275
-2.91015625 -5.462583005617222e-5
-2.890625 0.0006269186305125421
-2.87109375 -0.0018834323715150522
-2.8515625 0.00175702675036718
-2.83203125 -0.002657778083005581
-2.8125 -0.00035871131812096474
-2.79296875 -0.0018374510253805626
-2.7734375 -0.0002594067716269882
-2.75390625 -0.0023545858912593365
-2.734375 0.0010063332930954627
-2.71484375 -0.0012792946883933287
-2.6953125 0.0009701274980033273
-2.67578125 -0.000775034853131025
-2.65625 0.002181255481199615
-2.63671875 -0.002097190901677981
-2.6171875 0.003849332793743908
-2.59765625 -0.002607514665445211
-2.578125 0.006233834048361295
-2.55859375 -0.0034571468739132347
-2.5390625 0.008231489167571673
-2.51953125 -0.004344685002068915
-2.5 0.007454163856662893
-2.48046875 8.965671310406931e-5
-2.4609375 0.004405050650409137
-2.44140625 0.002655989204428666
-2.421875 0.0022971330700150006
-2.40234375 0.0051199281351620995
-2.3828125 0.0031822009408019325
-2.36328125 0.005100444687673733
-2.34375 0.0040182432086917075
-2.32421875 0.005635445499469149
-2.3046875 0.005855637697092075
-2.28515625 0.004299172032711324
-2.265625 0.011950815923196217
-2.24609375 -0.0005758085266423518
-2.2265625 0.014652963541764652
-2.20703125 0.0003928564080296626
-2.1875 0.014931654526290361
-2.16796875 0.005178764626782989
-2.1484375 0.00848340766427913
-2.12890625 0.01080439420081998
-2.109375 0.008355894406652908
-2.08984375 0.010822381226170782
-2.0703125 0.00927785901735556
-2.05078125 0.008565203016944273
-2.03125 0.013311129509158845
-2.01171875 0.009489457615437125
-1.9921875 0.01229139330383508
-1.97265625 0.012898766068202366
-1.953125 0.013852450696901192
-1.93359375 0.011423102234042248
-1.9140625 0.01738790612587361
-1.89453125 0.013159445797405717
-1.875 0.01883284852522571
-1.85546875 0.0158258808138525
-1.8359375 0.01974588310327252
-1.81640625 0.018301082021694226
-1.796875 0.018851254100623605
-1.77734375 0.021664020560171693
-1.7578125 0.016327397690140244
-1.73828125 0.027414762544843096
-1.71875 0.014694659479680516
-1.69921875 0.034795041566817675
-1.6796875 0.016254105356317605
-1.66015625 0.03335117076978383
-1.640625 0.020953801902903857
-1.62109375 0.03399407387128778
-1.6015625 0.026999065353059848
-1.58203125 0.03499926871400483
-1.5625 0.02965152832860468
-1.54296875 0.03702413029756746
-1.5234375 0.031644058868951885
-1.50390625 0.038274480118170084
-1.484375 0.03569830478735603
-1.46484375 0.03992638924730152
-1.4453125 0.04123513390015876
-1.42578125 0.04084297793945385
-1.40625 0.04413612970784342
-1.38671875 0.04666893650246673
-1.3671875 0.04532296391884261
-1.34765625 0.05112396188001389
-1.328125 0.04916354522070121
-1.30859375 0.054872074124984294
-1.2890625 0.054810819234654806
-1.26953125 0.056204748927785736
-1.25 0.062009025670664686
-1.23046875 0.05919971421765369
-1.2109375 0.07037123686988755
-1.19140625 0.06390082730451141
-1.171875 0.07347335643144604
-1.15234375 0.07119822780409901
-1.1328125 0.07709515319079918
-1.11328125 0.07754351839376528
-1.09375 0.08188012244669218
-1.07421875 0.0826442193111292
-1.0546875 0.09105045366453401
-1.03515625 0.08842253048148574
-1.015625 0.09730083120776256
-0.99609375 0.099004799253126
-0.9765625 0.10457421956729152
-0.95703125 0.1059049167163717
-0.9375 0.11515110121642891
-0.91796875 0.11347238925079084
-0.8984375 0.12259530207874458
-0.87890625 0.12244801881387857
-0.859375 0.13233369950172214
-0.83984375 0.12922367322545747
-0.8203125 0.14363258875931262
-0.80078125 0.14225586066899631
-0.78125 0.14744889081495505
-0.76171875 0.15960108086929203
-0.7421875 0.15664421789170035
-0.72265625 0.17454465062603386
-0.703125 0.16737270824836126
-0.68359375 0.1867752169001793
-0.6640625 0.1828603165884587
-0.64453125 0.2002952965907936
-0.625 0.19827366926488765
-0.60546875 0.21364120215824833
-0.5859375 0.21419816984106188
-0.56640625 0.22721777540994403
-0.546875 0.23279638207762188
-0.52734375 0.24326549954861154
-0.5078125 0.25287550092916844
-0.48828125 0.26043614785439695
-0.46875 0.2735258666248723
-0.44921875 0.27981922085686706
-0.4296875 0.29417419561002967
-0.41015625 0.3041380601999213
-0.390625 0.3113655188074601
-0.37109375 0.3286141051623883
-0.3515625 0.33465332707029627
-0.33203125 0.3516503984559236
-0.3125 0.3603039510863888
-0.29296875 0.3745855907259873
-0.2734375 0.389729237936705
-0.25390625 0.399380925320179
-0.234375 0.4210449725233363
-0.21484375 0.42550808758903313
-0.1953125 0.4514685103040643
-0.17578125 0.45804076967360385
-0.15625 0.48246527020648644
-0.13671875 0.4939315626436044
-0.1171875 0.5111569160201846
-0.09765625 0.5313709263069294
-0.078125 0.5444791546373758
-0.05859375 0.570649159692818
-0.0390625 0.5818627208656648
-0.01953125 0.6082378141382137
0.0 0.6229806949690105
0.01953125 0.6500268444334638
0.0390625 0.6627196933008597
0.05859375 0.694122277003681
0.078125 0.7079592652859774
0.09765625 0.7348504737622512
0.1171875 0.7573503679159914
0.13671875 0.7782240964479413
0.15625 0.8095656040669885
0.17578125 0.8248662402302214
0.1953125 0.8563925784984936
0.21484375 0.8795376363792975
0.234375 0.9059556563770403
0.25390625 0.9353815047857924
0.2734375 0.9571682801326733
0.29296875 0.9895509114032356
0.3125 1.0151502819411378
0.33203125 1.0420994240630517
0.3515625 1.0740314109194888
0.37109375 1.0953277037653641
0.390625 1.134854677274736
0.41015625 1.1527328285184828
0.4296875 1.1932487735284902
0.44921875 1.2128205091783375
0.46875 1.247412389849515
0.48828125 1.2786134999564416
0.5078125 1.3073009527611235
0.52734375 1.3323130742701264
0.546875 1.3744089391761312
0.56640625 1.3896167228126495
0.5859375 1.4340260018971347
0.60546875 1.4489793147978927
0.625 1.4941695196631979
0.64453125 1.5094313630480904
0.6640625 1.5522831044072603
0.68359375 1.5702419843329154
0.703125 1.6036748176544826
0.72265625 1.6302312467281088
0.7421875 1.65470216824431
0.76171875 1.6891164771647382
0.78125 1.7062384455206325
0.80078125 1.7363888396944847
0.8203125 1.7592850688978532
0.83984375 1.783087393227311
0.859375 1.803644680915475
0.87890625 1.8275668580817717
0.8984375 1.846115633329169
0.91796875 1.8655113467473496
0.9375 1.8843682790196676
0.95703125 1.903046846945358
0.9765625 1.9139181635860796
0.99609375 1.9368885321886027
1.015625 1.941177398649152
1.03515625 1.963808179922871
1.0546875 1.962525258923354
1.07421875 1.9821927260288237
1.09375 1.9793843712283556
1.11328125 1.994083740270014
1.1328125 1.9928832666984757
1.15234375 1.999841696531366
1.171875 1.995979024070932
1.19140625 2.006718297582897
1.2109375 1.990571014654882
1.23046875 2.0041454362144613
1.25 1.9825257130877534
1.26953125 1.9941300161160467
1.2890625 1.971911850184895
1.30859375 1.9729394982003874
1.328125 1.9550659937906403
1.34765625 1.9491833861055272
1.3671875 1.9332481390749687
1.38671875 1.9204724913600875
1.40625 1.9055774495302278
1.42578125 1.8852738750478124
1.4453125 1.871805272018554
1.46484375 1.8463708459161317
1.484375 1.8337279897823924
1.50390625 1.8048106344783295
1.5234375 1.7895918677660307
1.54296875 1.7593711738525715
1.5625 1.7415711697907779
1.58203125 1.7106104396011128
1.6015625 1.6890620168532924
1.62109375 1.6603835257249953
1.640625 1.6320278774741752
1.66015625 1.6065450488926405
1.6796875 1.5777975228101258
1.69921875 1.5490384488044915
1.71875 1.521342114139173
1.73828125 1.4890534476942219
1.7578125 1.463418378125652
1.77734375 1.4267334188081278
1.796875 1.4057108398714209
1.81640625 1.3632245135351042
1.8359375 1.3478172490681444
1.85546875 1.300744439233063
1.875 1.2902815178969358
1.89453125 1.2411953570554108
1.9140625 1.2293074579509295
1.93359375 1.1815823257309699
1.953125 1.1665309716258438
1.97265625 1.125643689380964
1.9921875 1.1068408081424645
2.01171875 1.069940829717011
2.03125 1.0468472963982753
2.05078125 1.015293187875394
2.0703125 0.9858599549570326
2.08984375 0.9641130380011893
2.109375 0.9288108135846644
2.12890625 0.9146500126726245
2.1484375 0.8736260592822058
2.16796875 0.862195988718512
2.1875 0.8230478872908153
2.20703125 0.8130634997128855
2.2265625 0.773809959804312
2.24609375 0.7672894894086293
2.265625 0.7261893947083427
2.28515625 0.722479362775246
2.3046875 0.6809780596977681
2.32421875 0.6762067002773204
2.34375 0.6437493517230589
2.36328125 0.6298070652071496
2.3828125 0.60516237536278
2.40234375 0.5870087328919475
2.421875 0.5688253388244372
2.44140625 0.549057209387895
2.4609375 0.5332932467284149
2.48046875 0.5119873592798035
2.5 0.49965086581630447
2.51953125 0.47571831503767004
2.5390625 0.4678643223395666
2.55859375 0.4432407131338502
2.578125 0.4384690265602871
2.59765625 0.41209199036612676
2.6171875 0.4100266241529088
2.63671875 0.38316170560434487
2.65625 0.3787045903208649
2.67578125 0.3620846996285721
2.6953125 0.3506138987239207
2.71484375 0.3345857193064863
2.734375 0.33073431757965266
2.75390625 0.31040455849966025
2.7734375 0.3060542130816308
2.79296875 0.29149002343509206
2.8125 0.2830490301439198
2.83203125 0.27280512704210025
2.8515625 0.26169283660446196
2.87109375 0.2520006773867488
2.890625 0.24722534321624345
2.91015625 0.23149315300101353
2.9296875 0.22906996027333976
2.94921875 0.21736821925897015
2.96875 0.2115800352107774
2.98828125 0.20230720902223148
3.0078125 0.19691824890294254
3.02734375 0.1881589805406297
3.046875 0.18470435659215106
3.06640625 0.17408207147352586
3.0859375 0.17187226798169025
3.10546875 0.16266129226585685
3.125 0.15803893378233608
3.14453125 0.15175269935694588
3.1640625 0.14533809250688162
3.18359375 0.14278015839500713
3.203125 0.1338120446058364
3.22265625 0.1344222762382547
3.2421875 0.12247083713214374
3.26171875 0.12406778000245164
3.28125 0.11358383843244726
3.30078125 0.11544181201963741
3.3203125 0.10414363947139577
3.33984375 0.10874129917225442
3.359375 0.09656316547362151
3.37890625 0.09986629053817031
3.3984375 0.091475809555486
3.41796875 0.0928752887074889
3.4375 0.08593541184408496
3.45703125 0.08747808618873058
3.4765625 0.07689464763915187
3.49609375 0.08676253452875722
3.515625 0.06802847450481203
3.53515625 0.08036307976568086
3.5546875 0.06678886240107212
3.57421875 0.0744828131518191
3.59375 0.06638925678845257
3.61328125 0.0675060528001617
3.6328125 0.06361122252639234
3.65234375 0.06615051785670734
3.671875 0.05942654070738858
3.69140625 0.06245121313125201
3.7109375 0.0605001042578515
3.73046875 0.058031952957722455
3.75 0.056650304739647606
3.76953125 0.06028343129095026
3.7890625 0.052285394577489264
3.80859375 0.059765218592991
3.828125 0.05228613629149248
3.84765625 0.05792490948125906
3.8671875 0.05792034568243021
3.88671875 0.05150012067859827
3.90625 0.060233757508507735
3.92578125 0.05491882646938423
3.9453125 0.05827307890514771
3.96484375 0.05771195037493576
3.984375 0.05861359708288877
4.00390625 0.06116988286948666
4.0234375 0.06338649376384048
4.04296875 0.062108731525342215
4.0625 0.06967028285162652
4.08203125 0.06805827630308686
4.1015625 0.07321018428021034
4.12109375 0.07401835043253382
4.140625 0.08218189221507463
4.16015625 0.07876134496858084
4.1796875 0.09123965617390534
4.19921875 0.09044141226089977
4.21875 0.09860746931787345
4.23828125 0.10309758432415338
4.2578125 0.1082864856524001
4.27734375 0.11844863078256848
4.296875 0.12230081035108543
4.31640625 0.13425059343644996
4.3359375 0.13872684837328159
4.35546875 0.15411248516181608
4.375 0.15718701924823475
4.39453125 0.17702591648336652
4.4140625 0.18337220259844722
4.43359375 0.20087193130332293
4.453125 0.21351354394769162
4.47265625 0.23065671742123994
4.4921875 0.24870944092913017
4.51171875 0.26452749642665263
4.53125 0.2906885026242383
4.55078125 0.30357056993624587
4.5703125 0.3357568553564949
4.58984375 0.35522091582020354
4.609375 0.3872354781931324
4.62890625 0.41328332869371787
4.6484375 0.4478542128059677
4.66796875 0.4818115634166029
4.6875 0.5176536788623252
4.70703125 0.5632407307134264
4.7265625 0.6011049731636433
4.74609375 0.65034131947763
4.765625 0.7009766779603428
4.78515625 0.7539002787270119
4.8046875 0.8112129979198992
4.82421875 0.8750813759123
4.84375 0.94134886134707
4.86328125 1.0109603776162284
4.8828125 1.0912739495550174
4.90234375 1.170132451319204
4.921875 1.2592281973620123
4.94140625 1.3506515248411461
4.9609375 1.4546208186419496
4.98046875 1.5517623596360357
5.0 1.6752043182870382
5.01953125 1.783105113494324
5.0390625 1.921918327449808
5.05859375 2.045105722883404
5.078125 2.1956985918745793
5.09765625 2.3408705923021014
5.1171875 2.50373117461887
5.13671875 2.6664825500805325
5.15625 2.84404537226182
5.17578125 3.0246663972674472
5.1953125 3.2169814228006675
5.21484375 3.416891257155875
5.234375 3.622410606047593
5.25390625 3.8409127603009425
5.2734375 4.056422015201785
5.29296875 4.288272789746832
5.3125 4.514686142771524
5.33203125 4.755618450767255
5.3515625 4.991698881488295
5.37109375 5.23538185216934
5.390625 5.47726362334892
5.41015625 5.718549860272581
5.4296875 5.96002502387824
5.44921875 6.194735807045779
5.46875 6.423717875118589
5.48828125 6.648288164872557
5.5078125 6.857086789839392
5.52734375 7.062665635572092
5.546875 7.244873028488827
5.56640625 7.418724133381122
5.5859375 7.573491669768217
5.60546875 7.7078656887834
5.625 7.820204286471247
5.64453125 7.916449611223332
5.6640625 7.983144727740033
5.68359375 8.025647926391018
5.703125 8.053807799003952
5.72265625 8.042597786226036
5.7421875 8.02054825570081
5.76171875 7.962684833298578
5.78125 7.889799016171528
5.80078125 7.7895525828058485
5.8203125 7.668307432000798
5.83984375 7.528758592075793
5.859375 7.367912830654685
5.87890625 7.194670748678027
5.8984375 7.0002664188847135
5.91796875 6.800334001586656
5.9375 6.578674691629851
5.95703125 6.360603102642892
5.9765625 6.120051674480506
5.99609375 5.891475553238573
6.015625 5.644040581880045
6.03515625 5.40800534097502
6.0546875 5.161069448588265
6.07421875 4.921273814171849
6.09375 4.681527649026327
6.11328125 4.447347088545829
6.1328125 4.2137548793505735
6.15234375 3.992485006705497
6.171875 3.7686041206410854
6.19140625 3.56226350800353
6.2109375 3.352802617293042
6.23046875 3.1570348767365397
6.25 2.9710768268056533
6.26953125 2.785995840896112
6.2890625 2.619687404742665
6.30859375 2.448174201842467
6.328125 2.2983693496765776
6.34765625 2.1461440202459077
6.3671875 2.008761464856086
6.38671875 1.8747409727336615
6.40625 1.7510174570789367
6.42578125 1.6330012865327053
6.4453125 1.5241627186825883
6.46484375 1.41713924621726
6.484375 1.3233689163512579
6.50390625 1.226872638755773
6.5234375 1.1471490166163798
6.54296875 1.059985588020562
6.5625 0.9927294372579019
6.58203125 0.9147319640758316
6.6015625 0.855583501596932
6.62109375 0.7920280117037555
6.640625 0.7350518818961105
6.66015625 0.6832006982687344
6.6796875 0.631522021720182
6.69921875 0.5893089260938934
6.71875 0.5419852357150007
6.73828125 0.5080127431968627
6.7578125 0.4650136698583629
6.77734375 0.435737126894137
6.796875 0.4003442391578636
6.81640625 0.37427570174980473
6.8359375 0.344293055358875
6.85546875 0.32003408823560686
6.875 0.2963600079985861
6.89453125 0.2708073460770656
6.9140625 0.2557767730291419
6.93359375 0.23245380417922823
6.953125 0.21896530171497353
6.97265625 0.19961239457251823
6.9921875 0.18925373767589954
7.01171875 0.1693319359731172
7.03125 0.16195111372043056
7.05078125 0.14553396129578905
7.0703125 0.1363080324418776
7.08984375 0.1254881523846028
7.109375 0.11476001989872645
7.12890625 0.10849112322869106
7.1484375 0.09943104879356615
7.16796875 0.08882597267182377
7.1875 0.08705539446097177
7.20703125 0.0760791130021045
7.2265625 0.07301558341339175
7.24609375 0.06606468160818227
7.265625 0.06174334138038301
7.28515625 0.057212547628120336
7.3046875 0.052331496984916286
7.32421875 0.04757882012788865
7.34375 0.04588407785606437
7.36328125 0.04025718164279726
7.3828125 0.04040899280404695
7.40234375 0.034170857994731366
7.421875 0.03460564418895025
7.44140625 0.029214162541760562
7.4609375 0.0274871751483672
7.48046875 0.026625986873322724
7.5 0.018787097402818302
7.51953125 0.025869305729015538
7.5390625 0.015828920575180108
7.55859375 0.02337305573447008
7.578125 0.012804976917245917
7.59765625 0.020580269847366505
7.6171875 0.010377651372020368
7.63671875 0.017507597883316066
7.65625 0.010233300935162662
7.67578125 0.013562851819738111
7.6953125 0.008279555908718247
7.71484375 0.011374044621073637
7.734375 0.006110413539115448
7.75390625 0.009370967191750897
7.7734375 0.00508362418216233
7.79296875 0.007521682659560716
7.8125 0.005245206200680864
7.83203125 0.004881348562829035
7.8515625 0.005021441263303661
7.87109375 0.004522210141316544
7.890625 0.004550322400722176
7.91015625 0.0023709954320474532
7.9296875 0.007733720512613007
7.94921875 -0.0011989769960138222
7.96875 0.006178267417620967
7.98828125 0.0024818738050290975
8.0078125 0.0018441997989645464
8.02734375 0.004352273310377835
8.046875 -0.0013290244426790634
8.06640625 0.006006697326195178
8.0859375 0.0010582029216416509
8.10546875 0.0031657924647453934
8.125 0.0026114237778221416
8.14453125 0.002102694490938306
8.1640625 0.002755463637657052
8.18359375 0.0016235675179545606
8.203125 0.002097778443623577
8.22265625 0.0029524211425702163
8.2421875 0.0017699421156791018
8.26171875 0.005046796131315923
8.28125 -0.0002922826762499775
8.30078125 0.005422387995820455
8.3203125 -0.002971861626944017
8.33984375 0.004840964520500923
8.359375 -0.0014641541784487233
8.37890625 0.0014638299120471876
8.3984375 0.0007501312815869909
8.41796875 0.0007658601466711268
8.4375 0.0019476013731752062
8.45703125 -0.0014346367247666247
8.4765625 0.0025982365126766827
8.49609375 -0.0035581170458155176
8.515625 0.0009051163290083042
8.53515625 0.0013453479765229148
8.5546875 -0.00109218138670919
8.57421875 0.0007765165780267425
8.59375 0.002729732550349445
8.61328125 -0.0016597242059269712
8.6328125 0.002962009325479964
8.65234375 -0.002488285626440545
8.671875 0.004931523187968245
8.69140625 -0.004925198528912128
8.7109375 0.00896176075679149
8.73046875 -0.005623603644706737
8.75 0.006358281482694739
8.76953125 -0.0040136001625774576
8.7890625 0.005962025593500675
8.80859375 -0.00517075631654712
8.828125 0.005662693870773172
8.84765625 -0.004106809299035563
8.8671875 0.0016870131467533467
8.88671875 -0.0006298962482088055
8.90625 -0.0016378138254701247
8.92578125 0.004740692600640417
8.9453125 -0.004656790222489993
8.96484375 0.003946566137762009
8.984375 -0.004374484242308241
9.00390625 0.002885561550779736
9.0234375 -0.002190245863975704
9.04296875 0.00014693356911021915
9.0625 -0.0007779781104497174
9.08203125 -0.002798428125648733
9.1015625 0.0007621447576681706
9.12109375 -0.004300748154221101
9.140625 0.0008568116905514067
9.16015625 -0.004430731988853465
9.1796875 0.0005640690467648701
9.19921875 -0.002337724093121607
9.21875 0.0009896597411921948
9.23828125 -0.003999377069248522
9.2578125 0.0028663681082999326
9.27734375 -0.006274552895207952
9.296875 0.003553676147042606
9.31640625 -0.007209809444676529
9.3359375 0.0028122159675664227
9.35546875 -0.0029632820972768092
9.375 -0.0014986487381214997
9.39453125 0.0009900131164650716
9.4140625 -0.007684494220481564
9.43359375 0.00539325956898784
9.453125 -0.00619365652424031
9.47265625 0.002590745437422881
9.4921875 -0.00457632720087553
9.51171875 0.0022656592966351363
9.53125 -0.0031955459831822797
9.55078125 0.0013140945957055283
9.5703125 0.00021196205115919797
9.58984375 -0.0017671593754292059
9.609375 0.0010088982927577428
9.62890625 -0.0014071812680163664
9.6484375 3.21947878153539e-5
9.66796875 -0.001509035046410423
9.6875 -0.0009707114136980888
9.70703125 -0.0012110693539951756
9.7265625 -0.0010730108255504467
9.74609375 -0.0009530620829233949
9.765625 -0.002451077971087734
9.78515625 0.001702651150239709
9.8046875 -0.006236968686118893
9.82421875 0.0030083687365458633
9.84375 -0.0033496522755547264
9.86328125 0.0012680508401550217
9.8828125 -0.0027965386438751905
9.90234375 0.0024614585811927325
9.921875 -0.0036522468008240994
9.94140625 0.0011267469209023662
9.9609375 -0.001294660107634349
9.98046875 -0.0008008851421893448
