# x u
-10.0 -0.0034303502100371808
-9.98046875 0.001654151762454703
-9.9609375 -0.003316684592862884
-9.94140625 -0.0003112146080148648
-9.921875 0.00021216717471428392
-9.90234375 -0.0035079405598861246
-9.8828125 -0.002358323079180047
-9.86328125 -0.001827427735199505
-9.84375 -0.002206386795330584
-9.82421875 -0.0022326974866397897
-9.8046875 -0.0031008826306335724
-9.78515625 -0.005231605932572103
-9.765625 0.001365007029810572
-9.74609375 -0.008567349536866109
-9.7265625 0.003194646616803576
-9.70703125 -0.006166747624692714
-9.6875 0.0013036154424093116
-9.66796875 -0.003980338344086176
-9.6484375 -0.0023393409368626106
-9.62890625 0.00033788460797345987
-9.609375 -0.004638856365249411
-9.58984375 0.0014590291842198067
-9.5703125 -0.005034716101863901
-9.55078125 0.0011346556212580294
-9.53125 -0.0055995897168164
-9.51171875 -1.9339564600762138e-5
-9.4921875 -0.004015797113304909
-9.47265625 0.0008790173164301418
-9.453125 -0.0025441578661963282
-9.43359375 -0.00022365611439845168
-9.4140625 -0.00234026766252593
-9.39453125 0.0003986763574621577
-9.375 -0.0030398677965475795
-9.35546875 -4.372389416174016e-5
-9.3359375 -0.002721145305574768
-9.31640625 0.001665739969110569
-9.296875 -0.0034679287770878475
-9.27734375 0.002145128081042502
-9.2578125 -0.003758599960888176
-9.23828125 0.0025814450729569893
-9.21875 -0.00344962332357468
-9.19921875 0.0019278901843213792
-9.1796875 -0.004452221164462089
-9.16015625 0.0004545010789976933
-9.140625 -0.0023239483056879395
-9.12109375 -0.001000973214890788
-9.1015625 0.00020620148503724955
-9.08203125 -0.0030319214495121427
-9.0625 -1.7904940215696108e-5
-9.04296875 0.00027067055132046214
-9.0234375 -0.001451002366106513
-9.00390625 0.0022996100676271336
-8.984375 -0.005130770688419051
-8.96484375 0.004412010839231262
-8.9453125 -0.005437009766862677
-8.92578125 0.0030391630380951495
-8.90625 -0.0028714553514428975
-8.88671875 0.001516692270367992
-8.8671875 3.0361100937070784e-5
-8.84765625 -0.0007348882458316219
-8.828125 0.003097615187275138
-8.80859375 -0.0039289127865501094
-8.7890625 0.0030131439550930006
-8.76953125 -0.0025121697530229303
-8.75 0.002464190631242813
-8.73046875 -0.0016445560101678858
-8.7109375 -0.00040397863720564864
-8.69140625 -0.0005800928562427199
-8.671875 -0.002080109846684164
-8.65234375 -0.00018509557625362438
-8.6328125 -0.0028499962683971036
-8.61328125 -0.0018049542300504484
-8.59375 0.0010881597554796563
-8.57421875 -0.0051863040722013865
-8.5546875 0.0017252750546541962
-8.53515625 -0.006120748277898325
-8.515625 0.0027693102008514714
-8.49609375 -0.005251243368266045
-8.4765625 0.00261723747488668
-8.45703125 -0.008943903250787533
-8.4375 0.0036909620217163708
-8.41796875 -0.005220812827391064
-8.3984375 -0.0012830893055843506
-8.37890625 -0.003408487629990742
-8.359375 -0.002400219426169692
-8.33984375 -0.004271504646262914
-8.3203125 -0.0007146789277231447
-8.30078125 -0.0050068625108201925
-8.28125 -0.0008103085058591142
-8.26171875 -0.004143631548070403
-8.2421875 0.0005063582246725706
-8.22265625 -0.005136889841078629
-8.203125 0.0003398988326699659
-8.18359375 -0.004067981208370264
-8.1640625 -0.0010240882151993647
-8.14453125 -0.0024931769335825027
-8.125 -0.0025836434823868215
-8.10546875 3.051318850655349e-5
-8.0859375 -0.003836381185860105
-8.06640625 -0.0009575202969250574
-8.046875 -0.002306740780340849
-8.02734375 -0.0021023701301725317
-8.0078125 -0.00363808561032844
-7.98828125 -0.0009629643708542468
-7.96875 -0.006038928126295723
-7.94921875 0.0013715161071665982
-7.9296875 -0.006930547208931909
-7.91015625 0.0026067316281278285
-7.890625 -0.00691228966182425
-7.87109375 0.0027671927133557372
-7.8515625 -0.0057628281995534825
-7.83203125 0.0014778771810542712
-7.8125 -0.004414710054799709
-7.79296875 0.0016678074744607002
-7.7734375 -0.004973705827264335
-7.75390625 0.0012601780814281427
-7.734375 -0.0026609868622298194
-7.71484375 -0.0017681294891290916
-7.6953125 -0.0005599706341522237
-7.67578125 -0.0042417844361197915
-7.65625 -0.0002796068436899113
-7.63671875 -0.004807563721458394
-7.6171875 -0.0007140456710239274
-7.59765625 -0.001686972637090306
-7.578125 -0.0012797712995404331
-7.55859375 -0.0044359641243919
-7.5390625 -0.00026360862854062084
-7.51953125 -0.004868471446889976
-7.5 -6.056388436006903e-5
-7.48046875 -0.006006820404002968
-7.4609375 0.0007840951902057402
-7.44140625 -0.007283144831411432
-7.421875 0.001860205471366532
-7.40234375 -0.007846372874165492
-7.3828125 0.0008977786785957579
-7.36328125 -0.008684588527004499
-7.34375 -0.00010245665629697066
-7.32421875 -0.00686315757197137
-7.3046875 0.0001935090202069261
-7.28515625 -0.005394925115814503
-7.265625 -0.003886972156274835
-7.24609375 0.0014001399647462873
-7.2265625 -0.007599597348479576
-7.20703125 0.0030910524858312445
-7.1875 -0.008932344664046705
-7.16796875 0.003137564034282555
-7.1484375 -0.00961199415705744
-7.12890625 0.00521263656120554
-7.109375 -0.011414340553581105
-7.08984375 0.005756175996937356
-7.0703125 -0.007917563145572926
-7.05078125 0.0024800852520444902
-7.03125 -0.00436380133928383
-7.01171875 -8.705818773603011e-5
-6.9921875 -0.0020107790682268667
-6.97265625 -0.0005596909896279173
-6.953125 -0.00017956763584756888
-6.93359375 -0.003799452319852993
-6.9140625 0.001260798024055108
-6.89453125 -0.004225773218690211
-6.875 -0.0007975137731199358
-6.85546875 -0.0012740031942664112
-6.8359375 -0.0030374115199263974
-6.81640625 -0.0027334355359761447
-6.796875 9.09255598644243e-5
-6.77734375 -0.005261329760046347
-6.7578125 0.0010029932675635206
-6.73828125 -0.0037410631813461354
-6.71875 -0.0001934854490381402
-6.69921875 -0.005141453004409845
-6.6796875 0.0006794154875477895
-6.66015625 -0.002450147207480345
-6.640625 -0.0018270803280625789
-6.62109375 -0.0015710210653325021
-6.6015625 -0.0027924259177830105
-6.58203125 -0.0003460443445733319
-6.5625 -0.0029418485479531173
-6.54296875 -0.002326358015758985
-6.5234375 -0.0002319928196706164
-6.50390625 -0.005062932172376175
-6.484375 -0.0006799179209552031
-6.46484375 -0.0028615190991848893
-6.4453125 -0.0022278076664663388
-6.42578125 -0.0012563807240584396
-6.40625 -0.002374445043267101
-6.38671875 -0.0018961626694832118
-6.3671875 -0.003919830700365445
-6.34765625 0.0004430499374956792
-6.328125 -0.003980959764485675
-6.30859375 -0.0005196647923666059
-6.2890625 -0.003682958479862941
-6.26953125 0.0007708008938916711
-6.25 -0.0042176189327877145
-6.23046875 0.002193208788995371
-6.2109375 -0.004341984537777566
-6.19140625 0.00015869623854200543
-6.171875 -0.00191344200345836
-6.15234375 -0.0009980347861518468
-6.1328125 -0.0031918527394280694
-6.11328125 0.001238895476496249
-6.09375 -0.004651681505554783
-6.07421875 0.0027169994026479127
-6.0546875 -0.005381526981649565
-6.03515625 0.0025171851052983585
-6.015625 -0.0015289423839682237
-5.99609375 -0.00163382845396276
-5.9765625 0.0017274965637067985
-5.95703125 -0.0041154823718033695
-5.9375 0.0010713268925673924
-5.91796875 -0.0034258993106121016
-5.8984375 0.0007570779451047116
-5.87890625 -0.003846637768612604
-5.859375 0.0015606366502272095
-5.83984375 -0.005925780713449513
-5.8203125 0.0045955817060746584
-5.80078125 -0.008899574561062606
-5.78125 0.003988905570663781
-5.76171875 -0.009018362897449839
-5.7421875 0.00357135713194634
-5.72265625 -0.007768502579465153
-5.703125 0.0021984200250796393
-5.68359375 -0.006616121105873507
-5.6640625 -0.0006119390197867336
-5.64453125 -0.004975906771284011
-5.625 -0.002755265370616211
-5.60546875 -0.0026922635885004986
-5.5859375 -0.004526076664751466
-5.56640625 -0.0016523952085349958
-5.546875 -0.005056524904500037
-5.52734375 -0.0017502604344123984
-5.5078125 -0.004277861572796082
-5.48828125 -0.0025462079267410953
-5.46875 -0.0029270890085686396
-5.44921875 -0.0037126905383570996
-5.4296875 -0.002970106195860911
-5.41015625 -0.002785735418267432
-5.390625 -0.00356358110406485
-5.37109375 -0.0033069009513504444
-5.3515625 -0.0033742949775237285
-5.33203125 -0.002037673647808713
-5.3125 -0.004584375449157907
-5.29296875 -0.0025168361228258274
-5.2734375 -0.0030436102962418943
-5.25390625 -0.001284112279601679
-5.234375 -0.005167817336949598
-5.21484375 0.00021421853424685722
-5.1953125 -0.007313750076149983
-5.17578125 0.0016176097724462934
-5.15625 -0.008019639478740404
-5.13671875 0.0001731093744512524
-5.1171875 -0.005114431212074777
-5.09765625 -0.0012923766491912403
-5.078125 -0.005164248301145369
-5.05859375 -0.001712350680052932
-5.0390625 -0.002549286051579003
-5.01953125 -0.004769937971252913
-5.0 5.372789251811838e-5
-4.98046875 -0.004914278276904938
-4.9609375 -0.0010784573636128947
-4.94140625 -0.0024336342632858
-4.921875 -0.003237497723750149
-4.90234375 -0.0032092866413249155
-4.8828125 -0.0017444325369342373
-4.86328125 -0.003910409768769885
-4.84375 -0.0027156483507235762
-4.82421875 -0.003545734960264557
-4.8046875 -0.0035976999991949032
-4.78515625 -0.0019616491920597667
-4.765625 -0.003946066903940837
-4.74609375 -0.0029559976379254227
-4.7265625 -0.00406491986079538
-4.70703125 0.0006842779304880864
-4.6875 -0.004869917690178971
-4.66796875 0.0007974940307529099
-4.6484375 -0.005702972971742604
-4.62890625 -0.0009929993950232863
-4.609375 -0.0030851840703596256
-4.58984375 -0.0015468228429356135
-4.5703125 -0.0023099371028046933
-4.55078125 -0.0014832985203580007
-4.53125 -0.002194187930629643
-4.51171875 -0.0019372244090852808
-4.4921875 -0.004026238925225467
-4.47265625 -0.0003948533402219345
-4.453125 -0.001616103490930887
-4.43359375 -0.003524207408280078
-4.4140625 -0.0002714565086970877
-4.39453125 -0.004660902026649205
-4.375 0.00020169875589859387
-4.35546875 -0.006155441361741509
-4.3359375 0.0023994838195666723
-4.31640625 -0.004592356373478879
-4.296875 0.0018436385594311488
-4.27734375 -0.0030322258764714505
-4.2578125 -0.0013760577572892174
-4.23828125 -0.00167652519647854
-4.21875 -0.0038707052037030287
-4.19921875 2.5477445205979166e-5
-4.1796875 -0.0008890548400306564
-4.16015625 -0.0029989765218014774
-4.140625 -0.0006915001879241878
-4.12109375 -0.001813384857398237
-4.1015625 -0.0009745652521417902
-4.08203125 -0.0039035272612744087
-4.0625 0.0005673974786088998
-4.04296875 -0.0038443274067052613
-4.0234375 0.0002542929132287597
-4.00390625 -0.0031204812618623734
-3.984375 0.0017848501288684204
-3.96484375 -0.0026576752229199307
-3.9453125 0.0014372290765778395
-3.92578125 0.0018170141199860268
-3.90625 -0.002198168435612491
-3.88671875 0.0018681325608294053
-3.8671875 -0.000999177326657552
-3.84765625 0.0016535286063428245
-3.828125 -0.002653637743979864
-3.80859375 0.00318742870750377
-3.7890625 -0.002552408840275522
-3.76953125 -0.0004422665266252679
-3.75 -0.0008450904550100224
-3.73046875 -0.0006498637404806495
-3.7109375 -0.0019897534035030473
-3.69140625 0.00019673074810278024
-3.671875 -0.002881203259472387
-3.65234375 -6.0125902769381234e-5
-3.6328125 -0.0023662868597953968
-3.61328125 -0.0010609777009596977
-3.59375 9.159164435301737e-5
-3.57421875 -0.0036380436237792857
-3.5546875 0.0013509008448939763
-3.53515625 -0.0013570070805770662
-3.515625 -0.004018767123212363
-3.49609375 0.005428719160294193
-3.4765625 -0.009579439264512768
-3.45703125 0.007030897982179818
-3.4375 -0.009223604384002049
-3.41796875 0.004038047431125014
-3.3984375 -0.00505547921657401
-3.37890625 0.0018658507983322359
-3.359375 -0.0022821024925727684
-3.33984375 0.0012417166894835852
-3.3203125 -0.0026282558836017156
-3.30078125 0.0031393437939419844
-3.28125 -0.0027521650037556356
-3.26171875 -0.00017221467795058842
-3.2421875 0.0018304876797416991
-3.22265625 -0.002105943675662303
-3.203125 0.0012548803257126373
-3.18359375 -0.0026462806173044306
-3.1640625 0.0029187879457337473
-3.14453125 -0.002364257046625351
-3.125 0.0005809513545831091
-3.10546875 -0.0007607459830391017
-3.0859375 0.0008563372530170921
-3.06640625 -0.0018947986249954613
-3.046875 0.0023929159211913964
-3.02734375 -0.002269956208822338
-3.0078125 0.0006059896395193415
-2.98828125 -0.0009425380304482617
-2.96875 -0.001388072867480411
-2.94921875 0.0017548724804497123
-2.9296875 -0.0019163098285748248
-2.91015625 0.0010158312972201322
-2.890625 -0.00041864217673902304
-2.87109375 0.001255901568177828
-2.8515625 0.00017537587870004867
-2.83203125 0.00311812280255927
-2.8125 0.0008555549850078614
-2.79296875 0.00196981140968909
-2.7734375 0.0028175365960517174
-2.75390625 0.0009880597116821155
-2.734375 0.006590354530819326
-2.71484375 -0.0007376945532135137
-2.6953125 0.008275286431587703
-2.67578125 -0.0008310679139036381
-2.65625 0.0069089508316927395
-2.63671875 0.002845911579551025
-2.6171875 0.005377919943143017
-2.59765625 0.002705707821839709
-2.578125 0.007902654005022991
-2.55859375 0.0023062554982005157
-2.5390625 0.00955995035507412
-2.51953125 0.004626892493815926
-2.5 0.00797969193722825
-2.48046875 0.004272360862223573
-2.4609375 0.009434557510520858
-2.44140625 0.005637513606271516
-2.421875 0.006325605871398049
-2.40234375 0.009932856283801778
-2.3828125 0.006482393664792863
-2.36328125 0.009678907251065058
-2.34375 0.010204771657411377
-2.32421875 0.006939485159544151
-2.3046875 0.013343429263107803
-2.28515625 0.007422024648950101
-2.265625 0.015233940877096716
-2.24609375 0.010496848609698836
-2.2265625 0.012032304468482594
-2.20703125 0.014286077801438063
-2.1875 0.010963027326589575
-2.16796875 0.014278368844193784
-2.1484375 0.012405734095005214
-2.12890625 0.016247678808976887
-2.109375 0.013492449976967899
-2.08984375 0.017778402687644454
-2.0703125 0.015911223215743994
-2.05078125 0.018137408877759387
-2.03125 0.018605330997211553
-2.01171875 0.017847545344528995
-1.9921875 0.022879063643135203
-1.97265625 0.01842346381257569
-1.953125 0.02453189056633192
-1.93359375 0.020610442583429894
-1.9140625 0.024532093151161283
-1.89453125 0.024366013283997158
-1.875 0.02713153787739464
-1.85546875 0.026412066566544323
-1.8359375 0.029762642312319065
-1.81640625 0.026702879727129092
-1.796875 0.03315790443020189
-1.77734375 0.03053705404086493
-1.7578125 0.03426357785654566
-1.73828125 0.035276935061970105
-1.71875 0.03540688950460125
-1.69921875 0.04003047588904396
-1.6796875 0.038996641521138686
-1.66015625 0.042206617744066866
-1.640625 0.043514519287483344
-1.62109375 0.04498999367192502
-1.6015625 0.046613312649474214
-1.58203125 0.04771818490108226
-1.5625 0.05133102686149388
-1.54296875 0.05431173835843928
-1.5234375 0.053814302764903094
-1.50390625 0.05953662032215459
-1.484375 0.060006640280118095
-1.46484375 0.06128195338762066
-1.4453125 0.06431892247068982
-1.42578125 0.06797057724079464
-1.40625 0.07034999617032411
-1.38671875 0.0714780151237206
-1.3671875 0.07827114862382609
-1.34765625 0.0786975171438471
-1.328125 0.08275931387925259
-1.30859375 0.08714682911420635
-1.2890625 0.08830607247835906
-1.26953125 0.09172989044645108
-1.25 0.0982139709191332
-1.23046875 0.09874970058236943
-1.2109375 0.10648028734398207
-1.19140625 0.10869411578387034
-1.171875 0.11211416768155957
-1.15234375 0.119197476824349
-1.1328125 0.12015474388535241
-1.11328125 0.12766603805357346
-1.09375 0.13115124725171745
-1.07421875 0.1386481654821088
-1.0546875 0.13890748487265903
-1.03515625 0.15216799984526963
-1.015625 0.1488031193600332
-0.99609375 0.16384035052914447
-0.9765625 0.15994363430055614
-0.95703125 0.174686019373526
-0.9375 0.17534135797285022
-0.91796875 0.18419941982847177
-0.8984375 0.18921871873983587
-0.87890625 0.1989678435888954
-0.859375 0.20409386837811228
-0.83984375 0.21622046496724157
-0.8203125 0.21863501356289916
-0.80078125 0.2320122282272742
-0.78125 0.23728628351373587
-0.76171875 0.24733226301211148
-0.7421875 0.2566795182455419
-0.72265625 0.26426618420175857
-0.703125 0.2779254505353935
-0.68359375 0.28318728945543287
-0.6640625 0.29844662253669396
-0.64453125 0.30496731941742683
-0.625 0.31835816519105364
-0.60546875 0.33210410907632104
-0.5859375 0.3380519163599506
-0.56640625 0.3554323657530293
-0.546875 0.36500928972162194
-0.52734375 0.3802641571051786
-0.5078125 0.3927914374346617
-0.48828125 0.40639425618299196
-0.46875 0.42191440756309995
-0.44921875 0.43479732710345664
-0.4296875 0.45258750075711196
-0.41015625 0.4661849533534289
-0.390625 0.4857626244497292
-0.37109375 0.49943285671616633
-0.3515625 0.5195084998261568
-0.33203125 0.5327333380717739
-0.3125 0.5559360324114269
-0.29296875 0.5715828557446401
-0.2734375 0.5941139187575639
-0.25390625 0.6091825797331403
-0.234375 0.634538965865327
-0.21484375 0.6506269192964055
-0.1953125 0.6747927634674429
-0.17578125 0.6947770282744021
-0.15625 0.7173170157446662
-0.13671875 0.7388084814631816
-0.1171875 0.7649833886759208
-0.09765625 0.7854409372723163
-0.078125 0.8150168970887564
-0.05859375 0.831601242065124
-0.0390625 0.8646391833870567
-0.01953125 0.8830023489091775
0.0 0.9163730228970839
0.01953125 0.9373494704664374
0.0390625 0.9657774317420988
0.05859375 0.994181080694637
0.078125 1.0215204400444984
0.09765625 1.0487232409297993
0.1171875 1.0784317964324708
0.13671875 1.107364401335486
0.15625 1.1325347732797084
0.17578125 1.1671270202747914
0.1953125 1.1918962450498192
0.21484375 1.2251663615616
0.234375 1.2543695184914714
0.25390625 1.2840060760477152
0.2734375 1.3141809558957338
0.29296875 1.3438137521075713
0.3125 1.3752709333010185
0.33203125 1.404442355711898
0.3515625 1.435108408347988
0.37109375 1.4641261212049685
0.390625 1.4939640049212266
0.41015625 1.5245454603685584
0.4296875 1.5515364565176197
0.44921875 1.5838358133297037
0.46875 1.6043244312318141
0.48828125 1.6429403013943507
0.5078125 1.6585902259616034
0.52734375 1.6948093346847108
0.546875 1.711099875472907
0.56640625 1.7453529447302443
0.5859375 1.7592842459576892
0.60546875 1.7918892353367675
0.625 1.8064465828485035
0.64453125 1.8343696178542812
0.6640625 1.851594197730173
0.68359375 1.8694622956792855
0.703125 1.8928894821159714
0.72265625 1.9014792977264636
0.7421875 1.9241820798628773
0.76171875 1.9336798942790931
0.78125 1.9505428817291977
0.80078125 1.9604869488293886
0.8203125 1.9717067547585594
0.83984375 1.9825453757314127
0.859375 1.9869506548064986
0.87890625 1.9950183861208062
0.8984375 1.9969552239899555
0.91796875 2.0017349986346518
0.9375 2.0004892235079477
0.95703125 2.000877496837073
0.9765625 1.998608738552925
0.99609375 1.996609308523094
1.015625 1.9900177228321132
1.03515625 1.9832980297191258
1.0546875 1.9755288928479209
1.07421875 1.9669716304959546
1.09375 1.955625019391497
1.11328125 1.9455593473502852
1.1328125 1.9296832565152582
1.15234375 1.9166532556982456
1.171875 1.8988671568975402
1.19140625 1.8818131859312097
1.2109375 1.866261152484121
1.23046875 1.8415253159160314
1.25 1.827409002068925
1.26953125 1.7976518688945913
1.2890625 1.7831355786025924
1.30859375 1.7524668251998032
1.328125 1.7327380038787001
1.34765625 1.7025853209041033
1.3671875 1.6813048639574797
1.38671875 1.6502251523660127
1.40625 1.6279419353761915
1.42578125 1.5953469315034168
1.4453125 1.5731970467815795
1.46484375 1.5376219199662058
1.484375 1.5139673861795986
1.50390625 1.481264132836372
1.5234375 1.4521293361009584
1.54296875 1.4245139740315944
1.5625 1.3905279048653123
1.58203125 1.3660671266575897
1.6015625 1.326152474827743
1.62109375 1.306126120799139
1.640625 1.2666080952970473
1.66015625 1.2446296203319651
1.6796875 1.2092012529969058
1.69921875 1.1836948133755087
1.71875 1.151823087971318
1.73828125 1.1226019831328868
1.7578125 1.0935988287991
1.77734375 1.0666506124088417
1.796875 1.0364788324587115
1.81640625 1.0112589445098252
1.8359375 0.9821319406053299
1.85546875 0.9555287855521616
1.875 0.9293956851742231
1.89453125 0.9026422523216848
1.9140625 0.8770526142439307
1.93359375 0.8484451571829064
1.953125 0.8266884785374986
1.97265625 0.7987624511387565
1.9921875 0.7797581019046442
2.01171875 0.7530332051601583
2.03125 0.7326761981943118
2.05078125 0.7083387994196408
2.0703125 0.6874370821539748
2.08984375 0.6659968775340824
2.109375 0.6433239355476736
2.12890625 0.6279218449318825
2.1484375 0.5993924444814333
2.16796875 0.5879863106209137
2.1875 0.5624284695954145
2.20703125 0.5471382782720215
2.2265625 0.5285723063095279
2.24609375 0.509974161084132
2.265625 0.49495357238885757
2.28515625 0.47547752898208906
2.3046875 0.4626271559231876
2.32421875 0.44527062128234746
2.34375 0.4308312761479095
2.36328125 0.41657437136241765
2.3828125 0.40383455024517045
2.40234375 0.38648227005722846
2.421875 0.3764271121535724
2.44140625 0.36018267606528764
2.4609375 0.3511280938996212
2.48046875 0.3373594259231741
2.5 0.3283723288786346
2.51953125 0.31348489489488507
2.5390625 0.30675293471857845
2.55859375 0.2925631791272919
2.578125 0.28545554119262195
2.59765625 0.2760457024416991
2.6171875 0.26653012905364337
2.63671875 0.2562041844834427
2.65625 0.2517588101790248
2.67578125 0.2378023902506795
2.6953125 0.23611168821929873
2.71484375 0.2229259308818317
2.734375 0.21899989831457706
2.75390625 0.21244577262053171
2.7734375 0.2063731249338267
2.79296875 0.19987748204631278
2.8125 0.1947289391873809
2.83203125 0.18944037961349613
2.8515625 0.18295465835707697
2.87109375 0.18048207527844368
2.890625 0.17432107072274272
2.91015625 0.17114047613902017
2.9296875 0.16633153490910785
2.94921875 0.1640233417359935
2.96875 0.1563131367294779
2.98828125 0.15963321408576842
3.0078125 0.15095590353715627
3.02734375 0.1525452047146426
3.046875 0.14910326062570048
3.06640625 0.14759719499093885
3.0859375 0.14550655759784714
3.10546875 0.14530725972410125
3.125 0.1465021175046182
3.14453125 0.1456643700257399
3.1640625 0.1470932042324086
3.18359375 0.14611498847820054
3.203125 0.15110587331740616
3.22265625 0.15071920941464992
3.2421875 0.15679494939848732
3.26171875 0.15643029770205497
3.28125 0.1630494477463398
3.30078125 0.16559835301827802
3.3203125 0.17416164178646631
3.33984375 0.17707801413792693
3.359375 0.18819511745146333
3.37890625 0.19075437405417361
3.3984375 0.20242147185957582
3.41796875 0.21181366160363727
3.4375 0.21927638323259793
3.45703125 0.23474703606319947
3.4765625 0.24524151080645135
3.49609375 0.2588511285973606
3.515625 0.27560386219848354
3.53515625 0.2919871492753755
3.5546875 0.3096252394489387
3.57421875 0.3302984409012234
3.59375 0.35319865786699756
3.61328125 0.3747140562222958
3.6328125 0.4027456730613032
3.65234375 0.42807677043593956
3.671875 0.4599483619600409
3.69140625 0.4913151055063084
3.7109375 0.5264981279924785
3.73046875 0.565855077400865
3.75 0.6053018182910014
3.76953125 0.6502571137468991
3.7890625 0.6968613509040069
3.80859375 0.7510598312722481
3.828125 0.802606174661297
3.84765625 0.8643502105677002
3.8671875 0.9256427877125721
3.88671875 0.9948589009807485
3.90625 1.0684530440341544
3.92578125 1.1447247264103755
3.9453125 1.2310795046874186
3.96484375 1.3186525081579035
3.984375 1.414225861695701
4.00390625 1.5187321627320511
4.0234375 1.621207581630654
4.04296875 1.7426136086465827
4.0625 1.857949272532402
4.08203125 1.9969419664312766
4.1015625 2.1253598713858133
4.12109375 2.2774301511779163
4.140625 2.426792421203676
4.16015625 2.591992550640428
4.1796875 2.7557118106524454
4.19921875 2.9405124408797816
4.21875 3.121133764264809
4.23828125 3.3195739532742294
4.2578125 3.517052000830849
4.27734375 3.730670256391422
4.296875 3.942653727218835
4.31640625 4.16824562104088
4.3359375 4.392440078950494
4.35546875 4.629741431816322
4.375 4.863599638912863
4.39453125 5.107692984506928
4.4140625 5.343180478202411
4.43359375 5.590953540125726
4.453125 5.826248534601684
4.47265625 6.068398593778631
4.4921875 6.294912047925957
4.51171875 6.523416328831459
4.53125 6.74051912786936
4.55078125 6.941473710883795
4.5703125 7.139970111004294
4.58984375 7.313939763591158
4.609375 7.482326007708059
4.62890625 7.622869144616104
4.6484375 7.7497066094842
4.66796875 7.850816443675566
4.6875 7.935857699371123
4.70703125 7.989619705555397
4.7265625 8.030304875659514
4.74609375 8.030426525067163
4.765625 8.027379961607068
4.78515625 7.976953979631622
4.8046875 7.922861592482425
4.82421875 7.829784561811683
4.84375 7.725457661143329
4.86328125 7.593322873895955
4.8828125 7.448987686415051
4.90234375 7.276298962487683
4.921875 7.0994958652168
4.94140625 6.8979188227802695
4.9609375 6.69462538351854
4.98046875 6.469774331051817
5.0 6.246565357893108
5.01953125 6.01108075612561
5.0390625 5.774278531960688
5.05859375 5.532933004226162
5.078125 5.291791965149516
5.09765625 5.049002807025963
5.1171875 4.81097809970867
5.13671875 4.574264290713675
5.15625 4.3408291591369315
5.17578125 4.11263193362457
5.1953125 3.8958234157915994
5.21484375 3.672529777934338
5.234375 3.4743199122348063
5.25390625 3.2648551760052156
5.2734375 3.080467493543969
5.29296875 2.887831412447583
5.3125 2.716871712540498
5.33203125 2.5444984059304963
5.3515625 2.3856480207354345
5.37109375 2.233788345315167
5.390625 2.0869081873431385
5.41015625 1.9550369806055816
5.4296875 1.8180440152017003
5.44921875 1.7072403972979582
5.46875 1.5827422260038104
5.48828125 1.4822992180333041
5.5078125 1.3757517657419778
5.52734375 1.2818424820601142
5.546875 1.1946542810061738
5.56640625 1.1079372360385058
5.5859375 1.033616449339657
5.60546875 0.9577533439732211
5.625 0.8919364915593913
5.64453125 0.8285266086336156
5.6640625 0.7682568403249237
5.68359375 0.7151869780355795
5.703125 0.660601007516084
5.72265625 0.6167863535815037
5.7421875 0.5668248098071775
5.76171875 0.5330096954069068
5.78125 0.48531867116355754
5.80078125 0.4599411698110918
5.8203125 0.4165544525755567
5.83984375 0.39403525073629586
5.859375 0.3593809540375512
5.87890625 0.3363170317905271
5.8984375 0.311073866005803
5.91796875 0.2879359380103046
5.9375 0.2662076831506801
5.95703125 0.2450953098630142
5.9765625 0.2304543968628714
5.99609375 0.20784040771423395
6.015625 0.1991873108265303
6.03515625 0.17689790180705378
6.0546875 0.17285378561697806
6.07421875 0.15026251595189244
6.09375 0.14940824983257905
6.11328125 0.12903101947431073
6.1328125 0.12876825762498578
6.15234375 0.11351466682933786
6.171875 0.10713629546406955
6.19140625 0.10235469750989168
6.2109375 0.08842597100681981
6.23046875 0.08675188642683973
6.25 0.07430097030049099
6.26953125 0.07693832726211697
6.2890625 0.0622329260397666
6.30859375 0.06680407379837008
6.328125 0.053088575372256835
6.34765625 0.0561724792172863
6.3671875 0.04567689583621276
6.38671875 0.046931871038133455
6.40625 0.039982592350990165
6.42578125 0.03943693866858211
6.4453125 0.03437314007203557
6.46484375 0.03354294447913991
6.484375 0.029447437271833687
6.50390625 0.028123503271249906
6.5234375 0.02723995780110572
6.54296875 0.02365520009207911
6.5625 0.024117008702738363
6.58203125 0.02012007502339208
6.6015625 0.02127760209245899
6.62109375 0.017220041583893897
6.640625 0.019182519988408364
6.66015625 0.015671989383750806
6.6796875 0.016772507935908565
6.69921875 0.012911040525955708
6.71875 0.012689057662796821
6.73828125 0.013063889876070212
6.7578125 0.008868881955328534
6.77734375 0.0109906654279881
6.796875 0.005948942855010908
6.81640625 0.01064881908399995
6.8359375 0.006607630255976771
6.85546875 0.005823850813762688
6.875 0.005850543678734728
6.89453125 0.006458359858242883
6.9140625 0.004244896292633471
6.93359375 0.005116421485372127
6.953125 0.0027466775803283994
6.97265625 0.006669508985310997
6.9921875 0.0002879505808359578
7.01171875 0.006952313704633742
7.03125 0.002619205901372927
7.05078125 0.002743808226380269
7.0703125 0.004580685914568901
7.08984375 6.126235442536349e-5
7.109375 0.0066306836525814525
7.12890625 -0.000874457967423671
7.1484375 0.00494555891505024
7.16796875 -7.072798153938409e-5
7.1875 0.0046334936315591616
7.20703125 -0.0011310767620060572
7.2265625 0.003402284923802616
7.24609375 0.001342042256686618
7.265625 0.00046546744233180726
7.28515625 0.0017512240385194888
7.3046875 0.0012958392463965768
7.32421875 0.00141419224759666
7.34375 0.0018009780893305377
7.36328125 -0.0007625295252618597
7.3828125 0.0008831774752816046
7.40234375 0.0006619871144712269
7.421875 0.00043291181243285126
7.44140625 0.000901215848647316
7.4609375 0.0005509872723033493
7.48046875 0.0007406671912357499
7.5 0.00022077017042154126
7.51953125 0.0008735339642659446
7.5390625 -0.00097208478170804
7.55859375 -4.676789007889391e-5
7.578125 0.00036451371070505255
7.59765625 0.0006218629165807162
7.6171875 -0.001999505016628495
7.63671875 0.004564168788350451
7.65625 -0.0049981965455575955
7.67578125 0.006174917179827678
7.6953125 -0.004618723790703622
7.71484375 0.003449764353294118
7.734375 -0.001747491836517662
7.75390625 0.00034173273538586654
7.7734375 -0.0006034796792497416
7.79296875 -0.001994361582439357
7.8125 0.0015386010031845044
7.83203125 -0.0026914769924215962
7.8515625 0.001690357649341459
7.87109375 -0.00037269379035554913
7.890625 -0.0038169987928830837
7.91015625 0.002717159406132434
7.9296875 -0.0055144281978839905
7.94921875 0.0027434211705648125
7.96875 -0.0033180435718201304
7.98828125 5.920975785766028e-5
8.0078125 -0.0014361353769540958
8.02734375 -0.0017424885933484046
8.046875 0.0023759796865709996
8.06640625 -0.0033465232521691334
8.0859375 0.0017658542244315997
8.10546875 -0.004016589840036582
8.125 0.0019176045014656085
8.14453125 -0.004252244514852177
8.1640625 0.0009640279056943868
8.18359375 -0.00527288089781372
8.203125 0.0013511195424773803
8.22265625 -0.0037895705989436645
8.2421875 0.00121829339518717
8.26171875 -0.004812494948545243
8.28125 0.005269082309071665
8.30078125 -0.0062580992956291215
8.3203125 0.002733418024455009
8.33984375 -0.002107500761563824
8.359375 -0.00019879985855578153
8.37890625 -0.001995216022533497
8.3984375 0.002242118572045926
8.41796875 -0.0008702742357634963
8.4375 0.0009677040563345618
8.45703125 0.0014261664521241918
8.4765625 -0.0011928901183040075
8.49609375 0.003064173402076875
8.515625 -0.0031673026921590353
8.53515625 0.0018028440265819984
8.5546875 -0.0022387813964750702
8.57421875 0.0006596835045621502
8.59375 -0.0016441103839355542
8.61328125 -0.00023435892960398108
8.6328125 -0.0018720934949381929
8.65234375 -0.00010481137781798155
8.671875 4.19492396752652e-6
8.69140625 -0.0013454377397405237
8.7109375 0.0012991790437616307
8.73046875 -0.0020679293424563996
8.75 0.002376071101651389
8.76953125 -0.001190627288824131
8.7890625 -0.0008760061877258751
8.80859375 0.0020552549689375477
8.828125 -0.0022479779217089435
8.84765625 -0.0009331550493531515
8.8671875 -0.00045118513574327057
8.88671875 -0.00035067861850801574
8.90625 -0.0013485201356237542
8.92578125 0.003532587901815931
8.9453125 -0.001860178184335981
8.96484375 0.003941898462298643
8.984375 -0.0027260584038735214
9.00390625 0.005615053225770661
9.0234375 -0.0028441844181958387
9.04296875 0.0030257357673739715
9.0625 -0.0019384000931079726
9.08203125 0.0007078008739496155
9.1015625 0.0012298033645432027
9.12109375 -0.0014861875619681109
9.140625 0.0012495871094933553
9.16015625 -0.00038027664208417633
9.1796875 0.0005901807492073585
9.19921875 0.0012403653898217792
9.21875 -0.0026061666282441442
9.23828125 0.003699071993139791
9.2578125 -0.003401613365262429
9.27734375 0.0002556946267865401
9.296875 0.0012097462670192793
9.31640625 -0.0035529601599704197
9.3359375 0.002692559640161435
9.35546875 -0.003309310111461211
9.375 0.0009980720666929455
9.39453125 -0.0025739689032668878
9.4140625 0.0031837414827849964
9.43359375 -0.006306290164321493
9.453125 0.00503992482775889
9.47265625 -0.00529117953490954
9.4921875 0.004030306413846219
9.51171875 -0.005696879287006795
9.53125 0.0031787039711378418
9.55078125 -0.0035870163316975567
9.5703125 0.0017714650917849406
9.58984375 -0.0029799983519470663
9.609375 0.0023636089937505433
9.62890625 -0.0028630282048474065
9.6484375 0.0007029642382356815
9.66796875 -0.0010416229024469148
9.6875 0.002605309571662162
9.70703125 -0.0038975525901838726
9.7265625 0.0029998671379274366
9.74609375 -0.0029869291835098455
9.765625 0.0008456814045642025
9.78515625 0.00025094424707983176
9.8046875 -0.0017719075219658764
9.82421875 0.00037410759772560365
9.84375 -0.00324062746806536
9.86328125 0.004613454737567135
9.8828125 -0.005088931065756863
9.90234375 0.0021006952851888028
9.921875 -0.002575445473604998
9.94140625 -0.0016035095878143557
9.9609375 -0.0020383750024121072
9.98046875 -5.09266085680915e-5
