# x u
-10.0 -0.001702497927441149
-9.98046875 -0.0007427594554836325
-9.9609375 -0.000668253003474284
-9.94140625 -0.0006477232557464685
-9.921875 0.00031766777263442236
-9.90234375 -6.087728873671594e-5
-9.8828125 -0.00042613855853945726
-9.86328125 4.92730247098061e-5
-9.84375 -0.00048159544634707174
-9.82421875 0.00014635395611994895
-9.8046875 0.00024497467192818867
-9.78515625 -0.0001382275762114027
-9.765625 -0.0002682406482807931
-9.74609375 -0.0010552013562785678
-9.7265625 -0.0003705919280110326
-9.70703125 -0.00112888934495603
-9.6875 -0.0010046276195136983
-9.66796875 -0.0015823740195509695
-9.6484375 -0.00120063252775926
-9.62890625 -0.0015883183159487446
-9.609375 -0.001417714105134693
-9.58984375 -0.0014145371619533886
-9.5703125 -0.0008401520748158031
-9.55078125 -0.0010612811137074019
-9.53125 -0.0003719776152399934
-9.51171875 -0.0005984077311368408
-9.4921875 -0.000367914474292963
-9.47265625 -0.0008798011738611056
-9.453125 0.0004931694969942946
-9.43359375 -0.0007407465051376683
-9.4140625 6.196383696521757e-5
-9.39453125 0.0004040757347811841
-9.375 0.0003153761436241187
-9.35546875 -0.0002594551423546476
-9.3359375 0.00019735709984439187
-9.31640625 0.000716654359063762
-9.296875 0.0001764879559252308
-9.27734375 -0.00047381065556162394
-9.2578125 1.5573455681844317e-5
-9.23828125 -0.0009395342665475259
-9.21875 -0.0011060747781000413
-9.19921875 -0.0016257582150308036
-9.1796875 -0.0013931293821675128
-9.16015625 -0.001595464588500739
-9.140625 -0.0012266600996261867
-9.12109375 -0.001099361131044474
-9.1015625 -0.0020079160228448356
-9.08203125 -0.0009740323222466873
-9.0625 -0.0013131813781910306
-9.04296875 -0.0008033435427488578
-9.0234375 -0.0013868975676783468
-9.00390625 -0.00013787344044446925
-8.984375 -0.0018222790513358067
-8.96484375 -0.000982320277865878
-8.9453125 -0.0013792862034333608
-8.92578125 -0.001121242764051178
-8.90625 -0.0016086629796880914
-8.88671875 -0.0021764840015486286
-8.8671875 -0.0011409140809232055
-8.84765625 -0.0018594329991122316
-8.828125 -0.0026403551865864516
-8.80859375 -0.002216205146676309
-8.7890625 -0.0016891802499182096
-8.76953125 -0.0023284325238529524
-8.75 -0.0022072275995647234
-8.73046875 -0.0017239483495689184
-8.7109375 -0.0020570934073625563
-8.69140625 -0.001721517317746224
-8.671875 -0.001431793628909911
-8.65234375 -0.002181143435248667
-8.6328125 -0.0014575174617769276
-8.61328125 -0.0015818483680942047
-8.59375 -0.002128984696124714
-8.57421875 -0.002011577921718133
-8.5546875 -0.0021964733775780843
-8.53515625 -0.0023131484894926
-8.515625 -0.0031086191452293077
-8.49609375 -0.002588373894069962
-8.4765625 -0.0027823139453574675
-8.45703125 -0.0016985555040609779
-8.4375 -0.0018078235608812443
-8.41796875 -0.0010736170561336522
-8.3984375 -0.001279800556275218
-8.37890625 -0.0008218643668134462
-8.359375 -0.0016682565838531116
-8.33984375 -0.0007579837689212221
-8.3203125 -0.000628908179211296
-8.30078125 -0.0005860749888591532
-8.28125 -0.00043390022114642157
-8.26171875 -0.0014024923966272085
-8.2421875 -0.0014258329964096927
-8.22265625 -0.0007459121764388787
-8.203125 -0.0011457378278253438
-8.18359375 -0.0013491656536299135
-8.1640625 -0.0010900917027599766
-8.14453125 -0.001354468920474361
-8.125 -0.0012420232653303845
-8.10546875 -0.0015639721378100137
-8.0859375 -0.0018167982769041677
-8.06640625 -0.0011260946747072773
-8.046875 -0.0015131717033121245
-8.02734375 -0.0014779858706181828
-8.0078125 -0.0022416205876421777
-7.98828125 -0.0025841296448849416
-7.96875 -0.002508076137889087
-7.94921875 -0.0022045247836167126
-7.9296875 -0.0023555432974241147
-7.91015625 -0.0018301180489177157
-7.890625 -0.0009453531971920087
-7.87109375 -0.0018648297806049957
-7.8515625 -0.002018462551543393
-7.83203125 -0.0019522156389947531
-7.8125 -0.001928394472637332
-7.79296875 -0.0025642806309027766
-7.7734375 -0.0028312072800481675
-7.75390625 -0.0027472030093217414
-7.734375 -0.002683927846507811
-7.71484375 -0.002355117560457004
-7.6953125 -0.002216462623412657
-7.67578125 -0.0020943649051004126
-7.65625 -0.0034108038490193032
-7.63671875 -0.0027356555707270525
-7.6171875 -0.0027540633647393786
-7.59765625 -0.002992744269881553
-7.578125 -0.003150197587050485
-7.55859375 -0.0034204494066948365
-7.5390625 -0.0035342716411990716
-7.51953125 -0.0024262301890987936
-7.5 -0.0026536202677936776
-7.48046875 -0.0026358700054079044
-7.4609375 -0.0016744020076928995
-7.44140625 -0.0019463780659895015
-7.421875 -0.001646503123953092
-7.40234375 -0.0014108009025993078
-7.3828125 -0.002160822635510839
-7.36328125 -0.0017275944657045121
-7.34375 -0.001661942832904844
-7.32421875 -0.0012943969248741867
-7.3046875 -0.0011833470338653623
-7.28515625 -0.0011418544266913716
-7.265625 -0.000704955031048027
-7.24609375 -0.0008240070419844467
-7.2265625 -0.0006701790369391312
-7.20703125 -0.0011887725656343183
-7.1875 -0.0018852313267972343
-7.16796875 -0.0017284772058512629
-7.1484375 -0.0015221378268765453
-7.12890625 -0.0008509736670026196
-7.109375 -0.0014762409747554345
-7.08984375 -0.0008191698727003801
-7.0703125 -0.0011597536442512343
-7.05078125 -0.00022556664820395022
-7.03125 -0.0010381389942425417
-7.01171875 -0.0011873445586280272
-6.9921875 -0.0011260272340362872
-6.97265625 -0.0011499627811388884
-6.953125 -0.0002658085585587937
-6.93359375 8.752879464991902e-5
-6.9140625 0.0003134026466092468
-6.89453125 -0.0005628572770408944
-6.875 -0.0008675539615866368
-6.85546875 -0.0009749386881769753
-6.8359375 0.0008020582664328077
-6.81640625 5.805464766528434e-5
-6.796875 0.0012617034321015137
-6.77734375 0.0014517543562376084
-6.7578125 0.0012936505004274984
-6.73828125 0.0019277886416538305
-6.71875 0.0020754898551807732
-6.69921875 0.003503097324658512
-6.6796875 0.0031272411396536977
-6.66015625 0.0038891560371805516
-6.640625 0.004061121978133523
-6.62109375 0.0038307161176255704
-6.6015625 0.005020083368854143
-6.58203125 0.004667798959837995
-6.5625 0.005266680864535356
-6.54296875 0.0060151522150972345
-6.5234375 0.006399851818948428
-6.50390625 0.007185873469941512
-6.484375 0.008425604849896969
-6.46484375 0.008803463930668033
-6.4453125 0.010550155504882936
-6.42578125 0.011353674126685809
-6.40625 0.012629354702272288
-6.38671875 0.012968202728016007
-6.3671875 0.014321219072135368
-6.34765625 0.01513834740028766
-6.328125 0.01624418667668362
-6.30859375 0.017256724481674313
-6.2890625 0.019464531216659562
-6.26953125 0.02091487489803563
-6.25 0.023474926611718516
-6.23046875 0.024764205063072642
-6.2109375 0.027534233781104256
-6.19140625 0.030808232308399353
-6.171875 0.033265595821977245
-6.15234375 0.036590165490226145
-6.1328125 0.03923444268290835
-6.11328125 0.04341533409632356
-6.09375 0.047358202971774954
-6.07421875 0.050900899844859154
-6.0546875 0.05530746823821281
-6.03515625 0.05960190829693415
-6.015625 0.0649622039163602
-5.99609375 0.07095895002062103
-5.9765625 0.07659566649902198
-5.95703125 0.08391102912759292
-5.9375 0.0908097041327141
-5.91796875 0.09884459616394871
-5.8984375 0.10664997415501819
-5.87890625 0.11501611147626
-5.859375 0.12448613852541962
-5.83984375 0.13450233511155193
-5.8203125 0.14550978979697876
-5.80078125 0.15589761100324606
-5.78125 0.1696184204838994
-5.76171875 0.18365867767250882
-5.7421875 0.1983712115866239
-5.72265625 0.2149068912874246
-5.703125 0.23171179434391825
-5.68359375 0.2510271956106265
-5.6640625 0.2711474455951244
-5.64453125 0.2922581152242577
-5.625 0.31590833260758133
-5.60546875 0.34030749373234315
-5.5859375 0.3684682364937162
-5.56640625 0.39726415208949595
-5.546875 0.42985043102629583
-5.52734375 0.46210390603829943
-5.5078125 0.4995467973812888
-5.48828125 0.538178872842553
-5.46875 0.5818094714012461
-5.44921875 0.6264934499013597
-5.4296875 0.6749190903060047
-5.41015625 0.7285822045830259
-5.390625 0.7839660669660038
-5.37109375 0.8446129842756407
-5.3515625 0.9094846925273461
-5.33203125 0.97901192506294
-5.3125 1.0527695212522399
-5.29296875 1.1331109034996374
-5.2734375 1.2165897628760838
-5.25390625 1.3079991026425577
-5.234375 1.4039915579975402
-5.21484375 1.5076717663713066
-5.1953125 1.617564763627873
-5.17578125 1.7344883398772217
-5.15625 1.8581492017516954
-5.13671875 1.9890172659745549
-5.1171875 2.1274457144187666
-5.09765625 2.2740959807009653
-5.078125 2.4287743382803493
-5.05859375 2.5924396432028245
-5.0390625 2.7633720858888733
-5.01953125 2.9417972206941942
-5.0 3.128518374231371
-4.98046875 3.323757497941081
-4.9609375 3.5258615998892595
-4.94140625 3.7371454186345456
-4.921875 3.953954360392702
-4.90234375 4.177099360438298
-4.8828125 4.4060329645241705
-4.86328125 4.638920794905532
-4.84375 4.87633886570337
-4.82421875 5.116098528863289
-4.8046875 5.357265484505367
-4.78515625 5.598890406898974
-4.765625 5.837234021438205
-4.74609375 6.073460638402212
-4.7265625 6.304516916329387
-4.70703125 6.528189766376978
-4.6875 6.744140578353118
-4.66796875 6.948207269945529
-4.6484375 7.1402488810373885
-4.62890625 7.3168842543393495
-4.609375 7.476935575206507
-4.58984375 7.6186340820796
-4.5703125 7.740733123380449
-4.55078125 7.841324431402608
-4.53125 7.920271570744873
-4.51171875 7.974645175943279
-4.4921875 8.006062976102411
-4.47265625 8.01215232744193
-4.453125 7.995061051342439
-4.43359375 7.953155999454569
-4.4140625 7.887734799246953
-4.39453125 7.799052623935283
-4.375 7.689097931308113
-4.35546875 7.558395259212579
-4.3359375 7.408280194162896
-4.31640625 7.241087734991686
-4.296875 7.057997743434086
-4.27734375 6.860722117671094
-4.2578125 6.652328429425954
-4.23828125 6.432710567267206
-4.21875 6.205534048611377
-4.19921875 5.971950745574558
-4.1796875 5.73533461036694
-4.16015625 5.495188732561537
-4.140625 5.25442915114566
-4.12109375 5.01393680164033
-4.1015625 4.775809725226631
-4.08203125 4.539234897633358
-4.0625 4.308093728071258
-4.04296875 4.082301644689393
-4.0234375 3.8627331519962835
-4.00390625 3.6492437735453596
-3.984375 3.441707871383883
-3.96484375 3.2427284337714175
-3.9453125 3.050964246815415
-3.92578125 2.868137249904312
-3.90625 2.6923676184862435
-3.88671875 2.5263181236881915
-3.8671875 2.3674962124918917
-3.84765625 2.2160740384107562
-3.828125 2.0731569128805694
-3.80859375 1.9375628225414712
-3.7890625 1.8107936026989782
-3.76953125 1.6896601318898756
-3.75 1.577743651045552
-3.73046875 1.4704184846061694
-3.7109375 1.3710609435557837
-3.69140625 1.2777074162142341
-3.671875 1.1892552361306963
-3.65234375 1.1077977517154611
-3.6328125 1.0301923987280641
-3.61328125 0.9582702760802992
-3.59375 0.8904694677341988
-3.57421875 0.8289897331677121
-3.5546875 0.7691909941969899
-3.53515625 0.7161329952192946
-3.515625 0.66440692162713
-3.49609375 0.6178349642287914
-3.4765625 0.574206512909135
-3.45703125 0.5336552386060803
-3.4375 0.49627564334785607
-3.41796875 0.46131998448325406
-3.3984375 0.42911657342225473
-3.37890625 0.39906838739171435
-3.359375 0.3722511236529875
-3.33984375 0.3455345556323908
-3.3203125 0.3216344803137636
-3.30078125 0.29960876072640175
-3.28125 0.27898023952065004
-3.26171875 0.2601381446363681
-3.2421875 0.24248126396844047
-3.22265625 0.22678956421927848
-3.203125 0.21170124881601737
-3.18359375 0.19756999039302203
-3.1640625 0.18412279612234403
-3.14453125 0.17247696574309823
-3.125 0.1616231631821174
-3.10546875 0.1518156680494362
-3.0859375 0.14196492786761628
-3.06640625 0.1341242192604317
-3.046875 0.1267891966584726
-3.02734375 0.11998452306739621
-3.0078125 0.11391644563388757
-2.98828125 0.10773900250706595
-2.96875 0.1026699452794245
-2.94921875 0.09750720988150482
-2.9296875 0.09340809906155917
-2.91015625 0.08912955503854232
-2.890625 0.08614802584224426
-2.87109375 0.08311636600454429
-2.8515625 0.07997448230359372
-2.83203125 0.07890655272771951
-2.8125 0.07682519145401266
-2.79296875 0.07533001641896273
-2.7734375 0.07305715596091802
-2.75390625 0.07280057254948727
-2.734375 0.07214553750166292
-2.71484375 0.07171518030025012
-2.6953125 0.07105254436029457
-2.67578125 0.07073769442396144
-2.65625 0.07186597978173295
-2.63671875 0.07068553519110489
-2.6171875 0.0732841459892376
-2.59765625 0.0731439786756049
-2.578125 0.07481604763587699
-2.55859375 0.07600527657034716
-2.5390625 0.07742184270286614
-2.51953125 0.0782368021001347
-2.5 0.07989207045715427
-2.48046875 0.0813326874694866
-2.4609375 0.08335181195922217
-2.44140625 0.08590198773149631
-2.421875 0.08719461683636641
-2.40234375 0.08973756320020433
-2.3828125 0.09261254862811177
-2.36328125 0.09510187744376723
-2.34375 0.09747029644190261
-2.32421875 0.10101288300457788
-2.3046875 0.10348980332738864
-2.28515625 0.10709724854200345
-2.265625 0.11121919251571097
-2.24609375 0.11558852649781248
-2.2265625 0.11873553384566124
-2.20703125 0.12322077240708346
-2.1875 0.12776790508870273
-2.16796875 0.13230659581426352
-2.1484375 0.1373505041765178
-2.12890625 0.14234497523367012
-2.109375 0.14804218912723224
-2.08984375 0.15296087862089303
-2.0703125 0.158268933096958
-2.05078125 0.1640726341347707
-2.03125 0.1696039293172597
-2.01171875 0.17617377643128893
-1.9921875 0.1818585988584445
-1.97265625 0.18844986240087297
-1.953125 0.196330021065797
-1.93359375 0.20264021395038578
-1.9140625 0.21096223745312753
-1.89453125 0.21856506670454423
-1.875 0.22694261553395514
-1.85546875 0.23475905584519535
-1.8359375 0.24364961529666374
-1.81640625 0.25257819402610227
-1.796875 0.26223121333913635
-1.77734375 0.27132447064812737
-1.7578125 0.2816270746253129
-1.73828125 0.29136816087629636
-1.71875 0.30325321728963894
-1.69921875 0.3136277720031636
-1.6796875 0.32464105716589076
-1.66015625 0.3365137198113213
-1.640625 0.3485186046739792
-1.62109375 0.3606439296796292
-1.6015625 0.37347902418856904
-1.58203125 0.38638026165630046
-1.5625 0.40071754132525683
-1.54296875 0.4151775993008545
-1.5234375 0.42960600136852356
-1.50390625 0.4448075636020218
-1.484375 0.4599116112407782
-1.46484375 0.4751033693070591
-1.4453125 0.49215504401715016
-1.42578125 0.5091456235764154
-1.40625 0.5271502825878503
-1.38671875 0.5451535549262958
-1.3671875 0.5637314853210852
-1.34765625 0.5825620960568096
-1.328125 0.6022154228418743
-1.30859375 0.6225344746939634
-1.2890625 0.6416429856505186
-1.26953125 0.6630426757346108
-1.25 0.6837407442977719
-1.23046875 0.7062095595775757
-1.2109375 0.7288906075906196
-1.19140625 0.7518266303387175
-1.171875 0.775028360412846
-1.15234375 0.7987010048241912
-1.1328125 0.8227933748864107
-1.11328125 0.8480097181239394
-1.09375 0.8736861017573033
-1.07421875 0.8989667713979853
-1.0546875 0.9251427261133945
-1.03515625 0.9520972482225558
-1.015625 0.9793928730160765
-0.99609375 1.0072594442628424
-0.9765625 1.0349231535190095
-0.95703125 1.0633331081931194
-0.9375 1.0926372505397413
-0.91796875 1.1206041465965937
-0.8984375 1.1503704487668631
-0.87890625 1.1791454478938865
-0.859375 1.2090648530489778
-0.83984375 1.2386258060226882
-0.8203125 1.2690719658587024
-0.80078125 1.2992204672107046
-0.78125 1.3294040170773225
-0.76171875 1.3599615540986565
-0.7421875 1.3900199033436653
-0.72265625 1.4203319985757326
-0.703125 1.450486516826349
-0.68359375 1.4797159630998964
-0.6640625 1.5088976017731714
-0.64453125 1.5385547494440939
-0.625 1.5668896237189331
-0.60546875 1.5954196130907716
-0.5859375 1.6224131171889613
-0.56640625 1.6499782299151713
-0.546875 1.6764389419076529
-0.52734375 1.7025694692285778
-0.5078125 1.727588755010367
-0.48828125 1.7522967697383265
-0.46875 1.7756988125085273
-0.44921875 1.7986425644497075
-0.4296875 1.820302973554932
-0.41015625 1.8413636794319106
-0.390625 1.8602865292800497
-0.37109375 1.8801300715713645
-0.3515625 1.896828532346828
-0.33203125 1.9128054619636132
-0.3125 1.927663053750067
-0.29296875 1.9406840125187281
-0.2734375 1.953373279055524
-0.25390625 1.963491886634356
-0.234375 1.9729110913348005
-0.21484375 1.9814607319819149
-0.1953125 1.9876969424767101
-0.17578125 1.993311286285501
-0.15625 1.9962153509059761
-0.13671875 1.9997000227100397
-0.1171875 1.9991755600456482
-0.09765625 1.9982049188917876
-0.078125 1.995686603254494
-0.05859375 1.9919484127555271
-0.0390625 1.9861641499793783
-0.01953125 1.9796278454421068
0.0 1.9711059079213473
0.01953125 1.9615712289132092
0.0390625 1.9500049478185384
0.05859375 1.938268727988009
0.078125 1.9228323679158734
0.09765625 1.9071995089359022
0.1171875 1.8909543797978436
0.13671875 1.8733122698011657
0.15625 1.854559139621061
0.17578125 1.835003134633518
0.1953125 1.8137851577099282
0.21484375 1.7921754345153007
0.234375 1.769516807282398
0.25390625 1.7448945672666902
0.2734375 1.7206226105451135
0.29296875 1.6938551241577264
0.3125 1.6677468262174244
0.33203125 1.6407447427118806
0.3515625 1.6141890002512853
0.37109375 1.585788384113779
0.390625 1.556981958936214
0.41015625 1.5278753655244584
0.4296875 1.4993125076412912
0.44921875 1.4699547968964741
0.46875 1.4408407740215796
0.48828125 1.4111301667513376
0.5078125 1.380882527314652
0.52734375 1.350912916170086
0.546875 1.3212721330880783
0.56640625 1.2904505991450912
0.5859375 1.260376913469725
0.60546875 1.230921435223559
0.625 1.2010150750732622
0.64453125 1.1714957346938353
0.6640625 1.1421133911392773
0.68359375 1.1130446138648695
0.703125 1.08451518607743
0.72265625 1.0557215355762835
0.7421875 1.0268749310159269
0.76171875 0.999180066452076
0.78125 0.9718697962158771
0.80078125 0.9453438968867616
0.8203125 0.9186830958599681
0.83984375 0.8920292474113642
0.859375 0.866759682064816
0.87890625 0.8412330002530635
0.8984375 0.817010246432617
0.91796875 0.7929366067878506
0.9375 0.769484878426742
0.95703125 0.746477795789245
0.9765625 0.7232963169855116
0.99609375 0.7011026929345544
1.015625 0.6790561341681496
1.03515625 0.657903640433358
1.0546875 0.6370817555302142
1.07421875 0.6167529371034477
1.09375 0.5972654968237899
1.11328125 0.5776892550205293
1.1328125 0.5588067077044575
1.15234375 0.5409486164917625
1.171875 0.5222813620930942
1.19140625 0.5055010066156786
1.2109375 0.487320629134127
1.23046875 0.4711475567166522
1.25 0.4556848795996997
1.26953125 0.439480764603888
1.2890625 0.4247855345497975
1.30859375 0.4098472389060912
1.328125 0.39554808626989313
1.34765625 0.38271254740026145
1.3671875 0.3684426557032939
1.38671875 0.3562309510946758
1.40625 0.343427199042022
1.42578125 0.33148585926574736
1.4453125 0.3194959577604989
1.46484375 0.3085940736331867
1.484375 0.29762162790278757
1.50390625 0.28719300226589317
1.5234375 0.27706799459658515
1.54296875 0.2676397517723811
1.5625 0.2582660161969329
1.58203125 0.24871119200279257
1.6015625 0.23959866778782746
1.62109375 0.2320059704561387
1.640625 0.2231530471874179
1.66015625 0.21510523815999805
1.6796875 0.20696056535560792
1.69921875 0.19974037344611628
1.71875 0.19130190516071188
1.73828125 0.18422015979901973
1.7578125 0.17805390525109432
1.77734375 0.1704255936750949
1.796875 0.16501846415620447
1.81640625 0.15836514184219697
1.8359375 0.15298113015609405
1.85546875 0.1469690305409852
1.875 0.1420493406592275
1.89453125 0.13647781458810343
1.9140625 0.13228104771258564
1.93359375 0.1269281845199494
1.953125 0.12242296670866093
1.97265625 0.11826745330473212
1.9921875 0.11462068188556893
2.01171875 0.10938041734839786
2.03125 0.10550087824401311
2.05078125 0.10143601241946468
2.0703125 0.09801413572678462
2.08984375 0.09396932234987143
2.109375 0.09123021284076738
2.12890625 0.08761093131800535
2.1484375 0.08478466277835184
2.16796875 0.0820790803823114
2.1875 0.07821823666029046
2.20703125 0.07639634571734247
2.2265625 0.07319937152766332
2.24609375 0.07065764416887119
2.265625 0.06712025533068447
2.28515625 0.06508714250766254
2.3046875 0.06270089650242461
2.32421875 0.0601386369061252
2.34375 0.057700416317678305
2.36328125 0.05577980294542284
2.3828125 0.05396229017820209
2.40234375 0.051961260104282314
2.421875 0.04975733818042993
2.44140625 0.048028605842159344
2.4609375 0.04611527919543312
2.48046875 0.04391916183941286
2.5 0.042961202123696446
2.51953125 0.04061141028943688
2.5390625 0.03858605168576399
2.55859375 0.03750777065327883
2.578125 0.03624647447432061
2.59765625 0.03428850266921006
2.6171875 0.03362404836338076
2.63671875 0.03186913815644339
2.65625 0.03097903267424782
2.67578125 0.029706260803434595
2.6953125 0.028088510130438733
2.71484375 0.026841063749795176
2.734375 0.026394225737625794
2.75390625 0.025135093343566596
2.7734375 0.02462125239257306
2.79296875 0.023933778604243165
2.8125 0.02266420298939327
2.83203125 0.022131861223411778
2.8515625 0.02130334994901051
2.87109375 0.02063855961183421
2.890625 0.019226739835997625
2.91015625 0.018567895570166318
2.9296875 0.018281695199535597
2.94921875 0.01743252629229211
2.96875 0.01700814800838739
2.98828125 0.016347362173766533
3.0078125 0.015506781066310177
3.02734375 0.014299688973876193
3.046875 0.01462907753367862
3.06640625 0.014219863576407851
3.0859375 0.013962890868064112
3.10546875 0.013694478713019764
3.125 0.012458351689271202
3.14453125 0.011964078808663611
3.1640625 0.010821254836472546
3.18359375 0.010077983296931346
3.203125 0.009661496479431389
3.22265625 0.009071765796802751
3.2421875 0.008714424612841054
3.26171875 0.00818466341911999
3.28125 0.0077805178569806885
3.30078125 0.008347403214594082
3.3203125 0.007513246972045813
3.33984375 0.007459498059978323
3.359375 0.006601417335454329
3.37890625 0.006431606239331908
3.3984375 0.006210219181543325
3.41796875 0.006064234152373067
3.4375 0.004962965099978359
3.45703125 0.00469892436385707
3.4765625 0.0038727445633588153
3.49609375 0.004150474705610127
3.515625 0.0038637649517570746
3.53515625 0.003250341952636439
3.5546875 0.0032917934390325754
3.57421875 0.003540719602863493
3.59375 0.0034245228614091724
3.61328125 0.002859334997648899
3.6328125 0.003243797452495749
3.65234375 0.003794523448144335
3.671875 0.0038747990876687455
3.69140625 0.003750391585322671
3.7109375 0.0035046128933333073
3.73046875 0.002930974582110689
3.75 0.0030293402124116353
3.76953125 0.002852753973370148
3.7890625 0.0030587610829077017
3.80859375 0.0034498962100817376
3.828125 0.0034519499405785137
3.84765625 0.003546797789455991
3.8671875 0.0028306399930675408
3.88671875 0.002698778053807749
3.90625 0.002580068407980529
3.92578125 0.002003479099007721
3.9453125 0.001849024026441215
3.96484375 0.0008293553184660629
3.984375 0.0018985486792164608
4.00390625 0.0027256064359028054
4.0234375 0.0023671868698561527
4.04296875 0.0023061980344276645
4.0625 0.0028509208653313967
4.08203125 0.002731368363687703
4.1015625 0.0028674733942615493
4.12109375 0.003710218771253798
4.140625 0.0033316844655951194
4.16015625 0.0030838722546135955
4.1796875 0.00282466807819981
4.19921875 0.0030841307212319258
4.21875 0.003028431604078563
4.23828125 0.001642552848926726
4.2578125 0.0018932891193565726
4.27734375 0.0015084560725834029
4.296875 0.0011100900550178316
4.31640625 0.0021959178598052326
4.3359375 0.0008234818883351147
4.35546875 0.0019632206952160947
4.375 0.0019288018843797161
4.39453125 0.0018623750869752875
4.4140625 0.0014813038634935438
4.43359375 0.0019405512875807496
4.453125 0.0017960226815456615
4.47265625 0.0016725598597062685
4.4921875 0.0015090750517350315
4.51171875 0.0011827220713969133
4.53125 0.0022444698768913085
4.55078125 0.0015139193894113667
4.5703125 0.0009713201122201198
4.58984375 0.0006021881647235716
4.609375 0.0014289275835674964
4.62890625 0.0012816671338584662
4.6484375 0.0016903435147166412
4.66796875 0.0012862457981470676
4.6875 0.0020986541923995183
4.70703125 0.001318136419888205
4.7265625 0.0012138790746678563
4.74609375 0.0007203870759393549
4.765625 0.0011930000219160242
4.78515625 0.00036790582627688195
4.8046875 0.0005641943914966863
4.82421875 0.0002380206996881462
4.84375 0.0007106455482437379
4.86328125 0.0005799496944538518
4.8828125 0.0015857749707592905
4.90234375 0.0006556575765253037
4.921875 0.0007282544127629187
4.94140625 0.0018063685839626586
4.9609375 0.0004995942396847086
4.98046875 0.0013877013112626457
5.0 0.0005262973141055838
5.01953125 -0.00017496640844250066
5.0390625 0.0005161640312150162
5.05859375 -0.0002674345745445894
5.078125 0.00018597803724063056
5.09765625 -0.00020264841122985544
5.1171875 0.00016837026391591792
5.13671875 0.000171165767325121
5.15625 0.00029555736010866696
5.17578125 -0.0008696507946810428
5.1953125 -0.0005926525001225258
5.21484375 -0.00045132662020508363
5.234375 -0.0005814079271253547
5.25390625 -0.0007852745678911255
5.2734375 -0.0005649891431009912
5.29296875 -0.001161675152451913
5.3125 0.00020313688883311087
5.33203125 -0.00025790891345867095
5.3515625 9.948718605157225e-5
5.37109375 -0.00012832073133095534
5.390625 -0.00020141250959104795
5.41015625 -0.00014453590756646761
5.4296875 -0.0010484111332873525
5.44921875 -0.0011236331028907642
5.46875 -0.0011726723885594481
5.48828125 -0.000978147821908415
5.5078125 -0.0008320138431034962
5.52734375 -0.000543945212237773
5.546875 -0.0012833947022770076
5.56640625 -0.0012792031640076473
5.5859375 -0.0017692577629322415
5.60546875 -0.001178610426543436
5.625 -0.0017312729456255838
5.64453125 -0.0017270656237196036
5.6640625 -0.0023910765605594797
5.68359375 -0.001286496517961755
5.703125 -0.0017743804660075302
5.72265625 -0.00135394269573208
5.7421875 -0.002182390474418261
5.76171875 -0.0022223049081182555
5.78125 -0.0019474266871266632
5.80078125 -0.002194714307019119
5.8203125 -0.001981962099446788
5.83984375 -0.0014659635418867722
5.859375 -0.0025150998889351683
5.87890625 -0.0012686364693608176
5.8984375 -0.0019027665184689901
5.91796875 -0.0009051397444858056
5.9375 -0.00042173136142920065
5.95703125 0.00010447601360863423
5.9765625 9.844380016654775e-5
5.99609375 0.0005052518227034453
6.015625 0.00023597592741353424
6.03515625 0.00027790732860155654
6.0546875 0.00040598675593472855
6.07421875 0.0010627445836884908
6.09375 0.0015288552545996703
6.11328125 0.0010021605326158145
6.1328125 0.0012484271868375973
6.15234375 0.000768166517191915
6.171875 0.0007632978526657119
6.19140625 0.0006340604572492303
6.2109375 0.0007156329875863676
6.23046875 0.0004236770704113546
6.25 1.4470524187404354e-5
6.26953125 0.0006670506017257827
6.2890625 0.0014863484801792004
6.30859375 -0.00013275164004555862
6.328125 0.00039925987577354993
6.34765625 8.541415002999431e-5
6.3671875 -0.00045338238768752315
6.38671875 -0.00038310298619717575
6.40625 0.0001297308019232446
6.42578125 0.0006079807030772433
6.4453125 0.00015356116124515262
6.46484375 0.0003373368980841007
6.484375 0.0008713738880377631
6.50390625 0.0010800252109690045
6.5234375 0.0008964127412019601
6.54296875 0.0008255228516202279
6.5625 0.00026489181457996225
6.58203125 0.0012330305318492968
6.6015625 0.00048144396494682884
6.62109375 0.0008363934749856111
6.640625 0.001211701149458122
6.66015625 0.0008414399417148444
6.6796875 0.0008671488112801523
6.69921875 0.0011975318695273962
6.71875 0.0016614428790308194
6.73828125 0.0004439377778070325
6.7578125 0.0008450042892242382
6.77734375 0.0013217478712820863
6.796875 0.0006435354780930935
6.81640625 0.0014571448000103987
6.8359375 0.0007799317963479435
6.85546875 0.0009808632486038582
6.875 0.0013348894936462963
6.89453125 0.001560596335132232
6.9140625 0.0011694939422671677
6.93359375 0.0018616080057873435
6.953125 0.0014957684229247974
6.97265625 0.0015547599974282955
6.9921875 0.001354618651104339
7.01171875 0.0016066087629812327
7.03125 0.00142824901136418
7.05078125 0.0020049957851869873
7.0703125 0.0020111724006589803
7.08984375 0.002376922561439527
7.109375 0.0018163158397546987
7.12890625 0.0018537081792326764
7.1484375 0.001334285526063364
7.16796875 0.0020274440073212233
7.1875 0.0014832519744740202
7.20703125 0.0012913305949942486
7.2265625 0.0014303457870700614
7.24609375 0.0005489156621416441
7.265625 0.001000794508530932
7.28515625 0.00040033713695320633
7.3046875 0.0009724346420889769
7.32421875 2.61057501044909e-5
7.34375 0.0008366345776386584
7.36328125 0.0007461312343897131
7.3828125 0.00038440766465291064
7.40234375 0.0012274892179159197
7.421875 0.0005057722475183546
7.44140625 0.0008467059028659379
7.4609375 0.0004912052923956682
7.48046875 0.0007518408534510322
7.5 0.0006818621212259261
7.51953125 0.0004129959059191394
7.5390625 0.0005255308790399863
7.55859375 0.0004741772015246906
7.578125 -0.0009813703747201155
7.59765625 -0.0003091882396784214
7.6171875 -0.0005788878600967121
7.63671875 3.586872929166351e-5
7.65625 -0.0006634368411169127
7.67578125 -4.568527138511117e-5
7.6953125 -0.0004024043209208854
7.71484375 -0.0009013490595687965
7.734375 -0.0009489392181857916
7.75390625 -0.0005574610267418668
7.7734375 -0.0006423017253596842
7.79296875 -0.00045298247306664824
7.8125 -0.000932291299789352
7.83203125 -0.001427026052080702
7.8515625 -0.0011155952718834572
7.87109375 -0.0014020072135948651
7.890625 -0.001318590457937678
7.91015625 -0.00153960808025972
7.9296875 -0.0011271344905452682
7.94921875 -0.0014955302924625565
7.96875 -0.0012897775199862457
7.98828125 -0.0014728752917653948
8.0078125 -0.0013569125729541542
8.02734375 -0.001222215932737873
8.046875 -0.0009321427903012529
8.06640625 -0.0014046758352397972
8.0859375 -0.0005985731772590902
8.10546875 -0.0004389043020558166
8.125 -0.0006748122565960121
8.14453125 -0.0007136756702167089
8.1640625 -0.0011306036731819416
8.18359375 -0.0015642767310997188
8.203125 -0.0015170651731185453
8.22265625 -0.0018069412018232242
8.2421875 -0.0012418719418412286
8.26171875 -0.0017736782640236648
8.28125 -0.0013847065963596694
8.30078125 -0.0011899430292612312
8.3203125 -0.0009067270967377111
8.33984375 -0.000988566631314615
8.359375 -0.0003575039329969526
8.37890625 -0.0006705255918785097
8.3984375 -0.0014446765487163837
8.41796875 -0.0004510178956318167
8.4375 -0.0008476106400367028
8.45703125 -0.0010350081017296564
8.4765625 -0.0013694558913484173
8.49609375 -0.000849525115071581
8.515625 -0.001044797741061726
8.53515625 -0.0013092342343497265
8.5546875 -0.0017175398223739646
8.57421875 -0.001918600740209206
8.59375 -0.0016525988904311922
8.61328125 -0.001233282452358958
8.6328125 -0.0009319656652568842
8.65234375 -0.0015968313370418596
8.671875 -0.0014039338551427583
8.69140625 -0.0014082534237177535
8.7109375 -0.001977173912269148
8.73046875 -0.0016705378656230174
8.75 -0.0012096689231863994
8.76953125 -0.001186122987716684
8.7890625 -0.0010467597161602366
8.80859375 -0.0015307980498400764
8.828125 -0.001119130467280821
8.84765625 -0.0016530287318748949
8.8671875 -0.0016945222213138184
8.88671875 -0.002598437959620184
8.90625 -0.0026115815024500555
8.92578125 -0.0027219609556140556
8.9453125 -0.002199082307815098
8.96484375 -0.0016218677446540042
8.984375 -0.002154594080373884
9.00390625 -0.00130295936412117
9.0234375 -0.002058187173360454
9.04296875 -0.0016630971559772056
9.0625 -0.0018999042928462828
9.08203125 -0.0014217118877620505
9.1015625 -0.0023796534783830647
9.12109375 -0.001768619913592978
9.140625 -0.0012513091084343508
9.16015625 -0.0006642146138151617
9.1796875 -0.0001684463270730796
9.19921875 -0.0010539943203077828
9.21875 -0.0002862613340058884
9.23828125 -0.00029538010806112736
9.2578125 6.971853761178481e-5
9.27734375 0.0006120691772283915
9.296875 -2.5114256326785878e-5
9.31640625 2.46595405504757e-5
9.3359375 0.0007660056835187001
9.35546875 0.0001261519366277386
9.375 0.00026834122810545646
9.39453125 -2.0453640976969556e-5
9.4140625 5.891660017273703e-5
9.43359375 -2.3642164387105424e-5
9.453125 0.0002755233429371784
9.47265625 0.000641260326663784
9.4921875 0.0003965942231366204
9.51171875 5.249217925490379e-5
9.53125 -0.0005058839418420891
9.55078125 -0.0005360097237662731
9.5703125 -0.0010802020779167032
9.58984375 -0.0006260221898040652
9.609375 -0.0003825355773102168
9.62890625 -0.0002768191286480759
9.6484375 -0.0012612243446016858
9.66796875 -0.0010748607534063481
9.6875 -0.0012626991835271717
9.70703125 -0.00039969051318883286
9.7265625 -0.0009695056699920435
9.74609375 -0.0007382005857212715
9.765625 -0.0006327966804111629
9.78515625 -0.000884037596859677
9.8046875 -0.0014549353989974922
9.82421875 -0.0008832961323042565
9.84375 -0.0004080716919603322
9.86328125 -0.0013403805692319692
9.8828125 -0.00035326169055782675
9.90234375 -0.000138341725245128
9.921875 -0.0013638775869672104
9.94140625 -0.0006649644815652778
9.9609375 -0.0011972627391134139
9.98046875 -0.0005720919215660425
