# x u
-10.0 0.0032917489899509933
-9.98046875 -0.004160743951390433
-9.9609375 0.001959128878847194
-9.94140625 -0.00380002092288112
-9.921875 0.0009914061695681653
-9.90234375 -0.002785535813321527
-9.8828125 0.00038897777996449445
-9.86328125 -0.0028419912989684493
-9.84375 -0.0023412234660200593
-9.82421875 0.00019424160362291332
-9.8046875 -0.0038320161844833667
-9.78515625 0.0014848313177120431
-9.765625 -0.004102034971673163
-9.74609375 0.0001238589933785228
-9.7265625 -0.002674839354029679
-9.70703125 -0.00029486236172004965
-9.6875 -0.002740830599024191
-9.66796875 0.00045158907474096566
-9.6484375 -0.001962959255371821
-9.62890625 -0.0010348651682732246
-9.609375 -0.0007520808478012064
-9.58984375 -0.002090385760440183
-9.5703125 -0.0001852505347623712
-9.55078125 -0.0018065428515816606
-9.53125 -0.0009218180564936063
-9.51171875 -0.002332504247320122
-9.4921875 0.0007666188379711336
-9.47265625 -0.0018893461156617164
-9.453125 -0.0016127230784065416
-9.43359375 0.0004341649712544804
-9.4140625 -0.00035028101927903066
-9.39453125 -0.0001910403023107632
-9.375 0.000446297028947662
-9.35546875 -0.0003353430914924682
-9.3359375 -0.0005879663311912919
-9.31640625 -0.00045148057156443877
-9.296875 0.00016207718817012884
-9.27734375 -0.0008885133265519041
-9.2578125 -0.0009916315278916121
-9.23828125 0.0017476452315374758
-9.21875 -0.0003676937448343076
-9.19921875 0.0010309339659171912
-9.1796875 -0.001305049396118918
-9.16015625 0.0014755991392316758
-9.140625 -0.0006216630149731978
-9.12109375 -0.00013411560246243126
-9.1015625 0.0001718294156480421
-9.08203125 -8.260709609435313e-5
-9.0625 -0.0005584469599101971
-9.04296875 -0.00016075201066968747
-9.0234375 -0.0007203319608411682
-9.00390625 -0.00022199183884797496
-8.984375 -0.003358916311056878
-8.96484375 8.403121228383464e-5
-8.9453125 -0.0029597072559006676
-8.92578125 -0.0009548488923569846
-8.90625 -0.0031479298622442003
-8.88671875 -0.0012298275988752144
-8.8671875 -0.0023908502934271783
-8.84765625 -0.0018795373344558412
-8.828125 -0.0024679429961267066
-8.80859375 -0.0021502177895575216
-8.7890625 -0.0009118016686612037
-8.76953125 -0.002668183402371168
-8.75 -0.0030249325069879873
-8.73046875 -0.0008282828102024187
-8.7109375 -0.004667448177025746
-8.69140625 -0.0014392281165489518
-8.671875 -0.004827321442993859
-8.65234375 -0.0019453531551407166
-8.6328125 -0.0038288735900814386
-8.61328125 -0.0029078953606032076
-8.59375 -0.002570707446196363
-8.57421875 -0.0024595120292338346
-8.5546875 -0.0012765323490692704
-8.53515625 -0.0027124770575972512
-8.515625 -0.002025563898195193
-8.49609375 -0.0029389888853392776
-8.4765625 -0.0015644291334060423
-8.45703125 -0.0031433466113041098
-8.4375 -0.0019152565579472203
-8.41796875 -0.0023131723743807786
-8.3984375 -0.0023776435412936614
-8.37890625 -0.002711442430969546
-8.359375 -0.002726830198339525
-8.33984375 -0.0007857238926983756
-8.3203125 -0.002716227857829323
-8.30078125 -0.002787102511280226
-8.28125 -0.0011203357405238368
-8.26171875 -0.0037388258513434414
-8.2421875 -0.000802108785594946
-8.22265625 -0.004526205273331252
-8.203125 -0.0019422623697973318
-8.18359375 -0.004675832462109009
-8.1640625 -0.0015451150767191724
-8.14453125 -0.004431180029822457
-8.125 -0.0019206223362124852
-8.10546875 -0.002507248396392159
-8.0859375 -0.0035862247655376045
-8.06640625 -0.001996907034990114
-8.046875 -0.003274920450731411
-8.02734375 -0.0009533184856251875
-8.0078125 -0.0030464832948273735
-7.98828125 -0.0005626342645135285
-7.96875 -0.002516518364498843
-7.94921875 -0.0007181442196277921
-7.9296875 -0.0009678607765277736
-7.91015625 0.0003879618013071795
-7.890625 -0.0014789848887037937
-7.87109375 -0.0008775340071656146
-7.8515625 -0.000591930590308154
-7.83203125 -0.0010968530839017276
-7.8125 -0.0007711388744522374
-7.79296875 -0.00043533101189852097
-7.7734375 -0.0005313271286186971
-7.75390625 -0.0019620158207886984
-7.734375 0.0003846369936719718
-7.71484375 -0.0037250673557345237
-7.6953125 0.0020731263232427466
-7.67578125 -0.0038732472024671782
-7.65625 0.0008546202214005927
-7.63671875 -0.005389418211289243
-7.6171875 0.00018093490160198122
-7.59765625 -0.003799321476202211
-7.578125 -0.0014894625826924468
-7.55859375 -0.0025327509303973983
-7.5390625 -0.0011502952899673513
-7.51953125 -0.002885350454854052
-7.5 0.0007947904673116402
-7.48046875 -0.0029658172430255423
-7.4609375 -0.0021344393292548978
-7.44140625 -0.0009266377746485961
-7.421875 -0.0040768449987881004
-7.40234375 -0.0007376163537422753
-7.3828125 -0.0029198775854872207
-7.36328125 -0.0022175629384702856
-7.34375 -0.003042861659633403
-7.32421875 -0.0007131865712431325
-7.3046875 -0.004545331904721692
-7.28515625 -0.0001690910315609783
-7.265625 -0.0035890612069569673
-7.24609375 -0.00038968813011570815
-7.2265625 -0.0027379208974411887
-7.20703125 -0.0007075086440096582
-7.1875 -0.0018445374914569487
-7.16796875 -0.0013483781663400777
-7.1484375 -0.0021150446431969804
-7.12890625 -0.0005670576241315134
-7.109375 -0.0025833656235103248
-7.08984375 -0.0013127018666546026
-7.0703125 -0.002413993163270227
-7.05078125 0.0012025084207154223
-7.03125 -0.0033114670414288506
-7.01171875 0.0011339755177538053
-6.9921875 -0.0038549072397402726
-6.97265625 -9.170834694881952e-5
-6.953125 -0.002199199151480876
-6.93359375 -0.0008456982352340428
-6.9140625 -0.0021082915416501427
-6.89453125 -0.0008913686125414973
-6.875 -0.004373153542161334
-6.85546875 -0.0002497759089306051
-6.8359375 -0.004413778939080515
-6.81640625 -0.0034226923200639525
-6.796875 -0.002898629799962388
-6.77734375 -0.003280910556867217
-6.7578125 -0.0008923492009443035
-6.73828125 -0.00597041254937386
-6.71875 -0.0005182100856680472
-6.69921875 -0.005493870871329187
-6.6796875 -0.0016245496797814007
-6.66015625 -0.0042925849270775834
-6.640625 -0.0027538657260952615
-6.62109375 -0.0012404319070065395
-6.6015625 -0.004917192950094684
-6.58203125 -0.0016754927257872643
-6.5625 -0.002689193985428634
-6.54296875 -0.002584805057423034
-6.5234375 -0.002756996894619293
-6.50390625 -0.003210704297896813
-6.484375 -0.0023536957892012628
-6.46484375 -0.004767862462926507
-6.4453125 -0.001332198146917478
-6.42578125 -0.004928695939614841
-6.40625 -0.0005507877098974712
-6.38671875 -0.004517113001824669
-6.3671875 -0.0015108586657429507
-6.34765625 -0.00342629308560511
-6.328125 -0.0019648401887501082
-6.30859375 -0.00451184184762185
-6.2890625 -0.0017267116794847555
-6.26953125 -0.003321082657722234
-6.25 -0.001891898743350752
-6.23046875 -0.0034716668272030994
-6.2109375 -0.0017660150659312979
-6.19140625 -0.0021651235363902774
-6.171875 -0.003265598389140551
-6.15234375 -0.00233379473895123
-6.1328125 -0.0018758026364559185
-6.11328125 -0.002976242128796141
-6.09375 -0.0015777314149931394
-6.07421875 -0.004584815256760671
-6.0546875 -0.0007711989391889808
-6.03515625 -0.004156907305572392
-6.015625 -0.00038354377723670563
-5.99609375 -0.0026097029176365503
-5.9765625 -0.0014429010115730324
-5.95703125 -0.0026834254867999976
-5.9375 -0.002086453219069525
-5.91796875 -0.0011942894041500843
-5.8984375 -0.0040996180820593
-5.87890625 -0.0014548282850890028
-5.859375 -0.0024991204057995334
-5.83984375 -0.003052830434101003
-5.8203125 -0.0019105628453252293
-5.80078125 -0.0039913833858303376
-5.78125 -0.002688442436436349
-5.76171875 -0.0020506879058164026
-5.7421875 -0.0021176151455175535
-5.72265625 -0.0032617446273078814
-5.703125 -0.0008548896923463618
-5.68359375 -0.003327227957976478
-5.6640625 -0.002120103736567785
-5.64453125 -0.0021676638960600693
-5.625 -0.002118975516865027
-5.60546875 -0.003153193707717654
-5.5859375 0.00012593693294063457
-5.56640625 -0.003589323362721387
-5.546875 -0.00039508000753015523
-5.52734375 -0.002927503093179645
-5.5078125 -0.0015308515030334922
-5.48828125 -0.002561550645274988
-5.46875 -0.0008952601249677819
-5.44921875 -0.003104344639945562
-5.4296875 0.0006514038397091716
-5.41015625 -0.0016113470867867219
-5.390625 -0.0008378122149833734
-5.37109375 -0.0020972472881824215
-5.3515625 -0.0016576520446462666
-5.33203125 -0.001025467517361091
-5.3125 -0.0029778167660913435
-5.29296875 -0.0017832934066727255
-5.2734375 -0.002223709369683088
-5.25390625 -0.002990647527613483
-5.234375 -0.001041266287908683
-5.21484375 -0.0029496414522390667
-5.1953125 -0.0015480948497309664
-5.17578125 -0.003087017064440042
-5.15625 -0.0008194084786058617
-5.13671875 -0.002108344071383628
-5.1171875 -0.002788368175261271
-5.09765625 0.0005047016048100553
-5.078125 -0.003601095504273559
-5.05859375 0.001952114147166353
-5.0390625 -0.0025358590169964265
-5.01953125 0.0005949391488093295
-5.0 -0.001563583337246266
-4.98046875 -0.00027336356742219126
-4.9609375 -0.0010478236025652787
-4.94140625 -0.0007694621184810568
-4.921875 -0.0014008699798009894
-4.90234375 -4.479080148062087e-5
-4.8828125 -0.004368095540080996
-4.86328125 0.0022049026682446904
-4.84375 -0.004978553295875265
-4.82421875 2.07480719635611e-5
-4.8046875 -0.003130607915840411
-4.78515625 -0.0006717086540286576
-4.765625 -0.0020913581944457804
-4.74609375 -0.00039182120790795527
-4.7265625 -0.0035209868977221503
-4.70703125 -0.0015482743012572575
-4.6875 -0.0019760223583729364
-4.66796875 -0.0032331689467074987
-4.6484375 -0.0016050908537777464
-4.62890625 -0.002552837569145261
-4.609375 -0.002575842568714265
-4.58984375 -0.0017297994492720403
-4.5703125 -0.00314597135393363
-4.55078125 0.00031965437215761283
-4.53125 -0.004141641717995553
-4.51171875 0.0009137705233155935
-4.4921875 -0.00312497949660151
-4.47265625 -0.0008035835012778214
-4.453125 -0.002780870556751233
-4.43359375 -0.0007496825552796016
-4.4140625 -0.0030988966500796883
-4.39453125 -0.0012145793211696676
-4.375 -0.0028364087445162302
-4.35546875 -0.0017263019323881905
-4.3359375 -0.002354243323034931
-4.31640625 -0.002712202594373367
-4.296875 -0.0020023761993642804
-4.27734375 -0.001259978891428131
-4.2578125 -0.002362100760025212
-4.23828125 -0.0030995600540443466
-4.21875 -0.0005638412941441004
-4.19921875 -0.003231082521501695
-4.1796875 -0.0030203462567379713
-4.16015625 0.00026113768019486207
-4.140625 -0.003918729891779752
-4.12109375 -0.0018217385062085133
-4.1015625 -0.0025954343568937045
-4.08203125 -0.0017360077674670208
-4.0625 -0.0019725875292226436
-4.04296875 -0.003579781621986383
-4.0234375 -0.0010499245203172787
-4.00390625 -0.005032485771609734
-3.984375 -0.00042532599396415734
-3.96484375 -0.0032133258920337276
-3.9453125 -0.0010113414138935295
-3.92578125 -0.0026127561246944804
-3.90625 -0.0017508702473593607
-3.88671875 -0.0016933123115353242
-3.8671875 -0.0017552513485157252
-3.84765625 -0.0004078034472504788
-3.828125 -0.0021076658656854455
-3.80859375 -0.0003722950536326217
-3.7890625 -0.002633254872488316
-3.76953125 0.0019072292631185368
-3.75 -0.0011475852137432102
-3.73046875 0.0001037761089738784
-3.7109375 -0.0004407631768615222
-3.69140625 0.0003955741768648241
-3.671875 0.0014065147599958694
-3.65234375 -0.00111261264522515
-3.6328125 0.0021263801550465353
-3.61328125 -0.0017393818356993274
-3.59375 0.0010353784180648432
-3.57421875 -8.843002159942409e-5
-3.5546875 0.0017379538281297735
-3.53515625 0.0011516357506832428
-3.515625 0.0017261570846929045
-3.49609375 0.002570108299958365
-3.4765625 0.001319704872012377
-3.45703125 0.0037893250592167527
-3.4375 0.0009458420668099904
-3.41796875 0.004138825112032091
-3.3984375 0.005518418005940225
-3.37890625 0.002602889535675973
-3.359375 0.006171306851984838
-3.33984375 0.002874421238492908
-3.3203125 0.007460103889677581
-3.30078125 0.003896864370447388
-3.28125 0.005374029889013362
-3.26171875 0.005486528616418504
-3.2421875 0.005562345984816329
-3.22265625 0.007055693898414591
-3.203125 0.006626412599691624
-3.18359375 0.006439187885634523
-3.1640625 0.0070005552541395275
-3.14453125 0.008893412643655715
-3.125 0.005390989799054446
-3.10546875 0.007524262237715407
-3.0859375 0.007931979178376458
-3.06640625 0.006619608796661458
-3.046875 0.008884274223161348
-3.02734375 0.007877756887077647
-3.0078125 0.009770922947217098
-2.98828125 0.007527512637368117
-2.96875 0.010545842163443397
-2.94921875 0.010097385471689424
-2.9296875 0.010432104211424847
-2.91015625 0.01195495732511595
-2.890625 0.009590851961770785
-2.87109375 0.013215772265513653
-2.8515625 0.011041828239586493
-2.83203125 0.0137267419742515
-2.8125 0.01265112707519031
-2.79296875 0.014221546010708186
-2.7734375 0.01646049027289856
-2.75390625 0.01421471059226409
-2.734375 0.017982514894469698
-2.71484375 0.01626523322946591
-2.6953125 0.0184833196945582
-2.67578125 0.016506065427626643
-2.65625 0.02042344324952719
-2.63671875 0.017334144991712513
-2.6171875 0.022970039486820956
-2.59765625 0.019027765025081203
-2.578125 0.024926294954475306
-2.55859375 0.022008164708106792
-2.5390625 0.028270881105504644
-2.51953125 0.026542474227499592
-2.5 0.029223173214345977
-2.48046875 0.0276038274897763
-2.4609375 0.030310315253363473
-2.44140625 0.031345004842651125
-2.421875 0.0328514244191358
-2.40234375 0.033464003780773854
-2.3828125 0.03438519723611244
-2.36328125 0.03724348029493085
-2.34375 0.037013096363554654
-2.32421875 0.04136956539295955
-2.3046875 0.038539212142977064
-2.28515625 0.045983686970390014
-2.265625 0.04249296185275431
-2.24609375 0.05085786580132812
-2.2265625 0.045732420823079156
-2.20703125 0.05390399447518157
-2.1875 0.05038732805154034
-2.16796875 0.056914465368041345
-2.1484375 0.05500022264217308
-2.12890625 0.059687415015228895
-2.109375 0.060086207898564115
-2.08984375 0.06344449968280896
-2.0703125 0.06610598324070993
-2.05078125 0.06805532033547435
-2.03125 0.07268700872568512
-2.01171875 0.07354747727345379
-1.9921875 0.07789088333802452
-1.97265625 0.07975660861057698
-1.953125 0.08287984570614937
-1.93359375 0.08660093330342689
-1.9140625 0.09017115422177979
-1.89453125 0.09442876368947112
-1.875 0.09701280083755881
-1.85546875 0.10269754367002415
-1.8359375 0.10353354832542605
-1.81640625 0.11007546922178868
-1.796875 0.11378653953424855
-1.77734375 0.11739471417579406
-1.7578125 0.12382283354671397
-1.73828125 0.12566608763276976
-1.71875 0.1346941172146412
-1.69921875 0.13580460140833406
-1.6796875 0.14499266009419332
-1.66015625 0.1461139557204274
-1.640625 0.15599287971879594
-1.62109375 0.1590966312073947
-1.6015625 0.16914448748467992
-1.58203125 0.17037999172127982
-1.5625 0.1815374803750065
-1.54296875 0.18674301389713088
-1.5234375 0.19355352036813
-1.50390625 0.20243683673973756
-1.484375 0.20809397302110844
-1.46484375 0.2197282853478839
-1.4453125 0.22572736440383778
-1.42578125 0.23563806864684267
-1.40625 0.24301822080622104
-1.38671875 0.25276028243427184
-1.3671875 0.26216621271039386
-1.34765625 0.2738242095233012
-1.328125 0.28145542555777725
-1.30859375 0.2941115996869108
-1.2890625 0.30337748299105405
-1.26953125 0.31589512624048854
-1.25 0.32601829445828656
-1.23046875 0.3378837115866188
-1.2109375 0.35082073059247887
-1.19140625 0.3626015719784218
-1.171875 0.37550096441102343
-1.15234375 0.3902391662798237
-1.1328125 0.402848001183446
-1.11328125 0.41747955487331445
-1.09375 0.4325827017458096
-1.07421875 0.44665808221286607
-1.0546875 0.46360211660230677
-1.03515625 0.4810719850590266
-1.015625 0.49643589686583245
-0.99609375 0.5151988127256828
-0.9765625 0.5304388250954948
-0.95703125 0.5508392307897194
-0.9375 0.5682118785793926
-0.91796875 0.5887810232237505
-0.8984375 0.6075831142627248
-0.87890625 0.6293281330891818
-0.859375 0.6479835353313836
-0.83984375 0.670520698767398
-0.8203125 0.6925911823378024
-0.80078125 0.7125118393961252
-0.78125 0.7362835736697309
-0.76171875 0.7601797063985445
-0.7421875 0.7819652835516124
-0.72265625 0.8080176047968677
-0.703125 0.832729565172948
-0.68359375 0.8571333307657159
-0.6640625 0.8840902767779211
-0.64453125 0.9097388399299762
-0.625 0.9361286858484703
-0.60546875 0.9646929882142503
-0.5859375 0.9919566710994663
-0.56640625 1.0204440200294305
-0.546875 1.0472008797396748
-0.52734375 1.0757839106872829
-0.5078125 1.1065228262662943
-0.48828125 1.1320189273819208
-0.46875 1.1659915780208132
-0.44921875 1.1917141222931285
-0.4296875 1.2254638834827332
-0.41015625 1.2529558879846605
-0.390625 1.2838883954325835
-0.37109375 1.3164644878044987
-0.3515625 1.3447902836532546
-0.33203125 1.3762851848316848
-0.3125 1.4073534766520392
-0.29296875 1.4360691004061323
-0.2734375 1.4667815081531992
-0.25390625 1.4970917585573034
-0.234375 1.5262179998514103
-0.21484375 1.5572262511089348
-0.1953125 1.5873016419764947
-0.17578125 1.616447070448674
-0.15625 1.6439342519983517
-0.13671875 1.6728981123403002
-0.1171875 1.6991672069873713
-0.09765625 1.7271160255976046
-0.078125 1.751714304238553
-0.05859375 1.7773449133821073
-0.0390625 1.8026945505277765
-0.01953125 1.8248829423504533
0.0 1.8489042311539827
0.01953125 1.8689965204551866
0.0390625 1.8930705608292466
0.05859375 1.9089323459711953
0.078125 1.93044612036629
0.09765625 1.9455630651995137
0.1171875 1.9622779482313284
0.13671875 1.9782668811083495
0.15625 1.9900187143183061
0.17578125 2.004116575933647
0.1953125 2.015539961787413
0.21484375 2.0248975657594546
0.234375 2.0334304633346787
0.25390625 2.0400709599525286
0.2734375 2.045424332729877
0.29296875 2.049598648196879
0.3125 2.053021072258338
0.33203125 2.055634148782471
0.3515625 2.0551786593809487
0.37109375 2.056482953271361
0.390625 2.04986327762427
0.41015625 2.051599872909554
0.4296875 2.0419321439646274
0.44921875 2.0410350410465123
0.46875 2.0280198164122414
0.48828125 2.0236259453010073
0.5078125 2.0131036499212525
0.52734375 2.00284046996616
0.546875 1.9921152416282606
0.56640625 1.9793104523242537
0.5859375 1.9686447525540742
0.60546875 1.952284154686979
0.625 1.940135647449199
0.64453125 1.9253857329670803
0.6640625 1.911724451738499
0.68359375 1.8956985662312849
0.703125 1.8815954447821264
0.72265625 1.8632134005023224
0.7421875 1.85094316947512
0.76171875 1.8314484392258559
0.78125 1.819989147981626
0.80078125 1.8026560944607548
0.8203125 1.7897880371219448
0.83984375 1.7748909849847507
0.859375 1.7624709616310976
0.87890625 1.7497163117498677
0.8984375 1.7372817145091417
0.91796875 1.7296365652413193
0.9375 1.7171018739924704
0.95703125 1.7136195062234345
0.9765625 1.7035952962294725
0.99609375 1.7025449925248948
1.015625 1.697187662448383
1.03515625 1.69571190353501
1.0546875 1.6972460545954746
1.07421875 1.6998122723247668
1.09375 1.7045698730141043
1.11328125 1.7138586053426592
1.1328125 1.7235261858563722
1.15234375 1.7377087018457864
1.171875 1.7552595680666496
1.19140625 1.773890823410367
1.2109375 1.799494596380328
1.23046875 1.824873050650703
1.25 1.859879507648936
1.26953125 1.8923059255565446
1.2890625 1.9359533030754699
1.30859375 1.9783814143678313
1.328125 2.0307454468696564
1.34765625 2.0831489508493357
1.3671875 2.1456202216086973
1.38671875 2.2097780711727006
1.40625 2.2830169635423823
1.42578125 2.3584021138853046
1.4453125 2.4438273536663053
1.46484375 2.5320185443458305
1.484375 2.6299266500017495
1.50390625 2.7322305089410985
1.5234375 2.8421841543153783
1.54296875 2.962170261310418
1.5625 3.081211044715816
1.58203125 3.2155870745761956
1.6015625 3.351514381583508
1.62109375 3.497677955484799
1.640625 3.6476234731916906
1.66015625 3.8065856240883202
1.6796875 3.969428422067034
1.69921875 4.139870542242698
1.71875 4.313420685981898
1.73828125 4.494637958452186
1.7578125 4.676496223411506
1.77734375 4.864937102558928
1.796875 5.05477623915598
1.81640625 5.246733867876438
1.8359375 5.438424878131989
1.85546875 5.629992080937349
1.875 5.818940357464209
1.89453125 6.007167822569812
1.9140625 6.187946192187853
1.93359375 6.366046739882387
1.953125 6.5326079906617744
1.97265625 6.695024891112406
1.9921875 6.84345727459027
2.01171875 6.983025884697339
2.03125 7.107486053449621
2.05078125 7.21935616708446
2.0703125 7.313063242283944
2.08984375 7.393070626939721
2.109375 7.452296144909435
2.12890625 7.495457413709724
2.1484375 7.519351564919543
2.16796875 7.522812167792891
2.1875 7.51021324222326
2.20703125 7.475292868712879
2.2265625 7.422586983532085
2.24609375 7.349631240925991
2.265625 7.261674881536177
2.28515625 7.154811562421305
2.3046875 7.03389988176602
2.32421875 6.894057305612247
2.34375 6.7471642371179374
2.36328125 6.582839499465234
2.3828125 6.410534089415229
2.40234375 6.23118581387102
2.421875 6.037782570151899
2.44140625 5.841978868444615
2.4609375 5.643001085015104
2.48046875 5.433514737699009
2.5 5.231461795207506
2.51953125 5.01867548025348
2.5390625 4.813905958778488
2.55859375 4.605075577557054
2.578125 4.402167397893226
2.59765625 4.1995745864823775
2.6171875 4.00253216086562
2.63671875 3.805972637301923
2.65625 3.6210837258804185
2.67578125 3.4333850948388727
2.6953125 3.2580500818025104
2.71484375 3.0873311722792054
2.734375 2.9213734286866524
2.75390625 2.7644227546349027
2.7734375 2.6097774277233072
2.79296875 2.466196591298921
2.8125 2.324884749936082
2.83203125 2.193626818271267
2.8515625 2.067679236896308
2.87109375 1.9479277461729876
2.890625 1.8349203890375065
2.91015625 1.7265716242374969
2.9296875 1.6245171121082875
2.94921875 1.5293069562168213
2.96875 1.4362289971598998
2.98828125 1.3521096085412272
3.0078125 1.2675217264466176
3.02734375 1.1923520207210214
3.046875 1.1196054491086218
3.06640625 1.0523944103326555
3.0859375 0.9870769869974263
3.10546875 0.928654361004166
3.125 0.8695637974382278
3.14453125 0.8195983933727933
3.1640625 0.766064740519846
3.18359375 0.722324000709329
3.203125 0.6755095637089683
3.22265625 0.6378932794656791
3.2421875 0.5951819346844842
3.26171875 0.5634525089087754
3.28125 0.5275215668204918
3.30078125 0.49492029213271954
3.3203125 0.4669166850363654
3.33984375 0.43728340161549206
3.359375 0.4124583954824135
3.37890625 0.3861578613827079
3.3984375 0.36504104627073614
3.41796875 0.341977907962827
3.4375 0.3223384618721218
3.45703125 0.3024119598393304
3.4765625 0.2863934765760967
3.49609375 0.2685691522621316
3.515625 0.2539939374678727
3.53515625 0.23735435884297598
3.5546875 0.2259230238614101
3.57421875 0.21226278725521006
3.59375 0.2002601662238458
3.61328125 0.1901690738722881
3.6328125 0.17818524744917152
3.65234375 0.16880493430704374
3.671875 0.16149965425679447
3.69140625 0.14620895681788912
3.7109375 0.14385129701342086
3.73046875 0.13207060603047915
3.75 0.12676817387614775
3.76953125 0.11798720481742653
3.7890625 0.1133812760071863
3.80859375 0.1044302958451273
3.828125 0.10205955538266437
3.84765625 0.09410099749975566
3.8671875 0.09061951490745324
3.88671875 0.08666675344659092
3.90625 0.07923257140684326
3.92578125 0.07909562587382926
3.9453125 0.07065751402591766
3.96484375 0.07157293741504761
3.984375 0.0659548299628328
4.00390625 0.06293898086622467
4.0234375 0.05961478461319104
4.04296875 0.05697174494073874
4.0625 0.052033584348677664
4.08203125 0.05283150531127316
4.1015625 0.046438975620258734
4.12109375 0.0475528798330144
4.140625 0.04213659430008305
4.16015625 0.0422851726455573
4.1796875 0.04020052073625327
4.19921875 0.0358166825598742
4.21875 0.03877409921688946
4.23828125 0.032795339187971284
4.2578125 0.03618875798041125
4.27734375 0.029644060523127642
4.296875 0.03231808662435147
4.31640625 0.029409545924719838
4.3359375 0.028586365493156032
4.35546875 0.027666105003779806
4.375 0.02641002399310178
4.39453125 0.025094556341752387
4.4140625 0.02400565085315781
4.43359375 0.021843008984114454
4.453125 0.021323238264002113
4.47265625 0.020305892382408142
4.4921875 0.01999913555402046
4.51171875 0.01806564668993834
4.53125 0.017952149816547067
4.55078125 0.015902627298956234
4.5703125 0.015004341266504809
4.58984375 0.016547234195034337
4.609375 0.012629203829660084
4.62890625 0.01453053416754516
4.6484375 0.013514909364895992
4.66796875 0.013516077464915555
4.6875 0.012808534437406684
4.70703125 0.01372045552641955
4.7265625 0.011753070773699935
4.74609375 0.012116628460190227
4.765625 0.009771732453235954
4.78515625 0.010431736131927547
4.8046875 0.009221375571934556
4.82421875 0.009607877839334714
4.84375 0.0072195181569166475
4.86328125 0.009273861014098451
4.8828125 0.007301885938118994
4.90234375 0.00912005889139433
4.921875 0.00708351035002459
4.94140625 0.009190986835308945
4.9609375 0.005615647572170592
4.98046875 0.008591553042400921
5.0 0.004243584049361981
5.01953125 0.007032508462233189
5.0390625 0.005799771905063311
5.05859375 0.006233183500603534
5.078125 0.006839828672494719
5.09765625 0.004113439232373006
5.1171875 0.00871871313441075
5.13671875 0.00431512556018987
5.15625 0.007675895850886905
5.17578125 0.004072125578628294
5.1953125 0.0075777918426847
5.21484375 0.0036540806813265547
5.234375 0.006457566146303384
5.25390625 0.004044061713920383
5.2734375 0.006017206185494145
5.29296875 0.0031090583732878985
5.3125 0.005923856969926727
5.33203125 0.00323328727606359
5.3515625 0.006234674235118531
5.37109375 0.0036967211450142923
5.390625 0.005327415427107823
5.41015625 0.0049043127893498295
5.4296875 0.0038149523458574364
5.44921875 0.005603746745159649
5.46875 0.0023816488921726
5.48828125 0.005352989080095127
5.5078125 0.0026212685656439305
5.52734375 0.0032716953113726965
5.546875 0.0045996838407628
5.56640625 0.002028825200160095
5.5859375 0.0025278685801776307
5.60546875 0.001356459181241082
5.625 0.0025763480085275094
5.64453125 0.0006660836058109236
5.6640625 0.0024900716377476637
5.68359375 0.001495179629599038
5.703125 0.003230968731197691
5.72265625 0.0017950255924282883
5.7421875 0.00240639076289056
5.76171875 0.002206970982794618
5.78125 0.0014301584901182602
5.80078125 0.0019109279888943863
5.8203125 0.0004655109452958435
5.83984375 0.00099260480143865
5.859375 0.0008708448417965118
5.87890625 0.0009806715246642216
5.8984375 0.00040141817678181375
5.91796875 -0.0003813998388019742
5.9375 0.0006339856951006412
5.95703125 0.0005325385463274264
5.9765625 0.0007634224855121953
5.99609375 0.0015576950912712488
6.015625 -0.00022489341529345012
6.03515625 0.0014129870104678255
6.0546875 0.0007110910538061688
6.07421875 0.0013479553826539785
6.09375 -6.691971151219283e-5
6.11328125 0.0007809722030771363
6.1328125 -0.0014177356798814988
6.15234375 0.0020711269084823956
6.171875 0.00043990844906375507
6.19140625 0.0012093926209413726
6.2109375 -0.00024619126802746566
6.23046875 0.000733203951690917
6.25 -0.0018652137313505193
6.26953125 0.0019455119566210606
6.2890625 0.0004879089980923748
6.30859375 0.0009960722349937612
6.328125 0.0005819038690948429
6.34765625 0.0011045396572466996
6.3671875 -0.0003525441530182402
6.38671875 0.0005275651024442933
6.40625 0.00045476472414799143
6.42578125 0.0005900944644773691
6.4453125 0.00042855113495753397
6.46484375 0.0020228671142228337
6.484375 -0.00032142880178660793
6.50390625 0.0018311922062192332
6.5234375 0.0003758103926502724
6.54296875 0.001262254092135007
6.5625 0.0011996961150613425
6.58203125 -0.0002476620377914133
6.6015625 0.0017248524504593493
6.62109375 -0.0008053451344980991
6.640625 0.0021042485982040345
6.66015625 -0.0004903341326527779
6.6796875 0.0024920965035980184
6.69921875 -0.002336616451790445
6.71875 0.001882395088729353
6.73828125 -0.0005679694392151978
6.7578125 0.001355153913582795
6.77734375 -0.0008648022351636347
6.796875 0.0014435466471188103
6.81640625 -0.0017675890802411262
6.8359375 0.0019505458536994017
6.85546875 -0.0010554994382875127
6.875 0.0010210266611437313
6.89453125 0.00041085173933685937
6.9140625 0.0006247127524524054
6.93359375 -3.936771598508915e-5
6.953125 1.4449851921949364e-6
6.97265625 0.0003226870401148718
6.9921875 -9.822954193997036e-5
7.01171875 0.0008053185151074005
7.03125 -0.0008325894893081442
7.05078125 -0.0006898941060886066
7.0703125 0.00021237639519108842
7.08984375 -0.0014106772004153084
7.109375 0.0007920289167754058
7.12890625 -0.0021590382261022223
7.1484375 0.002351691884509066
7.16796875 -0.001416803450446924
7.1875 0.000308220912477869
7.20703125 8.031629604593471e-5
7.2265625 -0.0011901871703924732
7.24609375 0.0013599373295905132
7.265625 -0.001570525869860187
7.28515625 0.0022440900135849914
7.3046875 -0.0020594131364506593
7.32421875 -0.000489013170251823
7.34375 -0.001459290870056612
7.36328125 -2.4956601086062458e-5
7.3828125 -0.0003699669279460943
7.40234375 -0.0009336873943943877
7.421875 -0.001044123107939235
7.44140625 -0.0008145765758529877
7.4609375 -0.0022023948224967997
7.48046875 -0.00042059576961221007
7.5 -0.0017082506531748006
7.51953125 -0.0006115322531532645
7.5390625 -0.003599675623702529
7.55859375 -0.0010579753697838449
7.578125 -0.003091084373470489
7.59765625 -0.000559158355809279
7.6171875 -0.0024182378951738866
7.63671875 -0.0013842358438918652
7.65625 -0.0016333850040093733
7.67578125 3.846785703753158e-5
7.6953125 -0.0021935384662738217
7.71484375 -8.194062777132045e-5
7.734375 -0.0015314634529377577
7.75390625 -0.001605382564557412
7.7734375 -0.00035534729389197824
7.79296875 -0.0007589441920000503
7.8125 -0.0006033165571360421
7.83203125 -0.0005073623948138558
7.8515625 0.00131311940440733
7.87109375 -0.002168431371752676
7.890625 0.0014932046016611356
7.91015625 -0.002269864056833892
7.9296875 0.0016162008929675971
7.94921875 -0.0018983219340306594
7.96875 -3.4695342662679866e-5
7.98828125 -0.0015827160797299926
8.0078125 -0.0020909397303393875
8.02734375 -0.0013305375771365242
8.046875 -0.0015078026003567634
8.06640625 -0.0010244616156989828
8.0859375 -0.000845060457548686
8.10546875 5.917162822973376e-5
8.125 -0.0016711027142970458
8.14453125 0.000215782827705846
8.1640625 -0.002009091919809247
8.18359375 0.0029827661038723807
8.203125 -0.0013182130521087743
8.22265625 -0.00026330732380741573
8.2421875 0.0006936455888626458
8.26171875 -0.001098296871864024
8.28125 0.000328262607575347
8.30078125 0.00018515465258150954
8.3203125 0.0010598690172118896
8.33984375 0.0005377640295367581
8.359375 0.00043624681203868754
8.37890625 0.000536912108152876
8.3984375 0.0005065622612463461
8.41796875 -0.000154823089459466
8.4375 -3.241799784614585e-6
8.45703125 0.0007238042439239312
8.4765625 -0.0009554747486280046
8.49609375 -0.0020071994790222814
8.515625 0.0008209726082806235
8.53515625 -0.002129313223598661
8.5546875 -0.0001297279102385751
8.57421875 -0.0008441237593108664
8.59375 -0.0004486416892073297
8.61328125 -0.0009200990814899335
8.6328125 0.001185772829895404
8.65234375 -0.0016918088887660776
8.671875 0.000627764142948628
8.69140625 -0.0006820053409506421
8.7109375 -0.0002843325713215439
8.73046875 -0.0005860442038674307
8.75 -0.00023858038366419976
8.76953125 0.0009102123913113935
8.7890625 0.00011079883506665
8.80859375 -0.0010858854008288787
8.828125 0.004350141845679667
8.84765625 -0.002536158176228709
8.8671875 0.0018776345303258557
8.88671875 -0.0010878993538210313
8.90625 0.0004304181728517209
8.92578125 0.0005942948284684557
8.9453125 -0.0004959745106472568
8.96484375 0.0007047625490241849
8.984375 -0.0016813166734179763
9.00390625 0.0009443371773687481
9.0234375 -0.0009512225046326428
9.04296875 3.556614627442389e-5
9.0625 -0.0004170658570197272
9.08203125 -3.5314425108845526e-5
9.1015625 -0.0010889581002033744
9.12109375 -2.520117180471182e-5
9.140625 -0.0015584879805675689
9.16015625 0.00030324581836815856
9.1796875 -0.0025296532129127636
9.19921875 0.00034935974652072765
9.21875 -0.001635413274488462
9.23828125 -0.0006998733164850224
9.2578125 -0.0015946098699721745
9.27734375 -0.0023951130282575672
9.296875 -0.0013068138319016764
9.31640625 -0.0006416602683281258
9.3359375 -0.0023369944704947354
9.35546875 -0.0006134318782615722
9.375 -0.0012757089126860799
9.39453125 -7.32163386987783e-5
9.4140625 -0.0018470244637075472
9.43359375 -0.0006580900687461477
9.453125 -0.002195417463029481
9.47265625 0.0005589357674055939
9.4921875 -0.002240950322719315
9.51171875 0.0007617099596410881
9.53125 -0.0025379139074594437
9.55078125 0.0006799194563066879
9.5703125 -0.00297812093376576
9.58984375 0.0009460966816887684
9.609375 -0.001520587461711173
9.62890625 0.0006608863452420566
9.6484375 -0.0008838128239187643
9.66796875 -0.00024993751398290354
9.6875 -0.0007133948589004846
9.70703125 -0.0001774830359113494
9.7265625 -0.001656267452404693
9.74609375 -7.377489548842514e-5
9.765625 -0.0008978171552599529
9.78515625 0.000760611263586293
9.8046875 -0.0009963269001009856
9.82421875 -0.0007241599564862151
9.84375 0.00012197277167246001
9.86328125 -0.0020752221207575323
9.8828125 5.5560862652744014e-5
9.90234375 -0.0032613936760296754
9.921875 0.002170253939192537
9.94140625 -0.002944416800413204
9.9609375 0.0026506791310082255
9.98046875 -0.0038549272583938846
