# x u
-10.0 -0.0009667976383405108
-9.98046875 -0.001036594838759619
-9.9609375 -0.0019048635025828986
-9.94140625 -0.003176462000169744
-9.921875 -0.00028242439169767763
-9.90234375 -0.003535855047039682
-9.8828125 -0.0016676419191223868
-9.86328125 -0.002804128646560766
-9.84375 -0.0019084611164363885
-9.82421875 -0.0019779921266800393
-9.8046875 -0.0003986040410195457
-9.78515625 -0.002420473902814191
-9.765625 -0.0028068412094426343
-9.74609375 -0.0005824437710273411
-9.7265625 -0.0038287756393238226
-9.70703125 -0.0014186865908254465
-9.6875 -0.00298413175746548
-9.66796875 -0.0014474201817187282
-9.6484375 -0.00345053756511704
-9.62890625 -0.0003457880497115262
-9.609375 -0.0027697897840737173
-9.58984375 -0.0012010015970900234
-9.5703125 -0.002361134151958044
-9.55078125 -0.002530989410159945
-9.53125 -0.0012973316164051063
-9.51171875 -0.001728406143468586
-9.4921875 -0.0008945502715129727
-9.47265625 -0.002182527753276542
-9.453125 -0.0013575595420101116
-9.43359375 -0.002317480208750222
-9.4140625 -0.001101066511669302
-9.39453125 -0.000993504365500275
-9.375 8.970681907516376e-5
-9.35546875 -0.000785582074551483
-9.3359375 -0.0002476451761617149
-9.31640625 -0.0010657473373364423
-9.296875 0.0009034900166540183
-9.27734375 -0.0005350545494191561
-9.2578125 9.907161985167612e-5
-9.23828125 -0.00031496196084213057
-9.21875 -0.0004368694746536006
-9.19921875 -0.0013712720862665284
-9.1796875 0.0007330470087085761
-9.16015625 -0.0007961658182084053
-9.140625 -3.9515447996407715e-5
-9.12109375 0.00019567074973436682
-9.1015625 -0.0006918774694548713
-9.08203125 -3.152916842563691e-5
-9.0625 -0.0006517096884504081
-9.04296875 0.0004785683616157499
-9.0234375 -0.001224841499004814
-9.00390625 -0.001401843762291577
-8.984375 -0.0003299022367191373
-8.96484375 -0.0019093733140473912
-8.9453125 -2.028667094355896e-5
-8.92578125 -0.0016715706469645486
-8.90625 -0.0010061007760140406
-8.88671875 -0.0025138253933143506
-8.8671875 -0.0008875846843275914
-8.84765625 -0.0022261910446731425
-8.828125 -0.0024533298107958235
-8.80859375 -0.001679503236530211
-8.7890625 -0.0025260826396458214
-8.76953125 -0.0005848098834649873
-8.75 -0.002033143050413244
-8.73046875 -0.0014501661721195713
-8.7109375 -0.0018920228796264205
-8.69140625 -0.0015412568156671913
-8.671875 -0.0016102112534501778
-8.65234375 -0.0020732562625735973
-8.6328125 -0.0009688519498045611
-8.61328125 -0.002339696700584426
-8.59375 -0.0009821455774816634
-8.57421875 -0.0016951477278581706
-8.5546875 -0.0003028285248776186
-8.53515625 -0.003261720348374242
-8.515625 -0.0005009526121904084
-8.49609375 -0.002393761626000357
-8.4765625 -0.0020615747623928815
-8.45703125 -0.0007795632412062048
-8.4375 -0.0025057121185854125
-8.41796875 -0.0007785719200344987
-8.3984375 -0.003638832051774399
-8.37890625 -0.00031157386352143046
-8.359375 -0.0029743129975086102
-8.33984375 0.0014875435466289444
-8.3203125 -0.0047388452846831575
-8.30078125 0.000481546085926432
-8.28125 -0.002979578478695455
-8.26171875 -0.000951839547029043
-8.2421875 -0.002465731501318902
-8.22265625 -0.0015521616187804121
-8.203125 -0.00020764419482222074
-8.18359375 -0.0017885685659561057
-8.1640625 -0.0007038176184525624
-8.14453125 -0.0023433282991648374
-8.125 -0.0010808314697313692
-8.10546875 -0.002378873134905146
-8.0859375 -0.002244732870643973
-8.06640625 -0.003992928086903658
-8.046875 -0.0019464727922983704
-8.02734375 -0.004950775682701414
-8.0078125 -0.00030253918454392625
-7.98828125 -0.003311700560664377
-7.96875 -0.0022378763550836567
-7.94921875 -0.002094906509099881
-7.9296875 -0.002515631229309312
-7.91015625 -0.0030035247860868974
-7.890625 -0.0029367075782285035
-7.87109375 -0.0023497642203495483
-7.8515625 -0.0025734196768223416
-7.83203125 -0.0021649300236905034
-7.8125 -0.002940609170291042
-7.79296875 -0.0022182921288976254
-7.7734375 -0.0024201663359253722
-7.75390625 -0.003141789331561562
-7.734375 -0.0021731881238322703
-7.71484375 -0.0036306630400473328
-7.6953125 -0.0037513393621830815
-7.67578125 -0.0016769616495991013
-7.65625 -0.0031954735138894075
-7.63671875 -0.0015795766889162843
-7.6171875 -0.00274689737172068
-7.59765625 -0.001720751096100842
-7.578125 -0.0036325609512504464
-7.55859375 -0.0027234517827934013
-7.5390625 -0.002214947131923106
-7.51953125 -0.0028286521271203846
-7.5 -0.0031955969780057257
-7.48046875 0.0004166375324919104
-7.4609375 -0.002588824258493207
-7.44140625 -0.0007088976886199489
-7.421875 -0.003917365032630916
-7.40234375 -0.0006798097743480791
-7.3828125 -0.0027238183741372223
-7.36328125 -0.0005355435677351522
-7.34375 -0.0018527785217769385
-7.32421875 -0.0010708463102486777
-7.3046875 -0.003729342930786764
-7.28515625 -0.0016145904414195185
-7.265625 -0.003750936185178381
-7.24609375 -0.0018387207881297434
-7.2265625 -0.004354287400037432
-7.20703125 -0.0019174111376324286
-7.1875 -0.0016521733840490541
-7.16796875 -0.0024256766872828807
-7.1484375 -0.0015233793006587438
-7.12890625 -0.0039674690863388375
-7.109375 -0.00015773230523406968
-7.08984375 -0.0034832537630307596
-7.0703125 -0.00013019607269853205
-7.05078125 -0.0034856881465870735
-7.03125 0.000503680709057766
-7.01171875 -0.0023192972967245053
-6.9921875 -0.0010886677004599524
-6.97265625 -0.0020828057897342277
-6.953125 -0.0016955873743065388
-6.93359375 -0.0017721032604842077
-6.9140625 -0.0020101120729305267
-6.89453125 -0.0009116448494100266
-6.875 -0.002132576425579215
-6.85546875 -0.0002479604351080522
-6.8359375 -0.002870588698762999
-6.81640625 -0.0012015524984407694
-6.796875 -0.0011626207279902614
-6.77734375 -0.0023696323249628934
-6.7578125 -0.0016295677711716493
-6.73828125 -0.0021789461162415105
-6.71875 -0.0021936831760778833
-6.69921875 -0.002350286061072439
-6.6796875 -0.001881215232842591
-6.66015625 -0.0018360305950901289
-6.640625 -0.0010525640707315792
-6.62109375 -0.0022316476086548832
-6.6015625 -0.0015915877004134445
-6.58203125 -0.0017287207746359973
-6.5625 -0.0015743250273019954
-6.54296875 -0.0008468500773578837
-6.5234375 -0.0025911890585474245
-6.50390625 -0.00121136166519107
-6.484375 -0.0026057721928658927
-6.46484375 -0.0014214320070850498
-6.4453125 -0.0033431250541776057
-6.42578125 -0.0019614616867462548
-6.40625 -0.0010630304651630257
-6.38671875 -0.0022393573140686894
-6.3671875 -0.0010484907146945319
-6.34765625 -0.002131148705715095
-6.328125 -0.002312676997977894
-6.30859375 -0.001610021809279055
-6.2890625 -0.0026518371693485497
-6.26953125 -0.0024193222264424817
-6.25 -0.0017010253938971945
-6.23046875 -0.0028285244240633008
-6.2109375 -0.001540025862530367
-6.19140625 -0.0027632823415595954
-6.171875 -0.002156764727575403
-6.15234375 -0.0028209528053197534
-6.1328125 -0.002749325064903196
-6.11328125 -0.0022799269817468026
-6.09375 -0.0024496797282907296
-6.07421875 -0.0026249073959885806
-6.0546875 -0.002778209468838524
-6.03515625 -0.0021364415905325822
-6.015625 -0.0027744889503343827
-5.99609375 -0.002912182630235882
-5.9765625 -0.0023612996318954057
-5.95703125 -0.0031484187698829482
-5.9375 -0.003246305116669834
-5.91796875 -0.002447978560473091
-5.8984375 -0.0018689164320860908
-5.87890625 -0.004558444969692129
-5.859375 -0.0013050751358478119
-5.83984375 -0.004583207391101544
-5.8203125 -0.0023303036498231746
-5.80078125 -0.004588852007781089
-5.78125 -0.002502508503075155
-5.76171875 -0.004809935469545241
-5.7421875 -0.002030848176451672
-5.72265625 -0.003593068467102197
-5.703125 -0.0030811117302651215
-5.68359375 -0.004008226907784879
-5.6640625 -0.0033627498838519018
-5.64453125 -0.002909917404451492
-5.625 -0.00429292845160871
-5.60546875 -0.003253372610304739
-5.5859375 -0.002700743797956256
-5.56640625 -0.00513376450547939
-5.546875 -0.0007471617970499474
-5.52734375 -0.004747492446839294
-5.5078125 -0.0030836757173687166
-5.48828125 -0.0035866449603221317
-5.46875 -0.003307205443113816
-5.44921875 -0.002576553241834054
-5.4296875 -0.002261626971529044
-5.41015625 -0.00228768081055923
-5.390625 -0.001891333718994281
-5.37109375 -0.002581121161708645
-5.3515625 -0.0014899891548524691
-5.33203125 -0.0014445926505622748
-5.3125 -0.001754897917796439
-5.29296875 -8.24752394537249e-5
-5.2734375 -0.0027052261902084885
-5.25390625 0.0009069319832284103
-5.234375 -0.001807464518792819
-5.21484375 -0.0007769673066387308
-5.1953125 -0.0002948210415082256
-5.17578125 -0.001760472559639288
-5.15625 -0.0003225451380372544
-5.13671875 -0.0011204583880694598
-5.1171875 -0.0017544667297933864
-5.09765625 -0.0012190544285027379
-5.078125 -0.001882384550250871
-5.05859375 -0.000168573883944121
-5.0390625 -0.0036600919328431594
-5.01953125 -0.0007900331783324839
-5.0 -0.0026079741146789737
-4.98046875 -0.0013105146537528561
-4.9609375 -0.002389431539450107
-4.94140625 -0.001607771035564351
-4.921875 -0.001261689932079632
-4.90234375 -0.002185921473640065
-4.8828125 -0.0001894938592729989
-4.86328125 -0.0015503194031938339
-4.84375 -0.00026262661961004574
-4.82421875 -0.0005455433590086933
-4.8046875 7.904789332560669e-6
-4.78515625 -0.001391874490511466
-4.765625 0.0002508165963759218
-4.74609375 -0.0007884849632948387
-4.7265625 -0.0007253356106673575
-4.70703125 -0.001437825134517276
-4.6875 -0.0015073582925851786
-4.66796875 -0.0013349990290240088
-4.6484375 -0.0011931803380790529
-4.62890625 -0.002048896505097056
-4.609375 -0.0011815461091040091
-4.58984375 -0.0010795529139318583
-4.5703125 -0.0011403242539050895
-4.55078125 -0.002025199386438706
-4.53125 -0.00023631524347378363
-4.51171875 -0.00015663769866353094
-4.4921875 -0.001701003869627106
-4.47265625 -0.0020530576470752446
-4.453125 -0.0012279909745075285
-4.43359375 -0.002195739615241582
-4.4140625 -0.000967914520232302
-4.39453125 -0.0012559418567104491
-4.375 -0.0014160466962045938
-4.35546875 9.995966582638464e-5
-4.3359375 -0.0011650282522690245
-4.31640625 -0.0005544552164355055
-4.296875 -0.00041455979475937734
-4.27734375 -0.0006324585996956567
-4.2578125 -0.0017719184695467226
-4.23828125 -0.001294511390515874
-4.21875 -0.0017448873555397882
-4.19921875 -0.0017498864716508087
-4.1796875 -0.0018484043969901158
-4.16015625 -0.00020125033379256134
-4.140625 -0.00208854597453448
-4.12109375 9.238980979698816e-5
-4.1015625 -0.0027151048783421875
-4.08203125 0.0018125558507353133
-4.0625 -0.0037714798333854703
-4.04296875 0.001083677044270814
-4.0234375 -0.0021763536519769783
-4.00390625 0.001020512359012906
-3.984375 -0.0028090814867701348
-3.96484375 0.001076862783116691
-3.9453125 -0.001358724364656218
-3.92578125 0.0007782911304808184
-3.90625 -0.0007686071317024993
-3.88671875 0.000714287728434901
-3.8671875 -0.0006547847698353672
-3.84765625 5.011537804127915e-5
-3.828125 0.002346762431408712
-3.80859375 0.0010403680633940273
-3.7890625 0.0022605080830398385
-3.76953125 0.001199243211908592
-3.75 0.0028883597598114673
-3.73046875 0.0017991529205621387
-3.7109375 0.0036200683551983956
-3.69140625 0.0007072136297190217
-3.671875 0.004426028729455123
-3.65234375 0.001399936165763907
-3.6328125 0.005101124293296127
-3.61328125 0.0013741052282254772
-3.59375 0.0034751509605828526
-3.57421875 0.0037460471349763207
-3.5546875 0.0014535542176369216
-3.53515625 0.0032249591464399586
-3.515625 0.0037824371695642477
-3.49609375 0.0018837103450434108
-3.4765625 0.004964818084521512
-3.45703125 0.0026238245429012225
-3.4375 0.0046743952274675045
-3.41796875 0.004124905146676433
-3.3984375 0.003852862392474836
-3.37890625 0.006354033496416047
-3.359375 0.003781490721494106
-3.33984375 0.006105974500062708
-3.3203125 0.005590821565082348
-3.30078125 0.00630022464396621
-3.28125 0.006117743985680297
-3.26171875 0.0064625634606265605
-3.2421875 0.007457076446009039
-3.22265625 0.007558310876337635
-3.203125 0.009339353624546395
-3.18359375 0.008621361866147169
-3.1640625 0.008933054705263888
-3.14453125 0.009797080881683847
-3.125 0.011845946410758063
-3.10546875 0.009480763204642528
-3.0859375 0.014053972258805003
-3.06640625 0.010375966134786682
-3.046875 0.015409605111887319
-3.02734375 0.012671934561393268
-3.0078125 0.015653381523972693
-2.98828125 0.014286670374690079
-2.96875 0.01744266877664149
-2.94921875 0.018368012444920527
-2.9296875 0.019346627221234237
-2.91015625 0.020311354301577794
-2.890625 0.020440955196796687
-2.87109375 0.022782873102664775
-2.8515625 0.020824910581616014
-2.83203125 0.02269982307078984
-2.8125 0.024365822722243927
-2.79296875 0.02516095731415442
-2.7734375 0.02475344749068555
-2.75390625 0.027499660009982933
-2.734375 0.027654621571103967
-2.71484375 0.02916937753349256
-2.6953125 0.030456947723253986
-2.67578125 0.03204220702186704
-2.65625 0.031933331643448915
-2.63671875 0.035284997414570377
-2.6171875 0.03544363069724589
-2.59765625 0.03727279691120881
-2.578125 0.03833833326205241
-2.55859375 0.04081175789451493
-2.5390625 0.04328837444424359
-2.51953125 0.04370162484942267
-2.5 0.046725909076299366
-2.48046875 0.04745191634663232
-2.4609375 0.05050903764060394
-2.44140625 0.050519776259559
-2.421875 0.05546354007490356
-2.40234375 0.055753638500701586
-2.3828125 0.058742059827973314
-2.36328125 0.061034905846995724
-2.34375 0.06372617182404405
-2.32421875 0.06560328662504206
-2.3046875 0.06923345095982766
-2.28515625 0.07085733579346279
-2.265625 0.0728200757821301
-2.24609375 0.07525846520843338
-2.2265625 0.07994345528075994
-2.20703125 0.0803293121763447
-2.1875 0.08570536634794955
-2.16796875 0.08767783352252036
-2.1484375 0.09380735865261579
-2.12890625 0.09344864106396016
-2.109375 0.10026006981341827
-2.08984375 0.10163201016619591
-2.0703125 0.10831381975936542
-2.05078125 0.11150349256440563
-2.03125 0.11489466368127896
-2.01171875 0.1203920327218547
-1.9921875 0.12505928381667103
-1.97265625 0.1303371344218918
-1.953125 0.1355036588840798
-1.93359375 0.14236305450229242
-1.9140625 0.14650713999462386
-1.89453125 0.1543014175026119
-1.875 0.1576668853319847
-1.85546875 0.1651207934890282
-1.8359375 0.17139546916562165
-1.81640625 0.17760308484264176
-1.796875 0.18389124756696518
-1.77734375 0.19207225242908477
-1.7578125 0.19826956634382498
-1.73828125 0.20800774830627877
-1.71875 0.2134271421552416
-1.69921875 0.22409830924097807
-1.6796875 0.2302884069556448
-1.66015625 0.24207275410500928
-1.640625 0.24566680253074868
-1.62109375 0.2606007593433175
-1.6015625 0.2664314219878089
-1.58203125 0.28000223294378335
-1.5625 0.2852702110967372
-1.54296875 0.30079848350669364
-1.5234375 0.3091570600202487
-1.50390625 0.3214722683916112
-1.484375 0.33359730487307937
-1.46484375 0.3467347791281341
-1.4453125 0.35836371928644695
-1.42578125 0.37193599500044605
-1.40625 0.3843426281246958
-1.38671875 0.40069473996881577
-1.3671875 0.4128510467725112
-1.34765625 0.42972109731837826
-1.328125 0.4440688175099686
-1.30859375 0.4599151448063783
-1.2890625 0.4770015210767021
-1.26953125 0.4947854101853455
-1.25 0.5120900335345899
-1.23046875 0.5320310054720183
-1.2109375 0.5502642479401034
-1.19140625 0.570128429810532
-1.171875 0.5902561296002569
-1.15234375 0.610659461525711
-1.1328125 0.6308889873667085
-1.11328125 0.6542274135862192
-1.09375 0.6757137819975139
-1.07421875 0.6982909177174941
-1.0546875 0.7238522381503136
-1.03515625 0.7451461348746538
-1.015625 0.7734439960057635
-0.99609375 0.7948332591819613
-0.9765625 0.8253489425477838
-0.95703125 0.8491011498249998
-0.9375 0.8791003547756524
-0.91796875 0.9050724198600064
-0.8984375 0.9349813529647488
-0.87890625 0.9644136493452447
-0.859375 0.9965945315181788
-0.83984375 1.025507030534036
-0.8203125 1.0595213913329289
-0.80078125 1.0902194199925772
-0.78125 1.1233574286745351
-0.76171875 1.1560453095721481
-0.7421875 1.190135786306989
-0.72265625 1.2244704759043183
-0.703125 1.2610988449738503
-0.68359375 1.2953844340254705
-0.6640625 1.3336781952690742
-0.64453125 1.368738113875088
-0.625 1.409017343429149
-0.60546875 1.4425629745371713
-0.5859375 1.4861820205387024
-0.56640625 1.520961183409352
-0.546875 1.5645456347648923
-0.52734375 1.599519370201501
-0.5078125 1.6428861068503748
-0.48828125 1.6822466834799954
-0.46875 1.7234599543878724
-0.44921875 1.7652844471773297
-0.4296875 1.8066154395707017
-0.41015625 1.8486304583291817
-0.390625 1.891269698331651
-0.37109375 1.9344194395816696
-0.3515625 1.9758990288763323
-0.33203125 2.018103049868273
-0.3125 2.0608828370216283
-0.29296875 2.1035300520801634
-0.2734375 2.1466324696194605
-0.25390625 2.189035954241316
-0.234375 2.2315880999018454
-0.21484375 2.2748314902325824
-0.1953125 2.316353888323301
-0.17578125 2.3613169703145784
-0.15625 2.4028912975032886
-0.13671875 2.4467828653867665
-0.1171875 2.4878833630724015
-0.09765625 2.532438067467202
-0.078125 2.574185300536361
-0.05859375 2.61830579012769
-0.0390625 2.6598670489344056
-0.01953125 2.7036929898079562
0.0 2.746194548897619
0.01953125 2.791036194376783
0.0390625 2.8306115804915724
0.05859375 2.878132555503245
0.078125 2.919052815604609
0.09765625 2.9647062400799564
0.1171875 3.0088146092512575
0.13671875 3.054479982739331
0.15625 3.098969150973076
0.17578125 3.1490326583296366
0.1953125 3.193965152417722
0.21484375 3.2438622900557106
0.234375 3.2913793987025106
0.25390625 3.3433261385012747
0.2734375 3.3914257887194723
0.29296875 3.448915143737686
0.3125 3.499403903100915
0.33203125 3.557971371326131
0.3515625 3.61402288191184
0.37109375 3.6745703639253606
0.390625 3.733501694088514
0.41015625 3.7979670397291767
0.4296875 3.8620973359172237
0.44921875 3.9296721793517486
0.46875 3.9994798607917175
0.48828125 4.069029879151108
0.5078125 4.144501549740125
0.52734375 4.218448428866811
0.546875 4.299644299036871
0.56640625 4.376953244586799
0.5859375 4.46133112983866
0.60546875 4.544095885493512
0.625 4.631319393675142
0.64453125 4.717839513194234
0.6640625 4.809510355998118
0.68359375 4.898846830508475
0.703125 4.9924011345115655
0.72265625 5.084758190564328
0.7421875 5.177723391495029
0.76171875 5.271782736430062
0.78125 5.365783007267469
0.80078125 5.457273901345848
0.8203125 5.55102301293268
0.83984375 5.639978893425139
0.859375 5.728656548513511
0.87890625 5.8149169772353595
0.8984375 5.896053600255472
0.91796875 5.975701364437931
0.9375 6.050316772113803
0.95703125 6.121101644352461
0.9765625 6.184019358560004
0.99609375 6.243061582416642
1.015625 6.293762446452725
1.03515625 6.340990849627854
1.0546875 6.377738853679336
1.07421875 6.4087734166136725
1.09375 6.430115858382381
1.11328125 6.442833452824023
1.1328125 6.4483889553305085
1.15234375 6.441603759660158
1.171875 6.431583326999326
1.19140625 6.404299373676625
1.2109375 6.3769747715849885
1.23046875 6.333817251128982
1.25 6.283961577554957
1.26953125 6.226312771570728
1.2890625 6.156866382426201
1.30859375 6.083387931069039
1.328125 5.998390874821118
1.34765625 5.909372184210606
1.3671875 5.8114594095709045
1.38671875 5.707580914213877
1.40625 5.597896026268364
1.42578125 5.481867670294972
1.4453125 5.363502604896955
1.46484375 5.238342475571029
1.484375 5.112063185787246
1.50390625 4.980864562052162
1.5234375 4.8498313466237075
1.54296875 4.7132910115958655
1.5625 4.580132233049724
1.58203125 4.440989764395116
1.6015625 4.306768549200241
1.62109375 4.170607401708896
1.640625 4.033742830887492
1.66015625 3.9000881778461025
1.6796875 3.7661162312845073
1.69921875 3.635751251960807
1.71875 3.504462763303997
1.73828125 3.3787824443788095
1.7578125 3.252211283120751
1.77734375 3.1315082438961155
1.796875 3.009795563660264
1.81640625 2.8968197384030616
1.8359375 2.778768626514252
1.85546875 2.673599601752445
1.875 2.5627050890659913
1.89453125 2.4620343463897756
1.9140625 2.359380142885044
1.93359375 2.2652410150239355
1.953125 2.1697625655775274
1.97265625 2.081327750807948
1.9921875 1.9927141428237327
2.01171875 1.9080922031478276
2.03125 1.829728135377945
2.05078125 1.7488413825909037
2.0703125 1.6776822861409884
2.08984375 1.6029007505892845
2.109375 1.5360977386089723
2.12890625 1.4687337667966502
2.1484375 1.4073588152995278
2.16796875 1.345306030070232
2.1875 1.2886817531471864
2.20703125 1.231398597013546
2.2265625 1.1817498567356681
2.24609375 1.1276972484798138
2.265625 1.0789078863366803
2.28515625 1.0357063173436118
2.3046875 0.9876395873264722
2.32421875 0.948405021553331
2.34375 0.9049858160742061
2.36328125 0.8667427221482588
2.3828125 0.8304487148992339
2.40234375 0.7937430059126853
2.421875 0.7609633332525921
2.44140625 0.726099686006408
2.4609375 0.695467028646729
2.48046875 0.6655113132124888
2.5 0.637296824429071
2.51953125 0.6111257194526338
2.5390625 0.5837562185346679
2.55859375 0.5604347357428439
2.578125 0.5356243580365716
2.59765625 0.5145632124280587
2.6171875 0.49275477897306763
2.63671875 0.4714321567007254
2.65625 0.45197368808174154
2.67578125 0.433357218927472
2.6953125 0.41548761281643465
2.71484375 0.39834018455677545
2.734375 0.3809809336211166
2.75390625 0.3673994552879723
2.7734375 0.35039616261330453
2.79296875 0.33689334058012577
2.8125 0.3225155628245911
2.83203125 0.3090493313227678
2.8515625 0.2971234879428625
2.87109375 0.28294455108752586
2.890625 0.27385093612992273
2.91015625 0.2598187682133697
2.9296875 0.25076120312615274
2.94921875 0.23820710668206413
2.96875 0.22945926592387647
2.98828125 0.2197246960774554
3.0078125 0.20972755936069354
3.02734375 0.20238883449614922
3.046875 0.19371580857023882
3.06640625 0.18717490688718263
3.0859375 0.17851121636960002
3.10546875 0.17338583062683105
3.125 0.16491159400866243
3.14453125 0.15882897138002322
3.1640625 0.15215653188511413
3.18359375 0.14553853055623395
3.203125 0.140122155511655
3.22265625 0.13458739644693346
3.2421875 0.12792745765082583
3.26171875 0.12389072518420471
3.28125 0.11853133710645203
3.30078125 0.1138076428808126
3.3203125 0.10990320860875921
3.33984375 0.10526848701694214
3.359375 0.10212576319874296
3.37890625 0.09617336805114599
3.3984375 0.0943147249045515
3.41796875 0.08930352512217025
3.4375 0.08695403362863773
3.45703125 0.08161599606852635
3.4765625 0.07994842074628948
3.49609375 0.075145359076572
3.515625 0.07387635735695439
3.53515625 0.07031077275359948
3.5546875 0.06727205406756903
3.57421875 0.06408177429518648
3.59375 0.06270174638769092
3.61328125 0.0614449140056446
3.6328125 0.057160585066711275
3.65234375 0.05697334850057719
3.671875 0.05122356298510697
3.69140625 0.052381404593679175
3.7109375 0.04781628092349717
3.73046875 0.04739657531388226
3.75 0.044487681036794194
3.76953125 0.04428513617006703
3.7890625 0.04157726743811705
3.80859375 0.04079868456322508
3.828125 0.037929652566060165
3.84765625 0.036443830373452404
3.8671875 0.03430152792136167
3.88671875 0.03262555757776686
3.90625 0.03262611943681084
3.92578125 0.029519274125999088
3.9453125 0.02921953539393193
3.96484375 0.02846745530916052
3.984375 0.02690208634226213
4.00390625 0.02468702912590347
4.0234375 0.026108576193524337
4.04296875 0.02289864061253894
4.0625 0.02403830162257425
4.08203125 0.021538376484960698
4.1015625 0.021370256672214913
4.12109375 0.020209456216220945
4.140625 0.020539869499501946
4.16015625 0.01759884205697855
4.1796875 0.018994458658399677
4.19921875 0.01702688522244322
4.21875 0.01579608749180604
4.23828125 0.01689619230551137
4.2578125 0.014570504865184356
4.27734375 0.01549988219866867
4.296875 0.014188971259083798
4.31640625 0.01433618146567886
4.3359375 0.014233019902071604
4.35546875 0.013721997076298193
4.375 0.013718636317434016
4.39453125 0.013376219504774033
4.4140625 0.013388984692847987
4.43359375 0.011183756728575047
4.453125 0.012722658800788402
4.47265625 0.01051990577854127
4.4921875 0.010741547283998832
4.51171875 0.011303563240549156
4.53125 0.009799787968188492
4.55078125 0.009766479709056662
4.5703125 0.008462915431765198
4.58984375 0.009575096821582458
4.609375 0.007560467067898013
4.62890625 0.008082476695109454
4.6484375 0.008429620105652659
4.66796875 0.006404229647213526
4.6875 0.0073785081273845645
4.70703125 0.006918199825111123
4.7265625 0.005692928239046959
4.74609375 0.006281731299478321
4.765625 0.00548717965591344
4.78515625 0.00638671369990279
4.8046875 0.0046888608668543665
4.82421875 0.005321980451461368
4.84375 0.0037427781370946143
4.86328125 0.00630541320187256
4.8828125 0.0028653246209361222
4.90234375 0.0034086459830328726
4.921875 0.005176984426835074
4.94140625 0.0026055790482754394
4.9609375 0.005464727040304365
4.98046875 0.002154485920505934
5.0 0.004852902392362718
5.01953125 0.0022704640402448767
5.0390625 0.002368658137500382
5.05859375 0.0028990333392284046
5.078125 0.0022102045365339634
5.09765625 0.002750303610732266
5.1171875 0.0027727069124609816
5.13671875 0.0032417245495786062
5.15625 0.0041512867619591665
5.17578125 0.00159060973176528
5.1953125 0.004842027990412098
5.21484375 0.0018690245958192658
5.234375 0.0034369135772978204
5.25390625 0.0021149119113159365
5.2734375 0.0027420226564891653
5.29296875 0.0019479039069127818
5.3125 0.002659341650284572
5.33203125 0.0006514299680516755
5.3515625 0.002750331242028864
5.37109375 0.002661912188832008
5.390625 0.0017915128053395957
5.41015625 0.0021551640384721016
5.4296875 0.0007616947674619068
5.44921875 0.003524747653975771
5.46875 0.0008775624940314808
5.48828125 0.004960988222747542
5.5078125 0.001365160345735729
5.52734375 0.0045510789189529485
5.546875 0.0021590437399559986
5.56640625 0.0027579879923102235
5.5859375 0.003408131322470684
5.60546875 0.003651286650924443
5.625 0.0021448152018437813
5.64453125 0.0028132760384770783
5.6640625 0.0015017892308400735
5.68359375 0.000959639174777609
5.703125 0.003944606249169285
5.72265625 0.0010239190957624105
5.7421875 0.0036000967889726664
5.76171875 0.001961289377287823
5.78125 0.0025774299193819196
5.80078125 0.003221971271145708
5.8203125 0.0013460735486306268
5.83984375 0.003450770051251243
5.859375 0.0019372738448402444
5.87890625 0.00167756306842003
5.8984375 0.002710224203194931
5.91796875 0.0009186905720490147
5.9375 0.0021619418077385754
5.95703125 0.0007728007695546606
5.9765625 0.0022857004336571535
5.99609375 -0.00016981590465181768
6.015625 0.002291846767505787
6.03515625 -5.3315616675427696e-5
6.0546875 0.0020920412944038696
6.07421875 0.000691101651926168
6.09375 0.0018359224842929137
6.11328125 0.00026685595356673846
6.1328125 0.002309235000466189
6.15234375 0.0006477046451643406
6.171875 0.001794212437429087
6.19140625 0.001872855300637076
6.2109375 -0.00032205247755006327
6.23046875 0.0024290480131902974
6.25 -0.0019283221550079402
6.26953125 0.0013746406861153242
6.2890625 -0.00027561762937819423
6.30859375 0.0006149212041372566
6.328125 -0.0005835394424119917
6.34765625 -7.679980562363617e-5
6.3671875 -0.0010155108651374468
6.38671875 -0.0005835248457086691
6.40625 -0.00048737530974477666
6.42578125 -0.0007463866400514102
6.4453125 0.001009269057433742
6.46484375 -0.0001931199922320919
6.484375 -0.00021820119976649795
6.50390625 0.0013850507463305933
6.5234375 -0.00087951392215744
6.54296875 0.0013893566300505747
6.5625 -0.0010580286679644875
6.58203125 0.0005966874106590673
6.6015625 -0.0013833418985483709
6.62109375 0.0002683804021795678
6.640625 0.0007271191412586285
6.66015625 -0.0008665215698624574
6.6796875 0.0009648764887842955
6.69921875 -0.00043736597098217346
6.71875 0.002772609536203773
6.73828125 -0.0017934137924175528
6.7578125 0.0011071625550297694
6.77734375 0.00015936863100804964
6.796875 -0.0009016618167283171
6.81640625 0.0009494144820769764
6.8359375 0.0007872468064088049
6.85546875 -0.00023905442900507088
6.875 -0.0009107396382403779
6.89453125 -0.0016509198470976288
6.9140625 -0.0009301991696667455
6.93359375 -0.001177629338546357
6.953125 -0.0024085653085697475
6.97265625 -0.00137715976917447
6.9921875 -0.0011906757447197915
7.01171875 -0.0011805717380613187
7.03125 -0.0012544631259122294
7.05078125 -0.001406586921590118
7.0703125 -0.0013971502715809728
7.08984375 0.00019387832610625808
7.109375 -0.0021810657474206213
7.12890625 0.0022682152228350218
7.1484375 -0.0003229653209456153
7.16796875 -0.000498373594421217
7.1875 0.0009856238859800165
7.20703125 -0.0004739691841347364
7.2265625 0.0010054809758727537
7.24609375 -0.00047333563962478203
7.265625 0.00044552133468366353
7.28515625 -0.0016035660373088009
7.3046875 0.0004731461603138358
7.32421875 -0.00119761388416402
7.34375 0.0002748212856861221
7.36328125 0.0009806373545286672
7.3828125 -0.0005002697981260629
7.40234375 0.002643866692285021
7.421875 -0.0006173910372387769
7.44140625 0.002594695979050923
7.4609375 -0.0004425820116336944
7.48046875 -0.00023650749006840898
7.5 0.0010471429165738763
7.51953125 -0.001230217723787097
7.5390625 -0.0004054537173219378
7.55859375 -0.0003610770628520117
7.578125 -0.0015907213337621232
7.59765625 0.0002032319551175662
7.6171875 -0.0021421080534980734
7.63671875 -0.0011268414513107337
7.65625 -0.002648614626044773
7.67578125 0.00023052409476740732
7.6953125 -0.001870063926970218
7.71484375 -0.0006998186489178982
7.734375 -0.0013752888795803449
7.75390625 -0.0022489609436974725
7.7734375 -0.00017126487256619678
7.79296875 -0.0018646256084630622
7.8125 -0.0004220304354302947
7.83203125 -0.0007090232076875391
7.8515625 -0.0005118857373300684
7.87109375 0.0005244435238966085
7.890625 -0.0009160323736322714
7.91015625 0.0007945530318486807
7.9296875 -0.0015895569966870274
7.94921875 -0.00014552640518876794
7.96875 -6.316119958321264e-5
7.98828125 -0.0010890753078312164
8.0078125 0.002206017161166219
8.02734375 -0.0015602292000912502
8.046875 0.0007028981069040743
8.06640625 -0.0007391806478898097
8.0859375 -0.0006420197796687871
8.10546875 -0.0002633246294599598
8.125 -0.0019290614760191227
8.14453125 -0.0003656456245727524
8.1640625 -0.0015673843627651562
8.18359375 -0.0016748856429017467
8.203125 0.00021466750753312835
8.22265625 -0.00219578531739395
8.2421875 -0.0003599441848229912
8.26171875 0.00045890423320232854
8.28125 -0.0014575307348883015
8.30078125 -0.00046403660848998163
8.3203125 -0.0005624643788093575
8.33984375 -0.0011052002235378833
8.359375 -0.0007272606293908801
8.37890625 -0.000955693725611273
8.3984375 -0.0016677999793046627
8.41796875 0.00023150895866946852
8.4375 -0.0019725782811601533
8.45703125 0.0010789706324517145
8.4765625 -0.0018919402979334643
8.49609375 0.0009900808910852654
8.515625 -0.0020233430826410714
8.53515625 -5.8565255119713555e-5
8.5546875 -0.0027750194160265362
8.57421875 -0.0009537496897495668
8.59375 -0.0015306727392138952
8.61328125 -0.0012942419846473374
8.6328125 -0.0015430200961942808
8.65234375 -0.0007305828874028808
8.671875 -0.0008605639672074339
8.69140625 0.0011633005889244152
8.7109375 -0.0007768095922693896
8.73046875 0.0005709296133929176
8.75 -0.0004654290395973426
8.76953125 -0.00048498327944490605
8.7890625 0.0005987643314631086
8.80859375 -0.0009332472637624267
8.828125 0.0006755855229423346
8.84765625 -0.0025960603972050578
8.8671875 0.0019422926125509665
8.88671875 -0.0034125834242271225
8.90625 0.00040371843725406364
8.92578125 -0.0015837616017226885
8.9453125 -0.00017847855237196342
8.96484375 -0.002008334461081729
8.984375 -0.0006985496468912
9.00390625 -0.0005930324924625641
9.0234375 -0.0006684049604788189
9.04296875 -0.0006213337538971686
9.0625 -0.0011362703519808282
9.08203125 -0.000686452727819975
9.1015625 -0.0004765691874564215
9.12109375 -3.386870364174843e-5
9.140625 -0.0015472056736667295
9.16015625 0.0002757525317661491
9.1796875 -0.0016967133296154069
9.19921875 0.0015012295927285813
9.21875 -0.0004871935363199853
9.23828125 0.0008090987535905869
9.2578125 -0.0001468347130827441
9.27734375 0.0007182859719799262
9.296875 -0.0010045291877516238
9.31640625 0.002055420857176693
9.3359375 0.00021564707820992401
9.35546875 6.180978564862549e-6
9.375 0.00032917322912695557
9.39453125 -0.0010482936319970992
9.4140625 0.0012647044447389177
9.43359375 -0.0016282810165303419
9.453125 0.0010424511249187418
9.47265625 -0.0001842907499571833
9.4921875 -0.0005575177597838543
9.51171875 -0.00019218576607016313
9.53125 -0.0006297874746971077
9.55078125 0.0008124871051199412
9.5703125 -0.0006953010422290351
9.58984375 0.0003783990957667571
9.609375 -0.0016173993473715953
9.62890625 -0.0001682576342740827
9.6484375 -0.0008457422563206141
9.66796875 -5.449916697064516e-5
9.6875 -0.000409241988182929
9.70703125 0.0008960973429763541
9.7265625 0.0004600439111617227
9.74609375 0.0005495858038830903
9.765625 0.0005419525637713196
9.78515625 -0.0008436131095976851
9.8046875 0.0001855479469727861
9.82421875 -0.0009650373445813099
9.84375 0.0020250287757783703
9.86328125 -0.0008639108500883008
9.8828125 0.00042654852094370366
9.90234375 -0.0013072634133225458
9.921875 6.11994874850641e-5
9.94140625 -0.0015624823850390879
9.9609375 -0.0002261750778274063
9.98046875 -0.001211596603722609
