# x u
-10.0 -0.003951145644263188
-9.98046875 0.003913196157658144
-9.9609375 -0.0019619465309622386
-9.94140625 0.0038956619538982884
-9.921875 -0.002051006419103052
-9.90234375 0.00480715593733716
-9.8828125 -0.004668183144614174
-9.86328125 0.008130154374628301
-9.84375 -0.006898929373583551
-9.82421875 0.004504769712723872
-9.8046875 0.0009973095156350642
-9.78515625 -0.0005403820756606226
-9.765625 0.003236754231634442
-9.74609375 -0.002045605627042313
-9.7265625 -0.00067257611994892
-9.70703125 0.0028013235594235297
-9.6875 -0.0055107630051347
-9.66796875 0.006392610265141485
-9.6484375 -0.0063856279987874465
-9.62890625 0.003375504244881533
-9.609375 -0.0035509821665531405
-9.58984375 -0.001702381354756588
-9.5703125 0.0010510337946359471
-9.55078125 -0.004406468524161156
-9.53125 0.001652336765541662
-9.51171875 -0.004100267545616987
-9.4921875 0.0024569597268027654
-9.47265625 -0.003540618631846293
-9.453125 0.0006334627057730802
-9.43359375 -0.0019491525614866445
-9.4140625 -0.00030305862259477623
-9.39453125 -0.0017335717482578339
-9.375 -0.0009955105108989115
-9.35546875 -0.0007072676696717184
-9.3359375 -0.0010509652585468099
-9.31640625 0.0009717318739262404
-9.296875 -0.002664758984172566
-9.27734375 0.0022500656089765037
-9.2578125 -0.0027609698673681793
-9.23828125 0.0015427393334903616
-9.21875 -0.000721543151246562
-9.19921875 -0.00348371825174687
-9.1796875 0.004584340797300912
-9.16015625 -0.01183778124465612
-9.140625 0.008309107057068832
-9.12109375 -0.01151537585579665
-9.1015625 0.005310261977976294
-9.08203125 -0.005200048352398845
-9.0625 -0.0023000455482927173
-9.04296875 0.002269549693364903
-9.0234375 -0.005513708188222777
-9.00390625 0.0004076087198863765
-8.984375 -0.0036931340105756383
-8.96484375 -4.621628417883494e-5
-8.9453125 -0.0062192900657203065
-8.92578125 0.0016032576994157166
-8.90625 -0.008652333719417316
-8.88671875 0.001898850304650812
-8.8671875 -0.005676304940760157
-8.84765625 -0.0025327315225705527
-8.828125 -0.00024015468244853455
-8.80859375 -0.007079069995590603
-8.7890625 0.0015785356330076383
-8.76953125 -0.007367632849447081
-8.75 0.00030813021547887454
-8.73046875 -0.00642256130834884
-8.7109375 -0.0008109138749592404
-8.69140625 -0.006264830697806978
-8.671875 -0.0013382768639220721
-8.65234375 -0.005250545345391822
-8.6328125 -0.0018915664745980942
-8.61328125 -0.0039615237384466595
-8.59375 -0.00040495314718014264
-8.57421875 -0.007997048254234196
-8.5546875 0.0053538467676272905
-8.53515625 -0.011126725483719124
-8.515625 0.0073456970721648696
-8.49609375 -0.013480603917561174
-8.4765625 0.008843164574442564
-8.45703125 -0.009916126560779837
-8.4375 0.0056091149342805124
-8.41796875 -0.00541508080684755
-8.3984375 0.002286876146642136
-8.37890625 -0.006268669989073772
-8.359375 0.001644176743970216
-8.33984375 -0.005370150530068785
-8.3203125 -0.0004123885370798108
-8.30078125 0.0007668861392898241
-8.28125 -0.005622683172202492
-8.26171875 0.0016142814579543363
-8.2421875 -0.00700185174459661
-8.22265625 0.003447800671758705
-8.203125 -0.007175416959903369
-8.18359375 0.003771211464803581
-8.1640625 -0.007926723187314022
-8.14453125 0.005274796102764601
-8.125 -0.008821906091991738
-8.10546875 0.004743781572853156
-8.0859375 -0.00635393094000597
-8.06640625 0.0008401486113731593
-8.046875 -0.0019150926133264523
-8.02734375 -0.0003746819265931789
-8.0078125 -0.000678372356324286
-7.98828125 -0.0008025004363062527
-7.96875 -0.004527739803475872
-7.94921875 0.005475950259553053
-7.9296875 -0.01152900600801876
-7.91015625 0.012223676611611889
-7.890625 -0.017372697457923914
-7.87109375 0.011665534520460374
-7.8515625 -0.01469010154259176
-7.83203125 0.008470699299121698
-7.8125 -0.011986627489815105
-7.79296875 0.006363907903336019
-7.7734375 -0.00950785534717441
-7.75390625 0.005207479644623814
-7.734375 -0.008478829111288777
-7.71484375 0.004421422537009889
-7.6953125 -0.009311391539249592
-7.67578125 0.0038843682747985997
-7.65625 -0.005879521233887353
-7.63671875 -0.0001958812850167413
-7.6171875 0.0006931939409836607
-7.59765625 -0.0060675567017676735
-7.578125 0.005374059168036793
-7.55859375 -0.007854537729337918
-7.5390625 0.007798557326796796
-7.51953125 -0.01389033827870137
-7.5 0.01317912793315612
-7.48046875 -0.015804782637998116
-7.4609375 0.011754538098866618
-7.44140625 -0.011289145349607121
-7.421875 0.004582632448591362
-7.40234375 -0.0036617973920600733
-7.3828125 -0.0014707396750470725
-7.36328125 0.000601645527449346
-7.34375 -0.00433962179188585
-7.32421875 -6.740592156595504e-5
-7.3046875 0.000883296008973744
-7.28515625 -0.004637355281642108
-7.265625 0.002624453099568047
-7.24609375 -0.008287680277149212
-7.2265625 0.0033640037109443632
-7.20703125 -0.008609665471011052
-7.1875 0.005643010511751312
-7.16796875 -0.011615025143720703
-7.1484375 0.00537405507210742
-7.12890625 -0.009415657880087913
-7.109375 0.005315999842832819
-7.08984375 -0.010499738655150304
-7.0703125 0.003976626644266901
-7.05078125 -0.00674669665868155
-7.03125 0.001516977655108942
-7.01171875 -0.005632398011300888
-6.9921875 0.0010113231637062237
-6.97265625 -0.003070812480818752
-6.953125 0.0003076354975644069
-6.93359375 -0.0035690616365128824
-6.9140625 -0.0003532335167655276
-6.89453125 -0.0021228987542694644
-6.875 -0.002895298562831883
-6.85546875 0.0015454948016655479
-6.8359375 -0.005310982678017773
-6.81640625 0.0008226622783671367
-6.796875 -0.0024887021899164807
-6.77734375 -0.00016024740389886105
-6.7578125 -0.002447643572794256
-6.73828125 -0.0009520241716489686
-6.71875 -0.001432253104867165
-6.69921875 -0.0030830069262184345
-6.6796875 -0.00037135206377802987
-6.66015625 -0.005891825623119296
-6.640625 0.0004384855551538003
-6.62109375 -0.005356204894565231
-6.6015625 -0.003485167594404537
-6.58203125 -0.002581002937482424
-6.5625 -0.0042709813744297165
-6.54296875 -0.0015195804803473933
-6.5234375 -0.006682975590295737
-6.50390625 0.002199652430196153
-6.484375 -0.007619403267156599
-6.46484375 0.003138724392556469
-6.4453125 -0.006011016424082527
-6.42578125 0.0031174098164870045
-6.40625 -0.003975399287614145
-6.38671875 0.0027069796529457513
-6.3671875 -0.0066764341853629006
-6.34765625 0.0019260986891085352
-6.328125 -0.004128026764088855
-6.30859375 -0.0013539016666137549
-6.2890625 -0.0020131998887173985
-6.26953125 -0.004861371395500136
-6.25 -1.4629399986587632e-5
-6.23046875 -0.0037618405837935853
-6.2109375 -0.002419114770522146
-6.19140625 -0.00160425283679122
-6.171875 -0.00794318272441441
-6.15234375 0.004028804401048691
-6.1328125 -0.010423924242953242
-6.11328125 0.0030713570709515192
-6.09375 -0.010643130473473095
-6.07421875 0.0022521667461292694
-6.0546875 -0.007191214856392736
-6.03515625 -0.0016682850315590247
-6.015625 -0.004029709851468333
-5.99609375 -0.004562074172944852
-5.9765625 -0.002692433915803205
-5.95703125 -0.0031496381934188467
-5.9375 -0.004217525194496696
-5.91796875 -0.0033253503380317184
-5.8984375 -0.0024545252012968533
-5.87890625 -0.0058875615693565475
-5.859375 0.000677278937771586
-5.83984375 -0.005316458316349415
-5.8203125 -0.0011974022506280324
-5.80078125 -0.0028131692484214543
-5.78125 -0.002325596339969316
-5.76171875 -0.002924574021311077
-5.7421875 -0.0010487169511947947
-5.72265625 -0.0029568010450864435
-5.703125 -0.00349939047509773
-5.68359375 -0.0007320831300168251
-5.6640625 -0.0044921826522204
-5.64453125 0.0005840009814157554
-5.625 -0.006915157057503573
-5.60546875 0.002317376219960407
-5.5859375 -0.004526844152364963
-5.56640625 -0.0016761707072506793
-5.546875 -0.003971584654753647
-5.52734375 -0.0004976008266599774
-5.5078125 -0.006276283535696522
-5.48828125 0.0018662681363731115
-5.46875 -0.006591600819063938
-5.44921875 0.003165140549347953
-5.4296875 -0.007260079051903123
-5.41015625 0.0028823716317526588
-5.390625 -0.0044576834404608245
-5.37109375 0.0004997440942136055
-5.3515625 -0.004446609103650884
-5.33203125 0.0004829235592598846
-5.3125 -0.00345548715713391
-5.29296875 -0.002823291094910904
-5.2734375 -2.160813413235041e-5
-5.25390625 -0.006198082270401695
-5.234375 0.0027398619161178306
-5.21484375 -0.004908296286607744
-5.1953125 0.000799333230124516
-5.17578125 -0.00610445314177413
-5.15625 0.0008085951492176058
-5.13671875 -0.0052283697105102445
-5.1171875 -0.0005240526369445497
-5.09765625 -0.004933794152881477
-5.078125 0.0007337250724722133
-5.05859375 -0.007693807090649096
-5.0390625 0.0025498521370543314
-5.01953125 -0.008348914489762826
-5.0 0.0012278097150759254
-4.98046875 -0.006240599804196695
-4.9609375 0.0008217088309415421
-4.94140625 -0.007110608979727304
-4.921875 0.0014914038176648825
-4.90234375 -0.00582881742705256
-4.8828125 -0.0004051520584161805
-4.86328125 -0.002043837028671641
-4.84375 -0.0037236571673314733
-4.82421875 -0.003257261941146672
-4.8046875 -0.0007174883124625164
-4.78515625 -0.004122689406760138
-4.765625 -0.0001383338840066778
-4.74609375 -0.0028326843965462423
-4.7265625 -0.0014357492023633345
-4.70703125 -0.0019963605393267247
-4.6875 0.00045061353965242246
-4.66796875 -0.006308790173259887
-4.6484375 0.004359821672302616
-4.62890625 -0.006851353619367451
-4.609375 0.0028099998215150856
-4.58984375 -0.004826821454432612
-4.5703125 -0.0030223695307015908
-4.55078125 0.004098530148821861
-4.53125 -0.011351053670993955
-4.51171875 0.011870532984473242
-4.4921875 -0.017263856217855353
-4.47265625 0.01700284352940229
-4.453125 -0.018328768035746873
-4.43359375 0.015906917583159458
-4.4140625 -0.01163995158630167
-4.39453125 0.003601813411243271
-4.375 -0.002146697297637005
-4.35546875 -0.003004964942437051
-4.3359375 0.0030136179116956666
-4.31640625 -0.005158457590116697
-4.296875 0.002031445718957737
-4.27734375 -0.0026285215041892927
-4.2578125 -0.0014742569537220807
-4.23828125 -0.0006641302678953541
-4.21875 0.0007574398504059318
-4.19921875 -0.0019851222113300565
-4.1796875 0.002387462778549978
-4.16015625 -0.003787034550710819
-4.140625 0.00403718763816225
-4.12109375 -0.0064827463542604935
-4.1015625 0.006577160198136284
-4.08203125 -0.008939494870502052
-4.0625 0.004697864761490575
-4.04296875 -0.007699915204116739
-4.0234375 0.003228558646090715
-4.00390625 -0.006790804010932072
-3.984375 0.00116909116983617
-3.96484375 -0.005457079881984045
-3.9453125 -9.007254091329686e-5
-3.92578125 -0.004536598263535169
-3.90625 -0.0018132960036689044
-3.88671875 -0.004727504128678034
-3.8671875 -0.002637844326287983
-3.84765625 -0.0032168086292150844
-3.828125 -0.005130732556326012
-3.80859375 -0.0021098547632805442
-3.7890625 -0.0050238285460637855
-3.76953125 -0.004990192000392302
-3.75 -0.0012194599957353336
-3.73046875 -0.007288013930324716
-3.7109375 0.003251766261784056
-3.69140625 -0.010783083463655085
-3.671875 0.00194926741174975
-3.65234375 -0.0039288572662807275
-3.6328125 -0.004406066066874603
-3.61328125 -0.00046076789410332
-3.59375 -0.004883458116987371
-3.57421875 -0.0016318829559835435
-3.5546875 -0.00547744575839737
-3.53515625 -0.0005286873688918892
-3.515625 -0.0031867988628159205
-3.49609375 -0.003942432575233246
-3.4765625 -0.0005787964501541287
-3.45703125 -0.005451886511167459
-3.4375 -0.0027717169030422317
-3.41796875 0.0003907557067681644
-3.3984375 -0.006954535058377176
-3.37890625 0.002422916245570006
-3.359375 -0.0067545594490791006
-3.33984375 0.003156264942053788
-3.3203125 -0.004473161575711537
-3.30078125 0.0006749511545905973
-3.28125 -0.0028865394898753838
-3.26171875 -0.00277529560786971
-3.2421875 -0.0013927081903799543
-3.22265625 -0.006525230383360281
-3.203125 0.004148815070512013
-3.18359375 -0.011897494265934005
-3.1640625 0.0072723885510750375
-3.14453125 -0.009381850972626005
-3.125 0.0013964783420332694
-3.10546875 -0.005281495226330923
-3.0859375 0.0003558491197850344
-3.06640625 -0.002034915210129773
-3.046875 -0.0040629769622482215
-3.02734375 0.0019146095652786688
-3.0078125 -0.004530339827316876
-2.98828125 -5.720867162284371e-5
-2.96875 -0.0025894975064417736
-2.94921875 -0.0027971131508592872
-2.9296875 -0.004311451413427259
-2.91015625 0.0011453949010902242
-2.890625 -0.003984174834879672
-2.87109375 -0.0024590038798670832
-2.8515625 0.0005474356445318573
-2.83203125 -0.0022277877360670217
-2.8125 -0.0012667568209994151
-2.79296875 0.0038265921388020985
-2.7734375 -0.006112497270569284
-2.75390625 0.006937095779564473
-2.734375 -0.007861747527083685
-2.71484375 0.005835626482906475
-2.6953125 -0.006112645347141843
-2.67578125 0.008703844433285424
-2.65625 -0.007801467465377687
-2.63671875 0.007851514894481104
-2.6171875 -0.004003578865437785
-2.59765625 0.002625309403149423
-2.578125 0.0012954513743639318
-2.55859375 -0.0017157443498152514
-2.5390625 0.0058773567414462935
-2.51953125 -0.004723908063463789
-2.5 0.008528818494371704
-2.48046875 -0.0077540542724914285
-2.4609375 0.009058397723849754
-2.44140625 -0.005392658898510205
-2.421875 0.005171920381019879
-2.40234375 -0.0009211957266378468
-2.3828125 0.0010851011207576033
-2.36328125 0.0041744238719856885
-2.34375 -0.0016482642959288474
-2.32421875 0.0070491822279802885
-2.3046875 0.0010993156618797628
-2.28515625 0.003784864360295792
-2.265625 0.0030736697671165936
-2.24609375 0.001447382209684711
-2.2265625 0.006644600380981636
-2.20703125 -0.001173445857360289
-2.1875 0.007072637839316609
-2.16796875 0.002114393502517964
-2.1484375 0.0023363581280624324
-2.12890625 0.004623940717473574
-2.109375 0.0018941030178395157
-2.08984375 0.006141295489122706
-2.0703125 0.002034612421176585
-2.05078125 0.007499703789455858
-2.03125 0.004357245537427529
-2.01171875 0.007470185288021791
-1.9921875 0.0027867801910614887
-1.97265625 0.007544264860463917
-1.953125 0.007310807389519419
-1.93359375 0.00498593734114916
-1.9140625 0.01001870826534157
-1.89453125 0.008066807447962843
-1.875 0.00687337412839073
-1.85546875 0.01121714813558572
-1.8359375 0.003172184477000295
-1.81640625 0.016045330350490605
-1.796875 0.002666755434106438
-1.77734375 0.013047547677234594
-1.7578125 0.006798968579370013
-1.73828125 0.011667525127995404
-1.71875 0.008187976399874342
-1.69921875 0.011221115821539063
-1.6796875 0.011244945409376927
-1.66015625 0.011406197506943827
-1.640625 0.010065242426054888
-1.62109375 0.01590956349773953
-1.6015625 0.008748158801719308
-1.58203125 0.0180072206388171
-1.5625 0.0116277808754498
-1.54296875 0.01582105376280929
-1.5234375 0.015455219142314625
-1.50390625 0.01733076317270954
-1.484375 0.01847179923152309
-1.46484375 0.017691625610736117
-1.4453125 0.022762403491286443
-1.42578125 0.015679065978243867
-1.40625 0.02413267232080507
-1.38671875 0.017535777711384926
-1.3671875 0.023987558946296228
-1.34765625 0.018946866549800934
-1.328125 0.02716678320973276
-1.30859375 0.024777482940597784
-1.2890625 0.02493918322813715
-1.26953125 0.028773718659826586
-1.25 0.028770157379636507
-1.23046875 0.02951459346291152
-1.2109375 0.03165540502241826
-1.19140625 0.03244187131430831
-1.171875 0.03373757547357448
-1.15234375 0.034442518592952776
-1.1328125 0.03929683091902547
-1.11328125 0.0356049921585091
-1.09375 0.04390102556820297
-1.07421875 0.03706653370668467
-1.0546875 0.046131834897417345
-1.03515625 0.04236432089718778
-1.015625 0.04920680244435949
-0.99609375 0.04473299891088245
-0.9765625 0.054601346529090766
-0.95703125 0.04796765761468924
-0.9375 0.05844865706599367
-0.91796875 0.054662452287972396
-0.8984375 0.06038953260551638
-0.87890625 0.05930288859606425
-0.859375 0.06922114591927031
-0.83984375 0.059688632053134016
-0.8203125 0.0742895403132019
-0.80078125 0.06751290332556681
-0.78125 0.07492856245297264
-0.76171875 0.07695285990991396
-0.7421875 0.0785753314571811
-0.72265625 0.08373290265404232
-0.703125 0.08864156175770221
-0.68359375 0.08326247308445489
-0.6640625 0.10123147202614668
-0.64453125 0.09031866570740321
-0.625 0.10597856738747757
-0.60546875 0.1015927374366079
-0.5859375 0.10778825036680667
-0.56640625 0.11733592756424466
-0.546875 0.1122735156144064
-0.52734375 0.12827521126076158
-0.5078125 0.11910036430608034
-0.48828125 0.13733277570811042
-0.46875 0.12861675051684252
-0.44921875 0.1501179889550951
-0.4296875 0.13616894488201403
-0.41015625 0.1627745048397874
-0.390625 0.14472204232878783
-0.37109375 0.17870911011677104
-0.3515625 0.1583161649486392
-0.33203125 0.1882161206051236
-0.3125 0.1729884688331016
-0.29296875 0.20177391961460622
-0.2734375 0.18761245105020774
-0.25390625 0.21522819344208688
-0.234375 0.20981513838358046
-0.21484375 0.22212832031712304
-0.1953125 0.2345321804430236
-0.17578125 0.23198734778632257
-0.15625 0.2562439801669122
-0.13671875 0.2500720727658593
-0.1171875 0.2733844106986718
-0.09765625 0.27181911126559255
-0.078125 0.2921844867837492
-0.05859375 0.2932574823308227
-0.0390625 0.3152941020148754
-0.01953125 0.3149729614910395
0.0 0.335994142072576
0.01953125 0.3419038310708754
0.0390625 0.3572679419753503
0.05859375 0.36958109215175566
0.078125 0.38332331361291794
0.09765625 0.396870666104464
0.1171875 0.4124354431416557
0.13671875 0.42240374774938527
0.15625 0.44394690259818387
0.17578125 0.4521386335169093
0.1953125 0.47629588695625136
0.21484375 0.4839778762787973
0.234375 0.5079719400920344
0.25390625 0.518318243352548
0.2734375 0.5434074801350619
0.29296875 0.5549532382576605
0.3125 0.5814516675569668
0.33203125 0.5951705499879487
0.3515625 0.6185633030092947
0.37109375 0.634845199592423
0.390625 0.660620932145173
0.41015625 0.6792338490269416
0.4296875 0.7021007547490619
0.44921875 0.7254109233863748
0.46875 0.7437306519994391
0.48828125 0.7748665629124043
0.5078125 0.7893066301519422
0.52734375 0.8250974579989329
0.546875 0.8375679466012742
0.56640625 0.8785406086965998
0.5859375 0.8848836929563793
0.60546875 0.9344440581942466
0.625 0.9378380799264678
0.64453125 0.9870692588936296
0.6640625 0.9932903667543673
0.68359375 1.0424055237322412
0.703125 1.0497316550053173
0.72265625 1.0988445318608693
0.7421875 1.1082719535074004
0.76171875 1.1544084838881203
0.78125 1.172636971691439
0.80078125 1.2057386214370807
0.8203125 1.2389123002522076
0.83984375 1.2613296701960417
0.859375 1.301445595224425
0.87890625 1.3200513961681166
0.8984375 1.3595091636070262
0.91796875 1.3842157774271746
0.9375 1.4200953869821562
0.95703125 1.4408436863036707
0.9765625 1.4815041800863844
0.99609375 1.4991996928605604
1.015625 1.5394446505590187
1.03515625 1.5598911941625966
1.0546875 1.5926958614993916
1.07421875 1.619305758752212
1.09375 1.6448094451109951
1.11328125 1.6744756714860842
1.1328125 1.6978903934310179
1.15234375 1.7264021278679
1.171875 1.7498089426709083
1.19140625 1.7726264466398416
1.2109375 1.7990870400156949
1.23046875 1.8164803276151449
1.25 1.84089814426444
1.26953125 1.858626777725811
1.2890625 1.8809943920396475
1.30859375 1.893763252888895
1.328125 1.9171304292340943
1.34765625 1.9259705442784782
1.3671875 1.9438271732254164
1.38671875 1.9520632589721452
1.40625 1.967420803209984
1.42578125 1.9712045992977731
1.4453125 1.9855858844113046
1.46484375 1.9877168398378242
1.484375 1.9978420259566099
1.50390625 1.9941938456178783
1.5234375 2.0052273931568143
1.54296875 1.9934668165645149
1.5625 2.007733869590946
1.58203125 1.9890241146804235
1.6015625 2.0016545712723057
1.62109375 1.9805172273152898
1.640625 1.9901246544774116
1.66015625 1.9656054975390453
1.6796875 1.9692240120839126
1.69921875 1.9483706326889336
1.71875 1.9428963613116799
1.73828125 1.9207661424430977
1.7578125 1.9144736424940212
1.77734375 1.885919177884183
1.796875 1.8815661656855474
1.81640625 1.8538239751094892
1.8359375 1.8398370331666414
1.85546875 1.8115234358312255
1.875 1.7967893204167664
1.89453125 1.7694518479477463
1.9140625 1.7434288822332646
1.93359375 1.7252244010591462
1.953125 1.689761131563945
1.97265625 1.6742508158554008
1.9921875 1.6356031724033326
2.01171875 1.6211994041729527
2.03125 1.5829110663622807
2.05078125 1.56271002750867
2.0703125 1.5297498140627348
2.08984375 1.4988769962558504
2.109375 1.4720717786091693
2.12890625 1.4416227880336867
2.1484375 1.4118933284799635
2.16796875 1.3804506101581722
2.1875 1.3492588541835961
2.20703125 1.322747560227826
2.2265625 1.2913269759102133
2.24609375 1.2576787056745558
2.265625 1.2341342360823373
2.28515625 1.198236969818801
2.3046875 1.1720481902669913
2.32421875 1.1429307526419135
2.34375 1.1098383887843009
2.36328125 1.0893513368920618
2.3828125 1.0478249619470494
2.40234375 1.035277102733028
2.421875 0.991045463539744
2.44140625 0.9778879848476685
2.4609375 0.9409413671774752
2.48046875 0.9216336939483799
2.5 0.8899523885250573
2.51953125 0.8702365506234494
2.5390625 0.838024967539398
2.55859375 0.8203038741536262
2.578125 0.7927237161957568
2.59765625 0.7676461772073411
2.6171875 0.7484457779939768
2.63671875 0.7231552026114914
2.65625 0.6963263593314428
2.67578125 0.686674365574288
2.6953125 0.6479303745361409
2.71484375 0.6456970052281354
2.734375 0.6085954070338913
2.75390625 0.6060900799390252
2.7734375 0.5685601598279122
2.79296875 0.5671010116937614
2.8125 0.5326951406958176
2.83203125 0.5261552120076525
2.8515625 0.5016894705246028
2.87109375 0.4878771647301701
2.890625 0.4721673989721499
2.91015625 0.45194392832126007
2.9296875 0.4439928095584263
2.94921875 0.419776840880302
2.96875 0.4172311589212735
2.98828125 0.3915291745141045
3.0078125 0.38682757813830987
3.02734375 0.36511906209600675
3.046875 0.35871701970677583
3.06640625 0.34471637735440397
3.0859375 0.32766057123121417
3.10546875 0.3238478442729934
3.125 0.30663113669257624
3.14453125 0.2980415882748042
3.1640625 0.28893274756864207
3.18359375 0.2741606593249475
3.203125 0.2688512686546556
3.22265625 0.25341976252465215
3.2421875 0.2529102192295136
3.26171875 0.2334060680939689
3.28125 0.23798116988581386
3.30078125 0.21343473185061357
3.3203125 0.22517550812899922
3.33984375 0.19533434292511842
3.359375 0.20827016870460757
3.37890625 0.181539341196697
3.3984375 0.19510258813250858
3.41796875 0.16543847770163866
3.4375 0.18120520484236868
3.45703125 0.15860050112917534
3.4765625 0.1603626921536716
3.49609375 0.15332003918725823
3.515625 0.14267969507984435
3.53515625 0.14611046449839837
3.5546875 0.13010791038420644
3.57421875 0.13606223005103746
3.59375 0.12002754145204175
3.61328125 0.12625628187749238
3.6328125 0.11168780209176887
3.65234375 0.11616710851147305
3.671875 0.10322382105561845
3.69140625 0.10534698563327916
3.7109375 0.09538355429988754
3.73046875 0.09779843358653473
3.75 0.08797017001484661
3.76953125 0.0900723400164147
3.7890625 0.08150623253334763
3.80859375 0.0829432359885719
3.828125 0.07746541461300824
3.84765625 0.07244263567883086
3.8671875 0.07440790567448569
3.88671875 0.06687916228628887
3.90625 0.06929608961565642
3.92578125 0.05894792507218766
3.9453125 0.06798108815551174
3.96484375 0.05420636928033706
3.984375 0.061716302843475734
4.00390625 0.052280699215595916
4.0234375 0.058034490053958776
4.04296875 0.043546742368324676
4.0625 0.0569524750117133
4.08203125 0.04075732533475107
4.1015625 0.04707364994301855
4.12109375 0.04479819695037901
4.140625 0.0378061719289261
4.16015625 0.04491864147979441
4.1796875 0.03562354131779977
4.19921875 0.040811459416005724
4.21875 0.031792544556491054
4.23828125 0.039855683948720744
4.2578125 0.028393048815474886
4.27734375 0.03846770203424832
4.296875 0.023304287255407674
4.31640625 0.039970786041614526
4.3359375 0.016167074182960706
4.35546875 0.044583921157766326
4.375 0.00973140452920802
4.39453125 0.04353250020578432
4.4140625 0.011499274047937665
4.43359375 0.035321177893685496
4.453125 0.016087843428069546
4.47265625 0.026715098352644854
4.4921875 0.02230231753543542
4.51171875 0.016716400075606545
4.53125 0.024727530926789594
4.55078125 0.017226656301846097
4.5703125 0.018797869343636916
4.58984375 0.01721578808413811
4.609375 0.02067996347883134
4.62890625 0.010340615008329945
4.6484375 0.023399016891436503
4.66796875 0.004198032822326059
4.6875 0.02444260585162779
4.70703125 0.003366068086968807
4.7265625 0.02428005603503676
4.74609375 0.0030362863887269387
4.765625 0.02060877392993886
4.78515625 0.006722793761923668
4.8046875 0.016780636461473028
4.82421875 0.007809375324036999
4.84375 0.013106135053606624
4.86328125 0.012767545231625183
4.8828125 0.007832440647815506
4.90234375 0.011890460659444602
4.921875 0.009141816188248608
4.94140625 0.010817675568969148
4.9609375 0.012301507060702127
4.98046875 0.006776865024288203
5.0 0.013012424251276536
5.01953125 0.010907848142120175
5.0390625 0.009005835690300085
5.05859375 0.011657112704366715
5.078125 0.014571546506573774
5.09765625 0.010040003827633912
5.1171875 0.014151834786158668
5.13671875 0.01358866986112836
5.15625 0.014111134934268188
5.17578125 0.012450688672757615
5.1953125 0.018746068436970936
5.21484375 0.01305207020547211
5.234375 0.021710641106576348
5.25390625 0.012437380527722058
5.2734375 0.023454078316233362
5.29296875 0.017853765417798817
5.3125 0.02073538707119449
5.33203125 0.024551154742417397
5.3515625 0.02192752193866912
5.37109375 0.029929713925961388
5.390625 0.02520993845884084
5.41015625 0.03086593336187557
5.4296875 0.03065735677652806
5.44921875 0.03354381980074159
5.46875 0.03765311721221323
5.48828125 0.03836312882826223
5.5078125 0.044138346186164565
5.52734375 0.043630175247140746
5.546875 0.050118597881929156
5.56640625 0.0548251553508958
5.5859375 0.05259382716308776
5.60546875 0.06535481929993026
5.625 0.06334233385935506
5.64453125 0.07550094578017601
5.6640625 0.07280774388193784
5.68359375 0.09082371991268247
5.703125 0.08195091907453433
5.72265625 0.10675396153712688
5.7421875 0.09957583155284036
5.76171875 0.12206341697329345
5.78125 0.11823852612674426
5.80078125 0.14088519352520623
5.8203125 0.140742439747414
5.83984375 0.16100054017121468
5.859375 0.16854319522682737
5.87890625 0.18226429825653145
5.8984375 0.20433262051672393
5.91796875 0.2036537067914922
5.9375 0.2457272837982203
5.95703125 0.2396764545660241
5.9765625 0.2838814185574896
5.99609375 0.2842790558707378
6.015625 0.3264361194345665
6.03515625 0.334980344655498
6.0546875 0.3769193429064883
6.07421875 0.39260057894706557
6.09375 0.4385405482299257
6.11328125 0.4582323858114401
6.1328125 0.5084152794319857
6.15234375 0.5357894541072237
6.171875 0.5894447802136178
6.19140625 0.6258212440670907
6.2109375 0.6834629594301382
6.23046875 0.7322822536418422
6.25 0.7887478646334494
6.26953125 0.8581061970825161
6.2890625 0.9098406002771979
6.30859375 0.9966740286025509
6.328125 1.0560535123763195
6.34765625 1.1535613989786873
6.3671875 1.2232467255599566
6.38671875 1.3345362194730266
6.40625 1.408544058810487
6.42578125 1.5407306389000621
6.4453125 1.624990814463394
6.46484375 1.7656828044980035
6.484375 1.875290408387968
6.50390625 2.018491388541432
6.5234375 2.1538134926424863
6.54296875 2.3065710482595794
6.5625 2.4563331035677516
6.58203125 2.6307571557167977
6.6015625 2.7959214607879197
6.62109375 2.9801595956908944
6.640625 3.175805597425661
6.66015625 3.362626089246184
6.6796875 3.579812501264829
6.69921875 3.78535531130769
6.71875 4.0054675985269315
6.73828125 4.236355579909789
6.7578125 4.460105852088844
6.77734375 4.705914644851124
6.796875 4.933085105633815
6.81640625 5.18821044737449
6.8359375 5.421084880826908
6.85546875 5.668481363785294
6.875 5.9076510676191525
6.89453125 6.144592158682921
6.9140625 6.378351813716585
6.93359375 6.599813099807406
6.953125 6.818209292025505
6.97265625 7.01899176759343
6.9921875 7.216058915578491
7.01171875 7.381324446990721
7.03125 7.552205392546784
7.05078125 7.679680463855027
7.0703125 7.811190079793743
7.08984375 7.899165718109027
7.109375 7.980736882520803
7.12890625 8.029058111289096
7.1484375 8.05570618940368
7.16796875 8.058545809567786
7.1875 8.035965940419295
7.20703125 7.98804443177688
7.2265625 7.920527967539876
7.24609375 7.81856933378976
7.265625 7.70977105205967
7.28515625 7.569237518871768
7.3046875 7.4168916629543915
7.32421875 7.2408866912062
7.34375 7.053412986748637
7.36328125 6.852037880008691
7.3828125 6.635739471960872
7.40234375 6.418277547897218
7.421875 6.180656461134543
7.44140625 5.951282245774481
7.4609375 5.705107091162127
7.48046875 5.4650719951374995
7.5 5.222518029510979
7.51953125 4.975303129824259
7.5390625 4.742126603807029
7.55859375 4.499335903163244
7.578125 4.271337013747054
7.59765625 4.043472890048453
7.6171875 3.820363248196564
7.63671875 3.6109679470631493
7.65625 3.400892806833487
7.67578125 3.2069656852002106
7.6953125 3.008204736331312
7.71484375 2.8356047009155567
7.734375 2.649611195640423
7.75390625 2.4933904614455296
7.7734375 2.3285919605073193
7.79296875 2.18165592542343
7.8125 2.0356283004627587
7.83203125 1.9066118567196746
7.8515625 1.7748284828327399
7.87109375 1.6575025845839855
7.890625 1.5449306694394989
7.91015625 1.439884661204002
7.9296875 1.3382320999229345
7.94921875 1.2470657694781324
7.96875 1.161809473123275
7.98828125 1.0767926244910042
8.0078125 1.0056494679661383
8.02734375 0.9288421255681915
8.046875 0.8722779151879946
8.06640625 0.7970653428195982
8.0859375 0.7495435973269102
8.10546875 0.6897098887369857
8.125 0.644210836498076
8.14453125 0.5957468291780422
8.1640625 0.5516277589132417
8.18359375 0.5123355957838296
8.203125 0.474413249010152
8.22265625 0.44046884181823487
8.2421875 0.4096329009566072
8.26171875 0.37280342822269774
8.28125 0.35598435605171785
8.30078125 0.3180686857001974
8.3203125 0.30243071363200624
8.33984375 0.2760612664365731
8.359375 0.2599097218504697
8.37890625 0.23513261485154824
8.3984375 0.22027318385166095
8.41796875 0.2056431434507775
8.4375 0.18593127037602314
8.45703125 0.1766719302670518
8.4765625 0.16148554542914967
8.49609375 0.14702086706898382
8.515625 0.14255046419062495
8.53515625 0.12333541970052414
8.5546875 0.12116301091889564
8.57421875 0.10505876282230137
8.59375 0.10498082817944954
8.61328125 0.08846509374026995
8.6328125 0.09172298839568371
8.65234375 0.07605082693721427
8.671875 0.07754692036615995
8.69140625 0.06497979763985612
8.7109375 0.06476481577237858
8.73046875 0.0550880943353492
8.75 0.056855869945711734
8.76953125 0.04594051724510695
8.7890625 0.04557820903356047
8.80859375 0.04381113033867151
8.828125 0.03726163959696971
8.84765625 0.03724629403541713
8.8671875 0.036084156381939736
8.88671875 0.024225870068434963
8.90625 0.03578572353286025
8.92578125 0.020264597169241894
8.9453125 0.026915395386319263
8.96484375 0.02287894993457279
8.984375 0.017914948047022594
9.00390625 0.024025311215704226
9.0234375 0.01105322986420243
9.04296875 0.02055804996194549
9.0625 0.008998310514935604
9.08203125 0.0182350514817588
9.1015625 0.006105907655336917
9.12109375 0.015851266309573397
9.140625 0.007305592505371661
9.16015625 0.014948607568509076
9.1796875 0.001512485326509716
9.19921875 0.015005984197245137
9.21875 0.00108952397071016
9.23828125 0.011537975610274975
9.2578125 0.00337122034720555
9.27734375 0.007896103721906578
9.296875 0.0038768557042953566
9.31640625 0.0035410717885819287
9.3359375 0.006016082222256358
9.35546875 0.0019274457429676595
9.375 0.0019552792053293966
9.39453125 0.0036910532069604485
9.4140625 0.001027323996017404
9.43359375 0.005017358059594967
9.453125 -5.651680933277392e-5
9.47265625 0.0022570475315517036
9.4921875 0.0009892178752570757
9.51171875 0.0031947613229786898
9.53125 0.0005914334302445368
9.55078125 0.003144752531570205
9.5703125 -0.000760670758799209
9.58984375 0.005795510548196325
9.609375 -0.0043066057800079105
9.62890625 0.004752949052304389
9.6484375 -0.0010446761332551513
9.66796875 -0.0018294771706069968
9.6875 0.005165946170928637
9.70703125 -0.0063135375201983646
9.7265625 0.005329394267408583
9.74609375 -0.006283941533037629
9.765625 0.005208334222849109
9.78515625 -0.004352274844131865
9.8046875 0.004172980192958753
9.82421875 -0.005073925723573902
9.84375 0.005426848776054705
9.86328125 -0.004581809910088441
9.8828125 0.00047203003395418497
9.90234375 -0.0007453443687662209
9.921875 -2.705160750371416e-5
9.94140625 0.0020998082206639124
9.9609375 -0.003225177333453344
9.98046875 0.00505846550979927
