# x u
-10.0 0.0004415775156993984
-9.98046875 0.0006499770514731829
-9.9609375 6.160734005911106e-5
-9.94140625 -4.8578199493332086e-5
-9.921875 -0.00017869536016679177
-9.90234375 -0.0009028080471888966
-9.8828125 -0.0007121854214774404
-9.86328125 -0.0006423711107853003
-9.84375 -0.0007266448635540601
-9.82421875 -0.00043520332913937754
-9.8046875 -0.0002786358596565397
-9.78515625 -0.00043027628410219343
-9.765625 3.835320875444914e-6
-9.74609375 0.0003918067484116605
-9.7265625 0.0008437049556669352
-9.70703125 0.0006674502386277981
-9.6875 0.0006720050414704692
-9.66796875 0.0008252049248882454
-9.6484375 0.0008540885742454041
-9.62890625 0.0011568782007586598
-9.609375 0.001301602810013125
-9.58984375 0.0005455200845188579
-9.5703125 0.001582676206961342
-9.55078125 0.0022198033571241282
-9.53125 0.00206772947343159
-9.51171875 0.0020196849692435404
-9.4921875 0.002361884450500229
-9.47265625 0.002074320059288648
-9.453125 0.0018310831477553746
-9.43359375 0.002233691178917141
-9.4140625 0.00248743809358859
-9.39453125 0.0027816652009161613
-9.375 0.003085423138650567
-9.35546875 0.0025012198623516335
-9.3359375 0.002924004270408842
-9.31640625 0.0037405771286548317
-9.296875 0.00382348970327695
-9.27734375 0.0038849514600411417
-9.2578125 0.0037685940188516565
-9.23828125 0.004595271127129652
-9.21875 0.004941686789064814
-9.19921875 0.005608772963849096
-9.1796875 0.0054493344048562875
-9.16015625 0.006182680742282343
-9.140625 0.006499741454237207
-9.12109375 0.006915346402857292
-9.1015625 0.00751127866237189
-9.08203125 0.008133685604902074
-9.0625 0.00865842725730076
-9.04296875 0.010052740291690454
-9.0234375 0.010473123351170344
-9.00390625 0.011471480136582002
-8.984375 0.01238985552512839
-8.96484375 0.01330026873319845
-8.9453125 0.015231229054647744
-8.92578125 0.01648071440604354
-8.90625 0.01801121621788221
-8.88671875 0.019394366113771988
-8.8671875 0.020822413917732263
-8.84765625 0.022677564302089614
-8.828125 0.02419084296675339
-8.80859375 0.026485935664132265
-8.7890625 0.02815153573435436
-8.76953125 0.030644916715237558
-8.75 0.03324949520026904
-8.73046875 0.035967031950515094
-8.7109375 0.03852108198230636
-8.69140625 0.041333430565784646
-8.671875 0.04505613718094986
-8.65234375 0.048907976442407186
-8.6328125 0.053144626089914326
-8.61328125 0.057910413625676505
-8.59375 0.06164386183218601
-8.57421875 0.06718683836266609
-8.5546875 0.07208196965446634
-8.53515625 0.0779581360330382
-8.515625 0.08444619254557972
-8.49609375 0.09158823155607299
-8.4765625 0.0989805919782718
-8.45703125 0.1070476266489272
-8.4375 0.11549596726597205
-8.41796875 0.1259600029707485
-8.3984375 0.1364656704430094
-8.37890625 0.14774744773424592
-8.359375 0.16037235472899475
-8.33984375 0.1733750316232498
-8.3203125 0.18718919402001089
-8.30078125 0.20244687179172077
-8.28125 0.21818204525064783
-8.26171875 0.23562018495751802
-8.2421875 0.2549951585338932
-8.22265625 0.27495957941210364
-8.203125 0.2980480944322667
-8.18359375 0.32122505352026376
-8.1640625 0.34655097984032407
-8.14453125 0.3736566749493155
-8.125 0.4031490399620037
-8.10546875 0.43546119397683236
-8.0859375 0.4704438717452607
-8.06640625 0.5075972543978926
-8.046875 0.5469804350361172
-8.02734375 0.5900690422697867
-8.0078125 0.6360978661305432
-7.98828125 0.6861297813850372
-7.96875 0.739623051828592
-7.94921875 0.7970667260590107
-7.9296875 0.8578447569805716
-7.91015625 0.9239304974168804
-7.890625 0.9951275288941667
-7.87109375 1.0705059693454788
-7.8515625 1.1508713426076205
-7.83203125 1.2363430099319688
-7.8125 1.3287129168145226
-7.79296875 1.4264682815491936
-7.7734375 1.531063183831896
-7.75390625 1.6425096128828587
-7.734375 1.7602850333528033
-7.71484375 1.885972050562936
-7.6953125 2.018440392503588
-7.67578125 2.1594126293104052
-7.65625 2.3079936082800128
-7.63671875 2.464935928483677
-7.6171875 2.629614653019825
-7.59765625 2.80216774243074
-7.578125 2.9827981546935707
-7.55859375 3.1715886106586932
-7.5390625 3.367393285801844
-7.51953125 3.5714151038365864
-7.5 3.782975474530242
-7.48046875 4.000964500698046
-7.4609375 4.225110009465546
-7.44140625 4.454872981727068
-7.421875 4.689008669507938
-7.40234375 4.926799055395838
-7.3828125 5.166406586959505
-7.36328125 5.407112953376194
-7.34375 5.647391413053616
-7.32421875 5.8851293638320215
-7.3046875 6.119576484015086
-7.28515625 6.348560847671087
-7.265625 6.570817523867654
-7.24609375 6.783545677537846
-7.2265625 6.985343501201912
-7.20703125 7.173147896109036
-7.1875 7.346045471186354
-7.16796875 7.501834894812433
-7.1484375 7.639575036752104
-7.12890625 7.757175288287029
-7.109375 7.85329860158029
-7.08984375 7.926726329897501
-7.0703125 7.976664647056166
-7.05078125 8.002552801541926
-7.03125 8.004042986171019
-7.01171875 7.980822228046476
-6.9921875 7.933454988618617
-6.97265625 7.862474105898411
-6.953125 7.768833430031569
-6.93359375 7.653666120462811
-6.9140625 7.518612943554723
-6.89453125 7.3640456485839465
-6.875 7.19333138837902
-6.85546875 7.006543232490676
-6.8359375 6.806913369173694
-6.81640625 6.595302752096853
-6.796875 6.375003993105111
-6.77734375 6.146391100294837
-6.7578125 5.912380096988839
-6.73828125 5.674703414656625
-6.71875 5.434184817728431
-6.69921875 5.193605301319581
-6.6796875 4.954021310114453
-6.66015625 4.715942096589255
-6.640625 4.481327775949094
-6.62109375 4.252028582078129
-6.6015625 4.027697360166426
-6.58203125 3.8088557373545235
-6.5625 3.5967864049658917
-6.54296875 3.3922712632970855
-6.5234375 3.195106756484309
-6.50390625 3.0050726692014536
-6.484375 2.8234127147966164
-6.46484375 2.649996086797319
-6.4453125 2.484466689679901
-6.42578125 2.327314531788791
-6.40625 2.177905109023118
-6.38671875 2.0365042630799532
-6.3671875 1.9031674658900837
-6.34765625 1.777324310383289
-6.328125 1.6582826305225564
-6.30859375 1.546243063874294
-6.2890625 1.4414471231480759
-6.26953125 1.341951632382489
-6.25 1.2492795507759267
-6.23046875 1.1630007926262746
-6.2109375 1.081928925359276
-6.19140625 1.005927906270812
-6.171875 0.9348819919368089
-6.15234375 0.8682880578738559
-6.1328125 0.8064951476368535
-6.11328125 0.7486294651643884
-6.09375 0.6941043060171062
-6.07421875 0.6438764313919547
-6.0546875 0.5974979753470332
-6.03515625 0.5537665203336054
-6.015625 0.5139098944715181
-5.99609375 0.47666219371285284
-5.9765625 0.4415554137597213
-5.95703125 0.41004944499348384
-5.9375 0.38017817554308797
-5.91796875 0.35243179809752495
-5.8984375 0.3259405626036481
-5.87890625 0.3026654152591793
-5.859375 0.2806236508797112
-5.83984375 0.26024704072060784
-5.8203125 0.24081477522057995
-5.80078125 0.2227954026352432
-5.78125 0.20631034753143934
-5.76171875 0.19142346474126445
-5.7421875 0.17692240371755213
-5.72265625 0.16366983144149788
-5.703125 0.15155499117936716
-5.68359375 0.14027366464266794
-5.6640625 0.13010436791183133
-5.64453125 0.12005267098724742
-5.625 0.11090982968556135
-5.60546875 0.10253564951796848
-5.5859375 0.0947017427569365
-5.56640625 0.08769466058860031
-5.546875 0.08126674520791115
-5.52734375 0.07507944061561787
-5.5078125 0.06994739128144868
-5.48828125 0.0642142335072339
-5.46875 0.05980832040400766
-5.44921875 0.05505751949581596
-5.4296875 0.05098156899112734
-5.41015625 0.04780155466846601
-5.390625 0.04423358872737683
-5.37109375 0.04107111460241973
-5.3515625 0.037888409395360145
-5.33203125 0.03485730633189454
-5.3125 0.032463053971338834
-5.29296875 0.029985885660034028
-5.2734375 0.028206226702008057
-5.25390625 0.02644046276928764
-5.234375 0.024731437526202087
-5.21484375 0.023067040132278276
-5.1953125 0.02146779090949811
-5.17578125 0.020740341875572683
-5.15625 0.018886343466605185
-5.13671875 0.017692827999971024
-5.1171875 0.016381450694038083
-5.09765625 0.014886254450640773
-5.078125 0.01321590242229876
-5.05859375 0.013197942544162773
-5.0390625 0.012545692353472955
-5.01953125 0.011533275000107448
-5.0 0.010633747471393784
-4.98046875 0.010201858210702686
-4.9609375 0.009730978441562121
-4.94140625 0.009271133203088311
-4.921875 0.008953751207111948
-4.90234375 0.008671560437125692
-4.8828125 0.008307570339476794
-4.86328125 0.0077744499204106254
-4.84375 0.006653750201806974
-4.82421875 0.006194918094191981
-4.8046875 0.0059636658127283915
-4.78515625 0.006328383047421227
-4.765625 0.005595851378178196
-4.74609375 0.005775650211060607
-4.7265625 0.005439637929847807
-4.70703125 0.005494351399472297
-4.6875 0.005009939075449554
-4.66796875 0.005339738821120377
-4.6484375 0.00525956603466593
-4.62890625 0.005521409394865728
-4.609375 0.0050676406366323146
-4.58984375 0.005480569598490359
-4.5703125 0.005544210018993689
-4.55078125 0.0051908131031122295
-4.53125 0.005500042967029439
-4.51171875 0.005675518606030244
-4.4921875 0.005878405558030292
-4.47265625 0.006113649017881584
-4.453125 0.006743257501613059
-4.43359375 0.007117634128049888
-4.4140625 0.007355856496917668
-4.39453125 0.0075223354737757875
-4.375 0.007558783062036289
-4.35546875 0.007833408317167227
-4.3359375 0.0075423447440854
-4.31640625 0.007329529532045194
-4.296875 0.0072359221180497285
-4.27734375 0.007501437527588018
-4.2578125 0.007487616715465661
-4.23828125 0.007979123159641477
-4.21875 0.007873764289821058
-4.19921875 0.007935724959366845
-4.1796875 0.008036478879738445
-4.16015625 0.008648912524086276
-4.140625 0.008829186190674116
-4.12109375 0.00909832449517849
-4.1015625 0.009536502913959563
-4.08203125 0.010110629213402635
-4.0625 0.011128231401735
-4.04296875 0.010846310312819477
-4.0234375 0.012349263045992266
-4.00390625 0.012791254979754653
-3.984375 0.012705706021694452
-3.96484375 0.013769706306988191
-3.9453125 0.013608615413129277
-3.92578125 0.014109524409054521
-3.90625 0.014177886533139486
-3.88671875 0.01492711657942673
-3.8671875 0.01577692763331874
-3.84765625 0.01652336212990572
-3.828125 0.017412303222768877
-3.80859375 0.017893228904402224
-3.7890625 0.019135019793622206
-3.76953125 0.020220562802187283
-3.75 0.02067731002842943
-3.73046875 0.021263118459457442
-3.7109375 0.021832860344651595
-3.69140625 0.023334305876680783
-3.671875 0.024144794319989338
-3.65234375 0.0249302973607462
-3.6328125 0.02562359064540151
-3.61328125 0.026628805831528546
-3.59375 0.02769599772775344
-3.57421875 0.02900626644368734
-3.5546875 0.030601051123143236
-3.53515625 0.0312638498862432
-3.515625 0.03213087241762906
-3.49609375 0.03279963216862722
-3.4765625 0.03417720993969778
-3.45703125 0.035495499606499906
-3.4375 0.03718379225847794
-3.41796875 0.0389857773713608
-3.3984375 0.041172608916783204
-3.37890625 0.04195637781450473
-3.359375 0.043209041635241356
-3.33984375 0.04515490075927417
-3.3203125 0.04604894341514138
-3.30078125 0.04810308276634476
-3.28125 0.05025365981893991
-3.26171875 0.052919423022686415
-3.2421875 0.0544376214614547
-3.22265625 0.0565791081779491
-3.203125 0.05921233719760431
-3.18359375 0.06159686115605148
-3.1640625 0.06375987941108699
-3.14453125 0.06654616419328982
-3.125 0.06926157643810749
-3.10546875 0.07267417534792409
-3.0859375 0.0756411053974424
-3.06640625 0.07840136585336244
-3.046875 0.08130934359235065
-3.02734375 0.08480854941582727
-3.0078125 0.08767175912021585
-2.98828125 0.09163956654450134
-2.96875 0.09510507904551235
-2.94921875 0.09862018010259521
-2.9296875 0.10244174141941098
-2.91015625 0.10646163057452429
-2.890625 0.11014379130683793
-2.87109375 0.11412775009131693
-2.8515625 0.11884614323851017
-2.83203125 0.12303068978984588
-2.8125 0.12698594843095867
-2.79296875 0.13126271315569815
-2.7734375 0.1372481942526682
-2.75390625 0.14259801301583197
-2.734375 0.14813088052003032
-2.71484375 0.15384294239617535
-2.6953125 0.16047170964188118
-2.67578125 0.16577684599019582
-2.65625 0.1722352611926442
-2.63671875 0.17883722936601193
-2.6171875 0.18547094291816252
-2.59765625 0.19225116097684347
-2.578125 0.1994765608056519
-2.55859375 0.2073836255618725
-2.5390625 0.21551430550265593
-2.51953125 0.22334950107519075
-2.5 0.23181778536310993
-2.48046875 0.24038723004092122
-2.4609375 0.24960893424721736
-2.44140625 0.2586455703583812
-2.421875 0.26839262185741825
-2.40234375 0.2782407253041672
-2.3828125 0.2883507897378549
-2.36328125 0.2992983037724357
-2.34375 0.31012541497401935
-2.32421875 0.3211656179144602
-2.3046875 0.3331087725909706
-2.28515625 0.3448531558051313
-2.265625 0.35787136058395896
-2.24609375 0.3710705685071588
-2.2265625 0.3842930248840093
-2.20703125 0.3982860887567158
-2.1875 0.4126675749739773
-2.16796875 0.4272219555009059
-2.1484375 0.44273271349981635
-2.12890625 0.4577158192297813
-2.109375 0.47361776209121653
-2.08984375 0.4895323578940119
-2.0703125 0.505840293049348
-2.05078125 0.523203659475143
-2.03125 0.5400038438463377
-2.01171875 0.5582450692337783
-1.9921875 0.5778517360532462
-1.97265625 0.5968256075682792
-1.953125 0.6167144798465838
-1.93359375 0.6369602905857772
-1.9140625 0.6575159524182173
-1.89453125 0.6789006041167551
-1.875 0.7008841936887966
-1.85546875 0.7233170013155338
-1.8359375 0.7463010904178132
-1.81640625 0.7694491754084867
-1.796875 0.7925213816943375
-1.77734375 0.8172305144626248
-1.7578125 0.8422251640567464
-1.73828125 0.8677254444834154
-1.71875 0.8935508981243169
-1.69921875 0.9194016645521788
-1.6796875 0.9458963473925539
-1.66015625 0.9733378659516588
-1.640625 1.0016168479902952
-1.62109375 1.0293846961786943
-1.6015625 1.0574468926691125
-1.58203125 1.0856963264825197
-1.5625 1.1148001456429606
-1.54296875 1.144046476996719
-1.5234375 1.1739330993470092
-1.50390625 1.2031591545793607
-1.484375 1.232731015558612
-1.46484375 1.2629910321334923
-1.4453125 1.2925987044884124
-1.42578125 1.3221989218521677
-1.40625 1.3524185243621278
-1.38671875 1.38208276508906
-1.3671875 1.4121669661515739
-1.34765625 1.442200810964053
-1.328125 1.4713104866440916
-1.30859375 1.501133626215682
-1.2890625 1.5302603953326706
-1.26953125 1.5588083949356006
-1.25 1.5871023991166984
-1.23046875 1.615316391811291
-1.2109375 1.642773874780515
-1.19140625 1.6699698555338194
-1.171875 1.6961852767617898
-1.15234375 1.7208262648648043
-1.1328125 1.7459670455464866
-1.11328125 1.7695114642786227
-1.09375 1.7928278211843316
-1.07421875 1.8142292629865455
-1.0546875 1.8349780535926528
-1.03515625 1.85513707330667
-1.015625 1.8742259102192316
-0.99609375 1.8923940132618424
-0.9765625 1.9087327755403485
-0.95703125 1.9235669975418843
-0.9375 1.9375445065627626
-0.91796875 1.9506466916175542
-0.8984375 1.961613759002369
-0.87890625 1.9715162960189225
-0.859375 1.9802987140489072
-0.83984375 1.9872632941448407
-0.8203125 1.99279782646786
-0.80078125 1.9970482801469258
-0.78125 2.0001164208417146
-0.76171875 2.0006819481169202
-0.7421875 2.00036525784154
-0.72265625 1.9981323213822246
-0.703125 1.9948077978651209
-0.68359375 1.9895436847633434
-0.6640625 1.982874697660288
-0.64453125 1.9736373879020759
-0.625 1.964344414098656
-0.60546875 1.9532001247124424
-0.5859375 1.9411915962579331
-0.56640625 1.926957752275987
-0.546875 1.9124060577946378
-0.52734375 1.8959618544720098
-0.5078125 1.8779730449263998
-0.48828125 1.858710012436964
-0.46875 1.838872182790285
-0.44921875 1.818006124978112
-0.4296875 1.7958200244172422
-0.41015625 1.7732734771169145
-0.390625 1.7496276605443664
-0.37109375 1.725167440384889
-0.3515625 1.7001625224353945
-0.33203125 1.6740132247480912
-0.3125 1.6471333859971482
-0.29296875 1.6199895439761898
-0.2734375 1.5918118987631076
-0.25390625 1.5633618079361766
-0.234375 1.5346723706130174
-0.21484375 1.5062722921887473
-0.1953125 1.4765129305932998
-0.17578125 1.4471252941858843
-0.15625 1.4172838359833781
-0.13671875 1.3874940083689942
-0.1171875 1.3575803606352748
-0.09765625 1.3273198024132278
-0.078125 1.2970081168928127
-0.05859375 1.2673890299411434
-0.0390625 1.2372757458582102
-0.01953125 1.2076602092589273
0.0 1.178052157246402
0.01953125 1.1486286070484724
0.0390625 1.1200879082465605
0.05859375 1.0912489686508096
0.078125 1.063208549088674
0.09765625 1.0347280465972954
0.1171875 1.0066939272241502
0.13671875 0.9793373639319263
0.15625 0.9516068047330053
0.17578125 0.9246925447438539
0.1953125 0.8981642613011371
0.21484375 0.8724138987863856
0.234375 0.847318736252373
0.25390625 0.8225076030884471
0.2734375 0.7982302229539762
0.29296875 0.7741888919132377
0.3125 0.7508354446253412
0.33203125 0.7279882958350177
0.3515625 0.705712485833089
0.37109375 0.6837042036725334
0.390625 0.6625392888321443
0.41015625 0.6407946218077865
0.4296875 0.6200136754765102
0.44921875 0.5999347345216581
0.46875 0.5802081987827411
0.48828125 0.5616514774284422
0.5078125 0.5425206551982746
0.52734375 0.5250510224445403
0.546875 0.5072760895258573
0.56640625 0.4904041866524478
0.5859375 0.4745570185335148
0.60546875 0.45879376504950764
0.625 0.4440834729504962
0.64453125 0.42878404794075087
0.6640625 0.4144728228554314
0.68359375 0.39991092596082145
0.703125 0.3863733707813596
0.72265625 0.37300105845417875
0.7421875 0.36040986723154533
0.76171875 0.3481116399158266
0.78125 0.3357376214228681
0.80078125 0.324101619566594
0.8203125 0.31273027200075076
0.83984375 0.3015703528031507
0.859375 0.29114872933055547
0.87890625 0.2806474937575497
0.8984375 0.27035235918630773
0.91796875 0.260588556129274
0.9375 0.2514044716404378
0.95703125 0.24237648173182536
0.9765625 0.2340106082061577
0.99609375 0.22603133699822286
1.015625 0.21708951490075346
1.03515625 0.2088601870012503
1.0546875 0.20155904724510876
1.07421875 0.19400682749904918
1.09375 0.18722102515336192
1.11328125 0.1804202983885993
1.1328125 0.17432179855147045
1.15234375 0.16829652257835392
1.171875 0.1616938430076823
1.19140625 0.15534046389325562
1.2109375 0.14922022151537329
1.23046875 0.1435542642082811
1.25 0.138240882401375
1.26953125 0.1331932364694287
1.2890625 0.12832221876438754
1.30859375 0.12345317609058482
1.328125 0.11938267951380377
1.34765625 0.11420777116964742
1.3671875 0.1098634715509792
1.38671875 0.10555710348226899
1.40625 0.10115046121320204
1.42578125 0.09748740915784249
1.4453125 0.0941891666496073
1.46484375 0.09063899269938835
1.484375 0.086947218438298
1.50390625 0.08344584415757317
1.5234375 0.08088555275043974
1.54296875 0.07804517705308622
1.5625 0.07518596041502579
1.58203125 0.0724447889050408
1.6015625 0.06976081939382728
1.62109375 0.06741321235832809
1.640625 0.06444008925065625
1.66015625 0.06245423432242592
1.6796875 0.05992542408138557
1.69921875 0.057822816804437904
1.71875 0.056227391282446026
1.73828125 0.05405168761970347
1.7578125 0.05193371347203024
1.77734375 0.050253466926818424
1.796875 0.04780061634796484
1.81640625 0.046267063284564314
1.8359375 0.04497746580958617
1.85546875 0.04350599247925624
1.875 0.041540057008804254
1.89453125 0.04002458947064047
1.9140625 0.0384510240239887
1.93359375 0.03677658076944462
1.953125 0.035107656331007764
1.97265625 0.033776948591989486
1.9921875 0.032436226883182984
2.01171875 0.03171115418932702
2.03125 0.03023353039512988
2.05078125 0.02860320291801588
2.0703125 0.027024072398471377
2.08984375 0.026706839165840823
2.109375 0.02515625998010773
2.12890625 0.024719498850127142
2.1484375 0.023351887753160327
2.16796875 0.022181844824536667
2.1875 0.021383157071515724
2.20703125 0.020693427393734254
2.2265625 0.019784417354844486
2.24609375 0.019016475733894977
2.265625 0.019246494841973938
2.28515625 0.018140044014806955
2.3046875 0.017228172909777295
2.32421875 0.01636643881801192
2.34375 0.01613794659626544
2.36328125 0.015048975683018773
2.3828125 0.01452375649704385
2.40234375 0.013197814131458263
2.421875 0.012709274099953594
2.44140625 0.012283205124721919
2.4609375 0.011670995563001885
2.48046875 0.010801226607036862
2.5 0.010551484222882379
2.51953125 0.010292877525979627
2.5390625 0.010310674022705288
2.55859375 0.009996985716393042
2.578125 0.0096861023005681
2.59765625 0.01011122821825744
2.6171875 0.009447031854960236
2.63671875 0.009324192408229237
2.65625 0.009134499723848222
2.67578125 0.009052694792643645
2.6953125 0.008989068581042009
2.71484375 0.008873898751818099
2.734375 0.008867271910137309
2.75390625 0.008224947444236491
2.7734375 0.007361263696890996
2.79296875 0.007034352420153128
2.8125 0.0068931590247930385
2.83203125 0.006208295678178155
2.8515625 0.006141852629717143
2.87109375 0.005938898951930616
2.890625 0.005946094906715077
2.91015625 0.006248457945170538
2.9296875 0.005980813265726054
2.94921875 0.0058978252106988704
2.96875 0.005362262053819011
2.98828125 0.004876679547165197
3.0078125 0.00432226864042401
3.02734375 0.003901990826922941
3.046875 0.003971230399045511
3.06640625 0.0033151611087230415
3.0859375 0.0032682064377038134
3.10546875 0.0027102217440557186
3.125 0.0028706334730328464
3.14453125 0.003376025753636158
3.1640625 0.0031093655325551417
3.18359375 0.0031408075471099917
3.203125 0.003110269299121615
3.22265625 0.0023699755181540993
3.2421875 0.0020925563036771067
3.26171875 0.002285431804666782
3.28125 0.0017740458311503726
3.30078125 0.001262631358203814
3.3203125 0.0014408501722287248
3.33984375 0.0015599074841137206
3.359375 0.0014440039982115405
3.37890625 0.0014497127935788612
3.3984375 0.0012624087175236998
3.41796875 0.0015623246543661207
3.4375 0.0014452343345711105
3.45703125 0.0009303344932199975
3.4765625 0.0005957902476070309
3.49609375 0.0007431477431230071
3.515625 0.000941494512750829
3.53515625 0.0014594830994834052
3.5546875 0.0010243335581886504
3.57421875 0.0008577722451894587
3.59375 0.0009805520948819035
3.61328125 0.0005663077294741359
3.6328125 0.001064973808952041
3.65234375 0.001118005537916189
3.671875 0.001079077400498285
3.69140625 0.0016939463008349698
3.7109375 0.0015370026467836917
3.73046875 0.0018792478934619994
3.75 0.0017904557385663988
3.76953125 0.0017018885306656073
3.7890625 0.001741272637807767
3.80859375 0.001836476412898802
3.828125 0.0022597713316324097
3.84765625 0.002110692247462187
3.8671875 0.0018881471386551774
3.88671875 0.0019195840748472137
3.90625 0.0016859248258944137
3.92578125 0.001985273756167999
3.9453125 0.0018590021329677187
3.96484375 0.00141788561276196
3.984375 0.0006588745291458559
4.00390625 0.0010327794328992002
4.0234375 0.0006510396878873781
4.04296875 0.0008540915787955267
4.0625 0.00013238377110895427
4.08203125 0.0004244987570222736
4.1015625 -4.898246764067915e-5
4.12109375 -0.0002596845914004109
4.140625 5.127298579911399e-6
4.16015625 0.0005684847984819552
4.1796875 0.0006408809848419336
4.19921875 0.00041972543156801323
4.21875 0.00046495701870129247
4.23828125 0.00022850245093611332
4.2578125 3.602964463425909e-5
4.27734375 0.0001011193628304291
4.296875 0.0004821299690475102
4.31640625 0.0002491575422381605
4.3359375 -0.00010720806170704672
4.35546875 -0.0001143842027808914
4.375 -0.0006966559678424668
4.39453125 -0.00048267543500044377
4.4140625 -0.0006168132657103469
4.43359375 -0.001110451779677439
4.453125 -0.0009725333833326202
4.47265625 -0.0008350151863679052
4.4921875 -0.0008790696256394531
4.51171875 -0.0010678062999729624
4.53125 -0.0008373573939794744
4.55078125 -0.0007669880450304582
4.5703125 -0.0005165808988435612
4.58984375 -0.0013818787419607528
4.609375 -0.00030884915373525536
4.62890625 -2.395617668269831e-5
4.6484375 -7.281232582817543e-5
4.66796875 0.00044966924637613453
4.6875 0.00042788676832081034
4.70703125 0.00024437264918940674
4.7265625 0.00023489448139275317
4.74609375 0.00023694163265485478
4.765625 7.353199783545917e-5
4.78515625 0.0001350611639980362
4.8046875 3.08642703240828e-5
4.82421875 -0.00010776923932860963
4.84375 0.0011939852758316317
4.86328125 0.0011619123607151602
4.8828125 0.0015676784921187913
4.90234375 0.0012775751529477582
4.921875 0.0010939674962601679
4.94140625 0.0014869110603166358
4.9609375 0.0014941923706697363
4.98046875 0.0015596155310407568
5.0 0.0009213542983578238
5.01953125 0.0006858852000941051
5.0390625 0.0010964181052326438
5.05859375 0.001300469691797812
5.078125 0.0006372336735341877
5.09765625 0.0007327916594062067
5.1171875 0.0002185574897367315
5.13671875 0.00011248579592557095
5.15625 0.00012691918691826176
5.17578125 0.00019944246365016793
5.1953125 0.00014425229576303655
5.21484375 0.0006859290222960279
5.234375 0.0005011054916246316
5.25390625 0.0007285536612109123
5.2734375 0.0006750273844664534
5.29296875 0.00039443078191481185
5.3125 -6.361939683618978e-6
5.33203125 -0.0006630765068093014
5.3515625 -0.0002028496273489555
5.37109375 0.00010162354754023051
5.390625 0.0003913525795346817
5.41015625 -5.357363756769429e-5
5.4296875 -2.6913571335607234e-5
5.44921875 -0.000667666277851725
5.46875 -0.0004032415594804606
5.48828125 -0.0005986634622709708
5.5078125 -0.0006263397607209342
5.52734375 -0.000435777618243649
5.546875 -0.0009565699248688386
5.56640625 -0.0007767564262737281
5.5859375 -0.0006743854263333016
5.60546875 -0.0011608850956691397
5.625 -0.0014648023573743466
5.64453125 -0.0015427953571287567
5.6640625 -0.001893977955188822
5.68359375 -0.0018676542785329778
5.703125 -0.001964925578551477
5.72265625 -0.0007622750351790469
5.7421875 -0.0015641275959553114
5.76171875 -0.0013665111830610047
5.78125 -0.0005259405148331196
5.80078125 -0.00013927052285556477
5.8203125 1.595766444991223e-5
5.83984375 -5.569635284091018e-5
5.859375 0.0004105993701217954
5.87890625 0.0001978877017233087
5.8984375 0.00022805405166161086
5.91796875 0.00026804587295085197
5.9375 -0.00012476679745768507
5.95703125 0.0002931388778689564
5.9765625 -0.00014311607441131087
5.99609375 -0.00016539958005319481
6.015625 0.0004716934707699842
6.03515625 0.0008408731025449506
6.0546875 0.0009564530115610207
6.07421875 0.0008894081716537584
6.09375 4.832660117189656e-5
6.11328125 0.0003481687378723737
6.1328125 0.00032546129730702707
6.15234375 0.00036510849181200025
6.171875 0.0004917673191514012
6.19140625 0.0007457808754012061
6.2109375 0.00047235818463425144
6.23046875 0.0007915220684770784
6.25 0.0011262403532931176
6.26953125 0.0010229282140038487
6.2890625 0.0013241271255537423
6.30859375 0.0018498699280885544
6.328125 0.0017082543794783023
6.34765625 0.0013117264798310213
6.3671875 0.000557338778273686
6.38671875 0.00022157325935379113
6.40625 0.000242836161539417
6.42578125 0.0012302274576328487
6.4453125 0.0007565997113591072
6.46484375 0.000891100243905707
6.484375 0.0010154921812454143
6.50390625 0.0007959593824012345
6.5234375 0.0010000825269547153
6.54296875 0.000961363413388816
6.5625 0.0004688102678833961
6.58203125 0.0007094765797000524
6.6015625 0.0006776016981780431
6.62109375 0.0006869557460943976
6.640625 -7.31480603861634e-5
6.66015625 -9.942213999158955e-5
6.6796875 0.00045346132259835303
6.69921875 -0.00022113065071835414
6.71875 -0.0004858715760708704
6.73828125 -0.0009721657019026997
6.7578125 -0.0005621350967532635
6.77734375 -0.001179676923345807
6.796875 -0.0013918335511075158
6.81640625 -0.001254485661548066
6.8359375 -0.0013268379695248883
6.85546875 -0.0014812426223439687
6.875 -0.0010663848957968014
6.89453125 -0.0005590748693378167
6.9140625 -0.0005482665243872198
6.93359375 -0.0012567081723120488
6.953125 -0.0007699178679296814
6.97265625 -0.0007565723111389033
6.9921875 -0.0007539629944504078
7.01171875 -0.0006792113327116489
7.03125 1.2032637046743844e-5
7.05078125 -0.0003885611230853847
7.0703125 -0.0008068236272746887
7.08984375 -0.0009005154180306008
7.109375 -0.0009830456323887127
7.12890625 -0.0009472755645232311
7.1484375 -0.001054052100332381
7.16796875 -0.00109008975941971
7.1875 -0.0010757351797530124
7.20703125 -0.0011209083101386685
7.2265625 -0.001589949240959676
7.24609375 -0.001348211171709579
7.265625 -0.0010281849661786246
7.28515625 -0.0009405782301965537
7.3046875 -0.0004066986664195138
7.32421875 -0.0005120439069741245
7.34375 -0.0008308472373781406
7.36328125 -0.001002979507620294
7.3828125 -0.0008168469033332793
7.40234375 -0.000659562220601706
7.421875 -0.0009651697748143118
7.44140625 -0.0005034833352202117
7.4609375 6.37101194164158e-5
7.48046875 0.0003516309211456514
7.5 0.00032672931713917386
7.51953125 0.0005295112493510779
7.5390625 0.0007543130741187731
7.55859375 0.0009422305852107016
7.578125 0.0009210149202214524
7.59765625 0.0012771668249791368
7.6171875 0.001088235647253022
7.63671875 0.0009939915698624624
7.65625 0.0008224434813692838
7.67578125 0.0008716348330639612
7.6953125 0.0006770616532141283
7.71484375 0.0004667143493186643
7.734375 0.00036526235922007544
7.75390625 0.0005986249890734818
7.7734375 0.0006698504288658036
7.79296875 0.0006893545675930035
7.8125 0.001572652397248131
7.83203125 0.001258569607224036
7.8515625 0.0014042072469133693
7.87109375 0.00118498278784962
7.890625 0.001480304017190015
7.91015625 0.0012209716213016364
7.9296875 0.0010046435244133178
7.94921875 0.0015428896304161555
7.96875 0.001438084978988563
7.98828125 0.0011563661372275824
8.0078125 0.001050326498199805
8.02734375 0.0011356752061795206
8.046875 0.0010157295901409569
8.06640625 0.001247679691216863
8.0859375 0.001236087299115507
8.10546875 0.0009042457551493577
8.125 0.001505141356066747
8.14453125 0.0015040755494047653
8.1640625 0.0012955940193367654
8.18359375 0.0016549678743351115
8.203125 0.0017968127380769694
8.22265625 0.001809323340771496
8.2421875 0.0010894891815062535
8.26171875 0.0016305822373480217
8.28125 0.0012528981690862473
8.30078125 0.0015527233905052729
8.3203125 0.0007822439350388954
8.33984375 0.0004637493663460779
8.359375 -3.187245570679398e-5
8.37890625 0.000371293174548315
8.3984375 8.376875420179619e-5
8.41796875 1.053048280719171e-5
8.4375 -6.345098206805844e-5
8.45703125 3.087099998744236e-6
8.4765625 -4.4434236419199635e-6
8.49609375 -0.001017663725679685
8.515625 -0.0006523234178001935
8.53515625 -0.0008947217089905202
8.5546875 -0.0012967042518348126
8.57421875 -0.0008169817661449752
8.59375 -0.000603762791682172
8.61328125 -0.00038666837682854727
8.6328125 -0.00016024681816717568
8.65234375 -0.00022229971597642617
8.671875 -0.0003929825354587191
8.69140625 -0.00016677401500664324
8.7109375 -0.0008385951880893749
8.73046875 -0.0006332684665286692
8.75 -0.0008307780683327048
8.76953125 -0.0004384575134980251
8.7890625 -0.0010161597696946578
8.80859375 -0.0013569971975928574
8.828125 -0.00198183656275136
8.84765625 -0.0021914618339976544
8.8671875 -0.001970922725555324
8.88671875 -0.002206150492362502
8.90625 -0.0026662868561015407
8.92578125 -0.002266406520588904
8.9453125 -0.002583945017830769
8.96484375 -0.0018626266300257321
8.984375 -0.0016254468569836256
9.00390625 -0.002102878674694497
9.0234375 -0.0024736599362571443
9.04296875 -0.002916580497113963
9.0625 -0.002894677467100981
9.08203125 -0.0032344782188207244
9.1015625 -0.0030614852310001384
9.12109375 -0.0030063822711985932
9.140625 -0.002478055569169857
9.16015625 -0.002442317748207967
9.1796875 -0.002425462092826236
9.19921875 -0.002372551779067422
9.21875 -0.002286122359079157
9.23828125 -0.002084977617853423
9.2578125 -0.0022523917925065806
9.27734375 -0.0026209273481093143
9.296875 -0.0028308783876452304
9.31640625 -0.002687365019184318
9.3359375 -0.002386633796476023
9.35546875 -0.0021321824014504664
9.375 -0.001697751310488993
9.39453125 -0.002233625578735521
9.4140625 -0.0020272369026452797
9.43359375 -0.002594318702482945
9.453125 -0.002173186235788993
9.47265625 -0.0023821308431876687
9.4921875 -0.002402549460982506
9.51171875 -0.00225132193458355
9.53125 -0.002401683744161831
9.55078125 -0.0023199295585166757
9.5703125 -0.0023561807528653667
9.58984375 -0.002385878444766898
9.609375 -0.0020000029877483283
9.62890625 -0.001986022630864781
9.6484375 -0.0017390338354645873
9.66796875 -0.0013637029466750383
9.6875 -0.0018259404221115383
9.70703125 -0.001772784954948592
9.7265625 -0.0019641544968731495
9.74609375 -0.0019010534889662423
9.765625 -0.0021860127940842577
9.78515625 -0.0018449287779382928
9.8046875 -0.0017196491297430394
9.82421875 -0.001542586745693686
9.84375 -0.0009564452892650288
9.86328125 -0.0007225216901894926
9.8828125 -0.00033906173667314077
9.90234375 -1.666293523577833e-5
9.921875 -3.6480050163989475e-7
9.94140625 -0.000521250979961918
9.9609375 -0.00010391578659296741
9.98046875 0.00041018638532380747
